//=================================================================================================
Geometry.Tolerance = 1.0e-8;
Mesh.ElementOrder = 1;
LEN = 0.150;
Mesh.CharacteristicLengthMin = 0.001;
Mesh.CharacteristicLengthMax = 1.0;

//=================================================================================================
Point(1) = {0.0, 0.0, 0.0};
Extrude {LEN, 0.0, 0.0} { Point{1}; }
Extrude {{0, 0, +1}, {0.0, 0.0, 0.0}, +Pi/2} { Line{1}; }
Extrude {{0, -1, 0}, {0.0, 0.0, 0.0}, +Pi/2} { Line{1}; }
Extrude {{+1, 0, 0}, {0.0, 0.0, 0.0}, +Pi/2} { Line{2}; }
Line Loop(11) = {3, 9, -6}; Ruled Surface(12) = {11};
Surface Loop(13) = {10, 4, 7, 12}; Volume(14) = {13};
Symmetry {-1, 0, 0, 1.0e-12} { Duplicata{ Volume{14}; } }
Symmetry {0, -1, 0, 1.0e-12} { Duplicata{ Volume{14,15}; } }
Symmetry {0, 0, -1, 1.0e-12} { Duplicata{ Volume{14,15,29,46}; } }

//=================================================================================================
Transfinite Line "*" = 13;
Transfinite Line {1,2,5,21,31,-64} = 18 Using Progression 1.2;

//=================================================================================================
// Physical volumes and surfaces
Physical Volume(3000) = {14,15,29,46,60,77,94,111}; // tumour-host physical domain
Physical Surface(2000) = {12,28,42,59,73,90,107,124};

//=================================================================================================

