$MeshFormat
2.2 0 8
$EndMeshFormat
$Nodes
128
1 -0.002 -0.002 0
2 0.002 -0.002 0
3 -0.002 0.002 0
4 0.002 0.002 0
5 -0.002 -0.002 0.02
6 0.002 -0.002 0.02
7 0.002 0.002 0.02
8 -0.002 0.002 0.02
9 -0.0006666666666666668 -0.002 0
10 0.0006666666666666665 -0.002 0
11 -0.0006666666666666668 0.002 0
12 0.0006666666666666665 0.002 0
13 -0.002 -0.0006666666666666668 0
14 -0.002 0.0006666666666666665 0
15 0.002 -0.0006666666666666668 0
16 0.002 0.0006666666666666665 0
17 -0.0006666666666666668 -0.002 0.02
18 0.0006666666666666665 -0.002 0.02
19 0.002 -0.0006666666666666668 0.02
20 0.002 0.0006666666666666665 0.02
21 0.0006666666666666665 0.002 0.02
22 -0.0006666666666666668 0.002 0.02
23 -0.002 0.0006666666666666665 0.02
24 -0.002 -0.0006666666666666668 0.02
25 -0.002 -0.002 0.002857142857142857
26 -0.002 -0.002 0.005714285714285714
27 -0.002 -0.002 0.008571428571428572
28 -0.002 -0.002 0.01142857142857143
29 -0.002 -0.002 0.01428571428571429
30 -0.002 -0.002 0.01714285714285714
31 0.002 -0.002 0.002857142857142857
32 0.002 -0.002 0.005714285714285714
33 0.002 -0.002 0.008571428571428572
34 0.002 -0.002 0.01142857142857143
35 0.002 -0.002 0.01428571428571429
36 0.002 -0.002 0.01714285714285714
37 0.002 0.002 0.002857142857142857
38 0.002 0.002 0.005714285714285714
39 0.002 0.002 0.008571428571428572
40 0.002 0.002 0.01142857142857143
41 0.002 0.002 0.01428571428571429
42 0.002 0.002 0.01714285714285714
43 -0.002 0.002 0.002857142857142857
44 -0.002 0.002 0.005714285714285714
45 -0.002 0.002 0.008571428571428572
46 -0.002 0.002 0.01142857142857143
47 -0.002 0.002 0.01428571428571429
48 -0.002 0.002 0.01714285714285714
49 -0.0006666666666666668 -0.0006666666666666668 0
50 -0.0006666666666666668 0.0006666666666666665 0
51 0.0006666666666666665 -0.0006666666666666668 0
52 0.0006666666666666665 0.0006666666666666665 0
53 -0.0006666666666666668 -0.002 0.002857142857142857
54 -0.0006666666666666668 -0.002 0.005714285714285714
55 -0.0006666666666666668 -0.002 0.008571428571428572
56 -0.0006666666666666668 -0.002 0.01142857142857143
57 -0.0006666666666666668 -0.002 0.01428571428571429
58 -0.0006666666666666668 -0.002 0.01714285714285714
59 0.0006666666666666665 -0.002 0.002857142857142857
60 0.0006666666666666665 -0.002 0.005714285714285714
61 0.0006666666666666665 -0.002 0.008571428571428572
62 0.0006666666666666665 -0.002 0.01142857142857143
63 0.0006666666666666665 -0.002 0.01428571428571429
64 0.0006666666666666665 -0.002 0.01714285714285714
65 0.002 -0.0006666666666666668 0.002857142857142857
66 0.002 -0.0006666666666666668 0.005714285714285714
67 0.002 -0.0006666666666666668 0.008571428571428572
68 0.002 -0.0006666666666666668 0.01142857142857143
69 0.002 -0.0006666666666666668 0.01428571428571429
70 0.002 -0.0006666666666666668 0.01714285714285714
71 0.002 0.0006666666666666665 0.002857142857142857
72 0.002 0.0006666666666666665 0.005714285714285714
73 0.002 0.0006666666666666665 0.008571428571428572
74 0.002 0.0006666666666666665 0.01142857142857143
75 0.002 0.0006666666666666665 0.01428571428571429
76 0.002 0.0006666666666666665 0.01714285714285714
77 -0.0006666666666666668 0.002 0.002857142857142857
78 -0.0006666666666666668 0.002 0.005714285714285714
79 -0.0006666666666666668 0.002 0.008571428571428572
80 -0.0006666666666666668 0.002 0.01142857142857143
81 -0.0006666666666666668 0.002 0.01428571428571429
82 -0.0006666666666666668 0.002 0.01714285714285714
83 0.0006666666666666665 0.002 0.002857142857142857
84 0.0006666666666666665 0.002 0.005714285714285714
85 0.0006666666666666665 0.002 0.008571428571428572
86 0.0006666666666666665 0.002 0.01142857142857143
87 0.0006666666666666665 0.002 0.01428571428571429
88 0.0006666666666666665 0.002 0.01714285714285714
89 -0.002 -0.0006666666666666668 0.002857142857142857
90 -0.002 -0.0006666666666666668 0.005714285714285714
91 -0.002 -0.0006666666666666668 0.008571428571428572
92 -0.002 -0.0006666666666666668 0.01142857142857143
93 -0.002 -0.0006666666666666668 0.01428571428571429
94 -0.002 -0.0006666666666666668 0.01714285714285714
95 -0.002 0.0006666666666666665 0.002857142857142857
96 -0.002 0.0006666666666666665 0.005714285714285714
97 -0.002 0.0006666666666666665 0.008571428571428572
98 -0.002 0.0006666666666666665 0.01142857142857143
99 -0.002 0.0006666666666666665 0.01428571428571429
100 -0.002 0.0006666666666666665 0.01714285714285714
101 -0.0006666666666666668 -0.0006666666666666668 0.02
102 -0.0006666666666666668 0.0006666666666666665 0.02
103 0.0006666666666666665 -0.0006666666666666668 0.02
104 0.0006666666666666665 0.0006666666666666665 0.02
105 -0.0006666666666666668 -0.0006666666666666668 0.002857142857142857
106 -0.0006666666666666668 -0.0006666666666666668 0.005714285714285714
107 -0.0006666666666666668 -0.0006666666666666668 0.008571428571428572
108 -0.0006666666666666668 -0.0006666666666666668 0.01142857142857143
109 -0.0006666666666666668 -0.0006666666666666668 0.01428571428571429
110 -0.0006666666666666668 -0.0006666666666666668 0.01714285714285714
111 -0.0006666666666666668 0.0006666666666666665 0.002857142857142857
112 -0.0006666666666666668 0.0006666666666666665 0.005714285714285714
113 -0.0006666666666666668 0.0006666666666666665 0.008571428571428572
114 -0.0006666666666666668 0.0006666666666666665 0.01142857142857143
115 -0.0006666666666666668 0.0006666666666666665 0.01428571428571429
116 -0.0006666666666666668 0.0006666666666666665 0.01714285714285714
117 0.0006666666666666665 -0.0006666666666666668 0.002857142857142857
118 0.0006666666666666665 -0.0006666666666666668 0.005714285714285714
119 0.0006666666666666665 -0.0006666666666666668 0.008571428571428572
120 0.0006666666666666665 -0.0006666666666666668 0.01142857142857143
121 0.0006666666666666665 -0.0006666666666666668 0.01428571428571429
122 0.0006666666666666665 -0.0006666666666666668 0.01714285714285714
123 0.0006666666666666665 0.0006666666666666665 0.002857142857142857
124 0.0006666666666666665 0.0006666666666666665 0.005714285714285714
125 0.0006666666666666665 0.0006666666666666665 0.008571428571428572
126 0.0006666666666666665 0.0006666666666666665 0.01142857142857143
127 0.0006666666666666665 0.0006666666666666665 0.01428571428571429
128 0.0006666666666666665 0.0006666666666666665 0.01714285714285714
$EndNodes
$Elements
165
1 3 2 202 5 1 9 49 13
2 3 2 202 5 13 49 50 14
3 3 2 202 5 14 50 11 3
4 3 2 202 5 9 10 51 49
5 3 2 202 5 49 51 52 50
6 3 2 202 5 50 52 12 11
7 3 2 202 5 10 2 15 51
8 3 2 202 5 51 15 16 52
9 3 2 202 5 52 16 4 12
10 3 2 201 14 1 9 53 25
11 3 2 201 14 25 53 54 26
12 3 2 201 14 26 54 55 27
13 3 2 201 14 27 55 56 28
14 3 2 201 14 28 56 57 29
15 3 2 201 14 29 57 58 30
16 3 2 201 14 30 58 17 5
17 3 2 201 14 9 10 59 53
18 3 2 201 14 53 59 60 54
19 3 2 201 14 54 60 61 55
20 3 2 201 14 55 61 62 56
21 3 2 201 14 56 62 63 57
22 3 2 201 14 57 63 64 58
23 3 2 201 14 58 64 18 17
24 3 2 201 14 10 2 31 59
25 3 2 201 14 59 31 32 60
26 3 2 201 14 60 32 33 61
27 3 2 201 14 61 33 34 62
28 3 2 201 14 62 34 35 63
29 3 2 201 14 63 35 36 64
30 3 2 201 14 64 36 6 18
31 3 2 201 18 2 15 65 31
32 3 2 201 18 31 65 66 32
33 3 2 201 18 32 66 67 33
34 3 2 201 18 33 67 68 34
35 3 2 201 18 34 68 69 35
36 3 2 201 18 35 69 70 36
37 3 2 201 18 36 70 19 6
38 3 2 201 18 15 16 71 65
39 3 2 201 18 65 71 72 66
40 3 2 201 18 66 72 73 67
41 3 2 201 18 67 73 74 68
42 3 2 201 18 68 74 75 69
43 3 2 201 18 69 75 76 70
44 3 2 201 18 70 76 20 19
45 3 2 201 18 16 4 37 71
46 3 2 201 18 71 37 38 72
47 3 2 201 18 72 38 39 73
48 3 2 201 18 73 39 40 74
49 3 2 201 18 74 40 41 75
50 3 2 201 18 75 41 42 76
51 3 2 201 18 76 42 7 20
52 3 2 201 22 3 43 77 11
53 3 2 201 22 43 44 78 77
54 3 2 201 22 44 45 79 78
55 3 2 201 22 45 46 80 79
56 3 2 201 22 46 47 81 80
57 3 2 201 22 47 48 82 81
58 3 2 201 22 48 8 22 82
59 3 2 201 22 11 77 83 12
60 3 2 201 22 77 78 84 83
61 3 2 201 22 78 79 85 84
62 3 2 201 22 79 80 86 85
63 3 2 201 22 80 81 87 86
64 3 2 201 22 81 82 88 87
65 3 2 201 22 82 22 21 88
66 3 2 201 22 12 83 37 4
67 3 2 201 22 83 84 38 37
68 3 2 201 22 84 85 39 38
69 3 2 201 22 85 86 40 39
70 3 2 201 22 86 87 41 40
71 3 2 201 22 87 88 42 41
72 3 2 201 22 88 21 7 42
73 3 2 201 26 1 25 89 13
74 3 2 201 26 25 26 90 89
75 3 2 201 26 26 27 91 90
76 3 2 201 26 27 28 92 91
77 3 2 201 26 28 29 93 92
78 3 2 201 26 29 30 94 93
79 3 2 201 26 30 5 24 94
80 3 2 201 26 13 89 95 14
81 3 2 201 26 89 90 96 95
82 3 2 201 26 90 91 97 96
83 3 2 201 26 91 92 98 97
84 3 2 201 26 92 93 99 98
85 3 2 201 26 93 94 100 99
86 3 2 201 26 94 24 23 100
87 3 2 201 26 14 95 43 3
88 3 2 201 26 95 96 44 43
89 3 2 201 26 96 97 45 44
90 3 2 201 26 97 98 46 45
91 3 2 201 26 98 99 47 46
92 3 2 201 26 99 100 48 47
93 3 2 201 26 100 23 8 48
94 3 2 203 27 5 17 101 24
95 3 2 203 27 24 101 102 23
96 3 2 203 27 23 102 22 8
97 3 2 203 27 17 18 103 101
98 3 2 203 27 101 103 104 102
99 3 2 203 27 102 104 21 22
100 3 2 203 27 18 6 19 103
101 3 2 203 27 103 19 20 104
102 3 2 203 27 104 20 7 21
103 5 2 301 1 1 9 49 13 25 53 105 89
104 5 2 301 1 25 53 105 89 26 54 106 90
105 5 2 301 1 26 54 106 90 27 55 107 91
106 5 2 301 1 27 55 107 91 28 56 108 92
107 5 2 301 1 28 56 108 92 29 57 109 93
108 5 2 301 1 29 57 109 93 30 58 110 94
109 5 2 301 1 30 58 110 94 5 17 101 24
110 5 2 301 1 13 49 50 14 89 105 111 95
111 5 2 301 1 89 105 111 95 90 106 112 96
112 5 2 301 1 90 106 112 96 91 107 113 97
113 5 2 301 1 91 107 113 97 92 108 114 98
114 5 2 301 1 92 108 114 98 93 109 115 99
115 5 2 301 1 93 109 115 99 94 110 116 100
116 5 2 301 1 94 110 116 100 24 101 102 23
117 5 2 301 1 14 50 11 3 95 111 77 43
118 5 2 301 1 95 111 77 43 96 112 78 44
119 5 2 301 1 96 112 78 44 97 113 79 45
120 5 2 301 1 97 113 79 45 98 114 80 46
121 5 2 301 1 98 114 80 46 99 115 81 47
122 5 2 301 1 99 115 81 47 100 116 82 48
123 5 2 301 1 100 116 82 48 23 102 22 8
124 5 2 301 1 9 10 51 49 53 59 117 105
125 5 2 301 1 53 59 117 105 54 60 118 106
126 5 2 301 1 54 60 118 106 55 61 119 107
127 5 2 301 1 55 61 119 107 56 62 120 108
128 5 2 301 1 56 62 120 108 57 63 121 109
129 5 2 301 1 57 63 121 109 58 64 122 110
130 5 2 301 1 58 64 122 110 17 18 103 101
131 5 2 301 1 49 51 52 50 105 117 123 111
132 5 2 301 1 105 117 123 111 106 118 124 112
133 5 2 301 1 106 118 124 112 107 119 125 113
134 5 2 301 1 107 119 125 113 108 120 126 114
135 5 2 301 1 108 120 126 114 109 121 127 115
136 5 2 301 1 109 121 127 115 110 122 128 116
137 5 2 301 1 110 122 128 116 101 103 104 102
138 5 2 301 1 50 52 12 11 111 123 83 77
139 5 2 301 1 111 123 83 77 112 124 84 78
140 5 2 301 1 112 124 84 78 113 125 85 79
141 5 2 301 1 113 125 85 79 114 126 86 80
142 5 2 301 1 114 126 86 80 115 127 87 81
143 5 2 301 1 115 127 87 81 116 128 88 82
144 5 2 301 1 116 128 88 82 102 104 21 22
145 5 2 301 1 10 2 15 51 59 31 65 117
146 5 2 301 1 59 31 65 117 60 32 66 118
147 5 2 301 1 60 32 66 118 61 33 67 119
148 5 2 301 1 61 33 67 119 62 34 68 120
149 5 2 301 1 62 34 68 120 63 35 69 121
150 5 2 301 1 63 35 69 121 64 36 70 122
151 5 2 301 1 64 36 70 122 18 6 19 103
152 5 2 301 1 51 15 16 52 117 65 71 123
153 5 2 301 1 117 65 71 123 118 66 72 124
154 5 2 301 1 118 66 72 124 119 67 73 125
155 5 2 301 1 119 67 73 125 120 68 74 126
156 5 2 301 1 120 68 74 126 121 69 75 127
157 5 2 301 1 121 69 75 127 122 70 76 128
158 5 2 301 1 122 70 76 128 103 19 20 104
159 5 2 301 1 52 16 4 12 123 71 37 83
160 5 2 301 1 123 71 37 83 124 72 38 84
161 5 2 301 1 124 72 38 84 125 73 39 85
162 5 2 301 1 125 73 39 85 126 74 40 86
163 5 2 301 1 126 74 40 86 127 75 41 87
164 5 2 301 1 127 75 41 87 128 76 42 88
165 5 2 301 1 128 76 42 88 104 20 7 21
$EndElements
