$MeshFormat
2.0 0 8
$EndMeshFormat
$Nodes
208
1 -0.002 -0.002 0
2 -0.000666667 -0.002 0
3 -0.000666667 -0.000666667 0
4 -0.002 -0.000666667 0
5 -0.002 -0.002 0.00166667
6 -0.000666667 -0.002 0.00166667
7 -0.000666667 -0.000666667 0.00166667
8 -0.002 -0.000666667 0.00166667
9 0.000666667 -0.002 0
10 0.000666667 -0.000666667 0
11 0.000666667 -0.002 0.00166667
12 0.000666667 -0.000666667 0.00166667
13 0.002 -0.002 0
14 0.002 -0.000666667 0
15 0.002 -0.002 0.00166667
16 0.002 -0.000666667 0.00166667
17 -0.000666667 0.000666667 0
18 -0.002 0.000666667 0
19 -0.000666667 0.000666667 0.00166667
20 -0.002 0.000666667 0.00166667
21 0.000666667 0.000666667 0
22 0.000666667 0.000666667 0.00166667
23 0.002 0.000666667 0
24 0.002 0.000666667 0.00166667
25 -0.000666667 0.002 0
26 -0.002 0.002 0
27 -0.000666667 0.002 0.00166667
28 -0.002 0.002 0.00166667
29 0.000666667 0.002 0
30 0.000666667 0.002 0.00166667
31 0.002 0.002 0
32 0.002 0.002 0.00166667
33 -0.002 -0.002 0.00333333
34 -0.000666667 -0.002 0.00333333
35 -0.000666667 -0.000666667 0.00333333
36 -0.002 -0.000666667 0.00333333
37 0.000666667 -0.002 0.00333333
38 0.000666667 -0.000666667 0.00333333
39 0.002 -0.002 0.00333333
40 0.002 -0.000666667 0.00333333
41 -0.000666667 0.000666667 0.00333333
42 -0.002 0.000666667 0.00333333
43 0.000666667 0.000666667 0.00333333
44 0.002 0.000666667 0.00333333
45 -0.000666667 0.002 0.00333333
46 -0.002 0.002 0.00333333
47 0.000666667 0.002 0.00333333
48 0.002 0.002 0.00333333
49 -0.002 -0.002 0.005
50 -0.000666667 -0.002 0.005
51 -0.000666667 -0.000666667 0.005
52 -0.002 -0.000666667 0.005
53 0.000666667 -0.002 0.005
54 0.000666667 -0.000666667 0.005
55 0.002 -0.002 0.005
56 0.002 -0.000666667 0.005
57 -0.000666667 0.000666667 0.005
58 -0.002 0.000666667 0.005
59 0.000666667 0.000666667 0.005
60 0.002 0.000666667 0.005
61 -0.000666667 0.002 0.005
62 -0.002 0.002 0.005
63 0.000666667 0.002 0.005
64 0.002 0.002 0.005
65 -0.002 -0.002 0.00666667
66 -0.000666667 -0.002 0.00666667
67 -0.000666667 -0.000666667 0.00666667
68 -0.002 -0.000666667 0.00666667
69 0.000666667 -0.002 0.00666667
70 0.000666667 -0.000666667 0.00666667
71 0.002 -0.002 0.00666667
72 0.002 -0.000666667 0.00666667
73 -0.000666667 0.000666667 0.00666667
74 -0.002 0.000666667 0.00666667
75 0.000666667 0.000666667 0.00666667
76 0.002 0.000666667 0.00666667
77 -0.000666667 0.002 0.00666667
78 -0.002 0.002 0.00666667
79 0.000666667 0.002 0.00666667
80 0.002 0.002 0.00666667
81 -0.002 -0.002 0.00833333
82 -0.000666667 -0.002 0.00833333
83 -0.000666667 -0.000666667 0.00833333
84 -0.002 -0.000666667 0.00833333
85 0.000666667 -0.002 0.00833333
86 0.000666667 -0.000666667 0.00833333
87 0.002 -0.002 0.00833333
88 0.002 -0.000666667 0.00833333
89 -0.000666667 0.000666667 0.00833333
90 -0.002 0.000666667 0.00833333
91 0.000666667 0.000666667 0.00833333
92 0.002 0.000666667 0.00833333
93 -0.000666667 0.002 0.00833333
94 -0.002 0.002 0.00833333
95 0.000666667 0.002 0.00833333
96 0.002 0.002 0.00833333
97 -0.002 -0.002 0.01
98 -0.000666667 -0.002 0.01
99 -0.000666667 -0.000666667 0.01
100 -0.002 -0.000666667 0.01
101 0.000666667 -0.002 0.01
102 0.000666667 -0.000666667 0.01
103 0.002 -0.002 0.01
104 0.002 -0.000666667 0.01
105 -0.000666667 0.000666667 0.01
106 -0.002 0.000666667 0.01
107 0.000666667 0.000666667 0.01
108 0.002 0.000666667 0.01
109 -0.000666667 0.002 0.01
110 -0.002 0.002 0.01
111 0.000666667 0.002 0.01
112 0.002 0.002 0.01
113 -0.002 -0.002 0.0116667
114 -0.000666667 -0.002 0.0116667
115 -0.000666667 -0.000666667 0.0116667
116 -0.002 -0.000666667 0.0116667
117 0.000666667 -0.002 0.0116667
118 0.000666667 -0.000666667 0.0116667
119 0.002 -0.002 0.0116667
120 0.002 -0.000666667 0.0116667
121 -0.000666667 0.000666667 0.0116667
122 -0.002 0.000666667 0.0116667
123 0.000666667 0.000666667 0.0116667
124 0.002 0.000666667 0.0116667
125 -0.000666667 0.002 0.0116667
126 -0.002 0.002 0.0116667
127 0.000666667 0.002 0.0116667
128 0.002 0.002 0.0116667
129 -0.002 -0.002 0.0133333
130 -0.000666667 -0.002 0.0133333
131 -0.000666667 -0.000666667 0.0133333
132 -0.002 -0.000666667 0.0133333
133 0.000666667 -0.002 0.0133333
134 0.000666667 -0.000666667 0.0133333
135 0.002 -0.002 0.0133333
136 0.002 -0.000666667 0.0133333
137 -0.000666667 0.000666667 0.0133333
138 -0.002 0.000666667 0.0133333
139 0.000666667 0.000666667 0.0133333
140 0.002 0.000666667 0.0133333
141 -0.000666667 0.002 0.0133333
142 -0.002 0.002 0.0133333
143 0.000666667 0.002 0.0133333
144 0.002 0.002 0.0133333
145 -0.002 -0.002 0.015
146 -0.000666667 -0.002 0.015
147 -0.000666667 -0.000666667 0.015
148 -0.002 -0.000666667 0.015
149 0.000666667 -0.002 0.015
150 0.000666667 -0.000666667 0.015
151 0.002 -0.002 0.015
152 0.002 -0.000666667 0.015
153 -0.000666667 0.000666667 0.015
154 -0.002 0.000666667 0.015
155 0.000666667 0.000666667 0.015
156 0.002 0.000666667 0.015
157 -0.000666667 0.002 0.015
158 -0.002 0.002 0.015
159 0.000666667 0.002 0.015
160 0.002 0.002 0.015
161 -0.002 -0.002 0.0166667
162 -0.000666667 -0.002 0.0166667
163 -0.000666667 -0.000666667 0.0166667
164 -0.002 -0.000666667 0.0166667
165 0.000666667 -0.002 0.0166667
166 0.000666667 -0.000666667 0.0166667
167 0.002 -0.002 0.0166667
168 0.002 -0.000666667 0.0166667
169 -0.000666667 0.000666667 0.0166667
170 -0.002 0.000666667 0.0166667
171 0.000666667 0.000666667 0.0166667
172 0.002 0.000666667 0.0166667
173 -0.000666667 0.002 0.0166667
174 -0.002 0.002 0.0166667
175 0.000666667 0.002 0.0166667
176 0.002 0.002 0.0166667
177 -0.002 -0.002 0.0183333
178 -0.000666667 -0.002 0.0183333
179 -0.000666667 -0.000666667 0.0183333
180 -0.002 -0.000666667 0.0183333
181 0.000666667 -0.002 0.0183333
182 0.000666667 -0.000666667 0.0183333
183 0.002 -0.002 0.0183333
184 0.002 -0.000666667 0.0183333
185 -0.000666667 0.000666667 0.0183333
186 -0.002 0.000666667 0.0183333
187 0.000666667 0.000666667 0.0183333
188 0.002 0.000666667 0.0183333
189 -0.000666667 0.002 0.0183333
190 -0.002 0.002 0.0183333
191 0.000666667 0.002 0.0183333
192 0.002 0.002 0.0183333
193 -0.002 -0.002 0.02
194 -0.000666667 -0.002 0.02
195 -0.000666667 -0.000666667 0.02
196 -0.002 -0.000666667 0.02
197 0.000666667 -0.002 0.02
198 0.000666667 -0.000666667 0.02
199 0.002 -0.002 0.02
200 0.002 -0.000666667 0.02
201 -0.000666667 0.000666667 0.02
202 -0.002 0.000666667 0.02
203 0.000666667 0.000666667 0.02
204 0.002 0.000666667 0.02
205 -0.000666667 0.002 0.02
206 -0.002 0.002 0.02
207 0.000666667 0.002 0.02
208 0.002 0.002 0.02
$EndNodes
$Elements
270
1 3 3 202 0 1 1 4 3 2 
2 3 3 201 0 1 1 2 6 5 
3 3 3 201 0 1 4 1 5 8 
4 3 3 202 0 1 2 3 10 9 
5 3 3 201 0 1 2 9 11 6 
6 3 3 202 0 1 9 10 14 13 
7 3 3 201 0 1 9 13 15 11 
8 3 3 201 0 1 13 14 16 15 
9 3 3 202 0 1 4 18 17 3 
10 3 3 201 0 1 18 4 8 20 
11 3 3 202 0 1 3 17 21 10 
12 3 3 202 0 1 10 21 23 14 
13 3 3 201 0 1 14 23 24 16 
14 3 3 202 0 1 18 26 25 17 
15 3 3 201 0 1 25 26 28 27 
16 3 3 201 0 1 26 18 20 28 
17 3 3 202 0 1 17 25 29 21 
18 3 3 201 0 1 29 25 27 30 
19 3 3 202 0 1 21 29 31 23 
20 3 3 201 0 1 23 31 32 24 
21 3 3 201 0 1 31 29 30 32 
22 3 3 201 0 1 5 6 34 33 
23 3 3 201 0 1 8 5 33 36 
24 3 3 201 0 1 6 11 37 34 
25 3 3 201 0 1 11 15 39 37 
26 3 3 201 0 1 15 16 40 39 
27 3 3 201 0 1 20 8 36 42 
28 3 3 201 0 1 16 24 44 40 
29 3 3 201 0 1 27 28 46 45 
30 3 3 201 0 1 28 20 42 46 
31 3 3 201 0 1 30 27 45 47 
32 3 3 201 0 1 24 32 48 44 
33 3 3 201 0 1 32 30 47 48 
34 3 3 201 0 1 33 34 50 49 
35 3 3 201 0 1 36 33 49 52 
36 3 3 201 0 1 34 37 53 50 
37 3 3 201 0 1 37 39 55 53 
38 3 3 201 0 1 39 40 56 55 
39 3 3 201 0 1 42 36 52 58 
40 3 3 201 0 1 40 44 60 56 
41 3 3 201 0 1 45 46 62 61 
42 3 3 201 0 1 46 42 58 62 
43 3 3 201 0 1 47 45 61 63 
44 3 3 201 0 1 44 48 64 60 
45 3 3 201 0 1 48 47 63 64 
46 3 3 201 0 1 49 50 66 65 
47 3 3 201 0 1 52 49 65 68 
48 3 3 201 0 1 50 53 69 66 
49 3 3 201 0 1 53 55 71 69 
50 3 3 201 0 1 55 56 72 71 
51 3 3 201 0 1 58 52 68 74 
52 3 3 201 0 1 56 60 76 72 
53 3 3 201 0 1 61 62 78 77 
54 3 3 201 0 1 62 58 74 78 
55 3 3 201 0 1 63 61 77 79 
56 3 3 201 0 1 60 64 80 76 
57 3 3 201 0 1 64 63 79 80 
58 3 3 201 0 1 65 66 82 81 
59 3 3 201 0 1 68 65 81 84 
60 3 3 201 0 1 66 69 85 82 
61 3 3 201 0 1 69 71 87 85 
62 3 3 201 0 1 71 72 88 87 
63 3 3 201 0 1 74 68 84 90 
64 3 3 201 0 1 72 76 92 88 
65 3 3 201 0 1 77 78 94 93 
66 3 3 201 0 1 78 74 90 94 
67 3 3 201 0 1 79 77 93 95 
68 3 3 201 0 1 76 80 96 92 
69 3 3 201 0 1 80 79 95 96 
70 3 3 201 0 1 81 82 98 97 
71 3 3 201 0 1 84 81 97 100 
72 3 3 201 0 1 82 85 101 98 
73 3 3 201 0 1 85 87 103 101 
74 3 3 201 0 1 87 88 104 103 
75 3 3 201 0 1 90 84 100 106 
76 3 3 201 0 1 88 92 108 104 
77 3 3 201 0 1 93 94 110 109 
78 3 3 201 0 1 94 90 106 110 
79 3 3 201 0 1 95 93 109 111 
80 3 3 201 0 1 92 96 112 108 
81 3 3 201 0 1 96 95 111 112 
82 3 3 201 0 1 97 98 114 113 
83 3 3 201 0 1 100 97 113 116 
84 3 3 201 0 1 98 101 117 114 
85 3 3 201 0 1 101 103 119 117 
86 3 3 201 0 1 103 104 120 119 
87 3 3 201 0 1 106 100 116 122 
88 3 3 201 0 1 104 108 124 120 
89 3 3 201 0 1 109 110 126 125 
90 3 3 201 0 1 110 106 122 126 
91 3 3 201 0 1 111 109 125 127 
92 3 3 201 0 1 108 112 128 124 
93 3 3 201 0 1 112 111 127 128 
94 3 3 201 0 1 113 114 130 129 
95 3 3 201 0 1 116 113 129 132 
96 3 3 201 0 1 114 117 133 130 
97 3 3 201 0 1 117 119 135 133 
98 3 3 201 0 1 119 120 136 135 
99 3 3 201 0 1 122 116 132 138 
100 3 3 201 0 1 120 124 140 136 
101 3 3 201 0 1 125 126 142 141 
102 3 3 201 0 1 126 122 138 142 
103 3 3 201 0 1 127 125 141 143 
104 3 3 201 0 1 124 128 144 140 
105 3 3 201 0 1 128 127 143 144 
106 3 3 201 0 1 129 130 146 145 
107 3 3 201 0 1 132 129 145 148 
108 3 3 201 0 1 130 133 149 146 
109 3 3 201 0 1 133 135 151 149 
110 3 3 201 0 1 135 136 152 151 
111 3 3 201 0 1 138 132 148 154 
112 3 3 201 0 1 136 140 156 152 
113 3 3 201 0 1 141 142 158 157 
114 3 3 201 0 1 142 138 154 158 
115 3 3 201 0 1 143 141 157 159 
116 3 3 201 0 1 140 144 160 156 
117 3 3 201 0 1 144 143 159 160 
118 3 3 201 0 1 145 146 162 161 
119 3 3 201 0 1 148 145 161 164 
120 3 3 201 0 1 146 149 165 162 
121 3 3 201 0 1 149 151 167 165 
122 3 3 201 0 1 151 152 168 167 
123 3 3 201 0 1 154 148 164 170 
124 3 3 201 0 1 152 156 172 168 
125 3 3 201 0 1 157 158 174 173 
126 3 3 201 0 1 158 154 170 174 
127 3 3 201 0 1 159 157 173 175 
128 3 3 201 0 1 156 160 176 172 
129 3 3 201 0 1 160 159 175 176 
130 3 3 201 0 1 161 162 178 177 
131 3 3 201 0 1 164 161 177 180 
132 3 3 201 0 1 162 165 181 178 
133 3 3 201 0 1 165 167 183 181 
134 3 3 201 0 1 167 168 184 183 
135 3 3 201 0 1 170 164 180 186 
136 3 3 201 0 1 168 172 188 184 
137 3 3 201 0 1 173 174 190 189 
138 3 3 201 0 1 174 170 186 190 
139 3 3 201 0 1 175 173 189 191 
140 3 3 201 0 1 172 176 192 188 
141 3 3 201 0 1 176 175 191 192 
142 3 3 201 0 1 177 178 194 193 
143 3 3 201 0 1 180 177 193 196 
144 3 3 203 0 1 193 194 195 196 
145 3 3 201 0 1 178 181 197 194 
146 3 3 203 0 1 194 197 198 195 
147 3 3 201 0 1 181 183 199 197 
148 3 3 201 0 1 183 184 200 199 
149 3 3 203 0 1 197 199 200 198 
150 3 3 201 0 1 186 180 196 202 
151 3 3 203 0 1 196 195 201 202 
152 3 3 203 0 1 195 198 203 201 
153 3 3 201 0 1 184 188 204 200 
154 3 3 203 0 1 198 200 204 203 
155 3 3 201 0 1 189 190 206 205 
156 3 3 201 0 1 190 186 202 206 
157 3 3 203 0 1 202 201 205 206 
158 3 3 201 0 1 191 189 205 207 
159 3 3 203 0 1 201 203 207 205 
160 3 3 201 0 1 188 192 208 204 
161 3 3 201 0 1 192 191 207 208 
162 3 3 203 0 1 203 204 208 207 
163 5 3 301 0 1 1 2 3 4 5 6 7 8 
164 5 3 301 0 1 2 9 10 3 6 11 12 7 
165 5 3 301 0 1 9 13 14 10 11 15 16 12 
166 5 3 301 0 1 4 3 17 18 8 7 19 20 
167 5 3 301 0 1 3 10 21 17 7 12 22 19 
168 5 3 301 0 1 10 14 23 21 12 16 24 22 
169 5 3 301 0 1 18 17 25 26 20 19 27 28 
170 5 3 301 0 1 17 21 29 25 19 22 30 27 
171 5 3 301 0 1 21 23 31 29 22 24 32 30 
172 5 3 301 0 1 5 6 7 8 33 34 35 36 
173 5 3 301 0 1 6 11 12 7 34 37 38 35 
174 5 3 301 0 1 11 15 16 12 37 39 40 38 
175 5 3 301 0 1 8 7 19 20 36 35 41 42 
176 5 3 301 0 1 7 12 22 19 35 38 43 41 
177 5 3 301 0 1 12 16 24 22 38 40 44 43 
178 5 3 301 0 1 20 19 27 28 42 41 45 46 
179 5 3 301 0 1 19 22 30 27 41 43 47 45 
180 5 3 301 0 1 22 24 32 30 43 44 48 47 
181 5 3 301 0 1 33 34 35 36 49 50 51 52 
182 5 3 301 0 1 34 37 38 35 50 53 54 51 
183 5 3 301 0 1 37 39 40 38 53 55 56 54 
184 5 3 301 0 1 36 35 41 42 52 51 57 58 
185 5 3 301 0 1 35 38 43 41 51 54 59 57 
186 5 3 301 0 1 38 40 44 43 54 56 60 59 
187 5 3 301 0 1 42 41 45 46 58 57 61 62 
188 5 3 301 0 1 41 43 47 45 57 59 63 61 
189 5 3 301 0 1 43 44 48 47 59 60 64 63 
190 5 3 301 0 1 49 50 51 52 65 66 67 68 
191 5 3 301 0 1 50 53 54 51 66 69 70 67 
192 5 3 301 0 1 53 55 56 54 69 71 72 70 
193 5 3 301 0 1 52 51 57 58 68 67 73 74 
194 5 3 301 0 1 51 54 59 57 67 70 75 73 
195 5 3 301 0 1 54 56 60 59 70 72 76 75 
196 5 3 301 0 1 58 57 61 62 74 73 77 78 
197 5 3 301 0 1 57 59 63 61 73 75 79 77 
198 5 3 301 0 1 59 60 64 63 75 76 80 79 
199 5 3 301 0 1 65 66 67 68 81 82 83 84 
200 5 3 301 0 1 66 69 70 67 82 85 86 83 
201 5 3 301 0 1 69 71 72 70 85 87 88 86 
202 5 3 301 0 1 68 67 73 74 84 83 89 90 
203 5 3 301 0 1 67 70 75 73 83 86 91 89 
204 5 3 301 0 1 70 72 76 75 86 88 92 91 
205 5 3 301 0 1 74 73 77 78 90 89 93 94 
206 5 3 301 0 1 73 75 79 77 89 91 95 93 
207 5 3 301 0 1 75 76 80 79 91 92 96 95 
208 5 3 301 0 1 81 82 83 84 97 98 99 100 
209 5 3 301 0 1 82 85 86 83 98 101 102 99 
210 5 3 301 0 1 85 87 88 86 101 103 104 102 
211 5 3 301 0 1 84 83 89 90 100 99 105 106 
212 5 3 301 0 1 83 86 91 89 99 102 107 105 
213 5 3 301 0 1 86 88 92 91 102 104 108 107 
214 5 3 301 0 1 90 89 93 94 106 105 109 110 
215 5 3 301 0 1 89 91 95 93 105 107 111 109 
216 5 3 301 0 1 91 92 96 95 107 108 112 111 
217 5 3 301 0 1 97 98 99 100 113 114 115 116 
218 5 3 301 0 1 98 101 102 99 114 117 118 115 
219 5 3 301 0 1 101 103 104 102 117 119 120 118 
220 5 3 301 0 1 100 99 105 106 116 115 121 122 
221 5 3 301 0 1 99 102 107 105 115 118 123 121 
222 5 3 301 0 1 102 104 108 107 118 120 124 123 
223 5 3 301 0 1 106 105 109 110 122 121 125 126 
224 5 3 301 0 1 105 107 111 109 121 123 127 125 
225 5 3 301 0 1 107 108 112 111 123 124 128 127 
226 5 3 301 0 1 113 114 115 116 129 130 131 132 
227 5 3 301 0 1 114 117 118 115 130 133 134 131 
228 5 3 301 0 1 117 119 120 118 133 135 136 134 
229 5 3 301 0 1 116 115 121 122 132 131 137 138 
230 5 3 301 0 1 115 118 123 121 131 134 139 137 
231 5 3 301 0 1 118 120 124 123 134 136 140 139 
232 5 3 301 0 1 122 121 125 126 138 137 141 142 
233 5 3 301 0 1 121 123 127 125 137 139 143 141 
234 5 3 301 0 1 123 124 128 127 139 140 144 143 
235 5 3 301 0 1 129 130 131 132 145 146 147 148 
236 5 3 301 0 1 130 133 134 131 146 149 150 147 
237 5 3 301 0 1 133 135 136 134 149 151 152 150 
238 5 3 301 0 1 132 131 137 138 148 147 153 154 
239 5 3 301 0 1 131 134 139 137 147 150 155 153 
240 5 3 301 0 1 134 136 140 139 150 152 156 155 
241 5 3 301 0 1 138 137 141 142 154 153 157 158 
242 5 3 301 0 1 137 139 143 141 153 155 159 157 
243 5 3 301 0 1 139 140 144 143 155 156 160 159 
244 5 3 301 0 1 145 146 147 148 161 162 163 164 
245 5 3 301 0 1 146 149 150 147 162 165 166 163 
246 5 3 301 0 1 149 151 152 150 165 167 168 166 
247 5 3 301 0 1 148 147 153 154 164 163 169 170 
248 5 3 301 0 1 147 150 155 153 163 166 171 169 
249 5 3 301 0 1 150 152 156 155 166 168 172 171 
250 5 3 301 0 1 154 153 157 158 170 169 173 174 
251 5 3 301 0 1 153 155 159 157 169 171 175 173 
252 5 3 301 0 1 155 156 160 159 171 172 176 175 
253 5 3 301 0 1 161 162 163 164 177 178 179 180 
254 5 3 301 0 1 162 165 166 163 178 181 182 179 
255 5 3 301 0 1 165 167 168 166 181 183 184 182 
256 5 3 301 0 1 164 163 169 170 180 179 185 186 
257 5 3 301 0 1 163 166 171 169 179 182 187 185 
258 5 3 301 0 1 166 168 172 171 182 184 188 187 
259 5 3 301 0 1 170 169 173 174 186 185 189 190 
260 5 3 301 0 1 169 171 175 173 185 187 191 189 
261 5 3 301 0 1 171 172 176 175 187 188 192 191 
262 5 3 301 0 1 177 178 179 180 193 194 195 196 
263 5 3 301 0 1 178 181 182 179 194 197 198 195 
264 5 3 301 0 1 181 183 184 182 197 199 200 198 
265 5 3 301 0 1 180 179 185 186 196 195 201 202 
266 5 3 301 0 1 179 182 187 185 195 198 203 201 
267 5 3 301 0 1 182 184 188 187 198 200 204 203 
268 5 3 301 0 1 186 185 189 190 202 201 205 206 
269 5 3 301 0 1 185 187 191 189 201 203 207 205 
270 5 3 301 0 1 187 188 192 191 203 204 208 207 
$EndElements
