Geometry.Tolerance = 1.0e-8;
NS = 10;
Mesh.ElementOrder = 1;
Point(100) = {-0.00571406, -0.00558484, -0.00595};
Point(101) = {-0.00511515, -0.00528619, -0.00307047};
Point(102) = {-0.00536988, -0.00538784, -0.00166685};
Point(103) = {-0.00535067, -0.00554048, 0.00257455};
Point(104) = {-0.00568654, -0.00520359, 0.00472152};
Point(105) = {-0.00592617, -0.00505774, 0.00595};
Spline(100) = {100:105};
Point(200) = {-0.00576364, -0.00449201, -0.00595};
Point(201) = {-0.00497814, -0.00463666, -0.0029082};
Point(202) = {-0.00520438, -0.0042878, 0.00109319};
Point(203) = {-0.00521239, -0.00442919, 0.00331846};
Point(204) = {-0.00574231, -0.00461861, 0.00595};
Spline(200) = {200:204};
Point(300) = {-0.00517125, -0.00347627, -0.00595};
Point(301) = {-0.0055835, -0.00302737, -0.00200501};
Point(302) = {-0.00569675, -0.00321648, 0.000803788};
Point(303) = {-0.00554596, -0.00329975, 0.00595};
Spline(300) = {300:303};
Point(400) = {-0.00570319, -0.00252353, -0.00595};
Point(401) = {-0.00535958, -0.00209577, -0.00192788};
Point(402) = {-0.00532711, -0.00269989, 0.00246783};
Point(403) = {-0.0053478, -0.00292024, 0.00595};
Spline(400) = {400:403};
Point(500) = {-0.00563479, -0.00133364, -0.00595};
Point(501) = {-0.00579543, -0.00150411, -0.00418165};
Point(502) = {-0.00547657, -0.00128679, -0.0029457};
Point(503) = {-0.00586206, -0.00136877, 0.0015476};
Point(504) = {-0.00563881, -0.00109292, 0.00473382};
Point(505) = {-0.00502585, -0.00130659, 0.00595};
Spline(500) = {500:505};
Point(600) = {-0.00588839, -0.000391583, -0.00595};
Point(601) = {-0.00550944, -0.000176577, -0.0010252};
Point(602) = {-0.00507691, -0.000564058, 0.000959257};
Point(603) = {-0.00501368, -0.000980057, 0.00314074};
Point(604) = {-0.00548922, -0.000514132, 0.00595};
Spline(600) = {600:604};
Point(700) = {-0.00587616, 0.000619285, -0.00595};
Point(701) = {-0.00563655, 0.000718517, -0.0025097};
Point(702) = {-0.00562154, 0.000208978, 0.000756637};
Point(703) = {-0.00554974, 0.000987331, 0.00595};
Spline(700) = {700:703};
Point(800) = {-0.00572841, 0.00139812, -0.00595};
Point(801) = {-0.00541634, 0.0014371, -0.00198287};
Point(802) = {-0.00507049, 0.0013233, 0.00211611};
Point(803) = {-0.00533504, 0.00123308, 0.00435446};
Point(804) = {-0.00594172, 0.00184904, 0.00595};
Spline(800) = {800:804};
Point(900) = {-0.00592309, 0.00281307, -0.00595};
Point(901) = {-0.00516866, 0.00263767, -0.00338989};
Point(902) = {-0.00523643, 0.00262863, 0.000775854};
Point(903) = {-0.00546971, 0.00229777, 0.00595};
Spline(900) = {900:903};
Point(1000) = {-0.0052715, 0.00350798, -0.00595};
Point(1001) = {-0.00502512, 0.0039233, -0.000293882};
Point(1002) = {-0.00589227, 0.00392343, 0.00205953};
Point(1003) = {-0.00556658, 0.00341993, 0.00406428};
Point(1004) = {-0.00565741, 0.00352203, 0.00595};
Spline(1000) = {1000:1004};
Point(1100) = {-0.0050316, 0.00421265, -0.00595};
Point(1101) = {-0.00575121, 0.00440609, -0.000947962};
Point(1102) = {-0.00579288, 0.00454038, 0.000667484};
Point(1103) = {-0.00499987, 0.00461732, 0.00311864};
Point(1104) = {-0.0055939, 0.00433035, 0.00595};
Spline(1100) = {1100:1104};
Point(1200) = {-0.00538464, 0.00569684, -0.00595};
Point(1201) = {-0.00594178, 0.00573354, -0.0032306};
Point(1202) = {-0.00514407, 0.0058403, -0.000340282};
Point(1203) = {-0.0050892, 0.00557029, 0.00123234};
Point(1204) = {-0.00534642, 0.00525843, 0.00432387};
Point(1205) = {-0.0052841, 0.00593277, 0.00595};
Spline(1200) = {1200:1205};
Point(1300) = {-0.00401947, -0.005625, -0.00595};
Point(1301) = {-0.00466045, -0.00504936, -0.00258127};
Point(1302) = {-0.00450854, -0.00523979, 0.000125661};
Point(1303) = {-0.00427482, -0.00512454, 0.00436572};
Point(1304) = {-0.00488576, -0.00544512, 0.00595};
Spline(1300) = {1300:1304};
Point(1400) = {-0.00414395, -0.00425868, -0.00595};
Point(1401) = {-0.0048789, -0.00447195, -0.00287487};
Point(1402) = {-0.00488658, -0.00397714, 0.00217285};
Point(1403) = {-0.00405165, -0.00417093, 0.00595};
Spline(1400) = {1400:1403};
Point(1500) = {-0.00475592, -0.00312477, -0.00595};
Point(1501) = {-0.00460617, -0.00330534, -0.00193197};
Point(1502) = {-0.00442158, -0.00391187, 0.000898788};
Point(1503) = {-0.00433351, -0.00343151, 0.00595};
Spline(1500) = {1500:1503};
Point(1600) = {-0.00453668, -0.00255776, -0.00595};
Point(1601) = {-0.00440648, -0.00261107, -0.00253494};
Point(1602) = {-0.00480661, -0.00213197, 0.0010011};
Point(1603) = {-0.00453307, -0.00242599, 0.00418471};
Point(1604) = {-0.00411867, -0.00231577, 0.00595};
Spline(1600) = {1600:1604};
Point(1700) = {-0.00470969, -0.00136109, -0.00595};
Point(1701) = {-0.00435736, -0.00153477, -0.002917};
Point(1702) = {-0.0043349, -0.00102344, -0.00130438};
Point(1703) = {-0.00419348, -0.00179845, 0.0010135};
Point(1704) = {-0.00445347, -0.0011336, 0.00283607};
Point(1705) = {-0.00475185, -0.00112537, 0.00595};
Spline(1700) = {1700:1705};
Point(1800) = {-0.00435327, -0.000262875, -0.00595};
Point(1801) = {-0.00424477, -0.000543574, -0.00231222};
Point(1802) = {-0.00486539, -0.000684825, 0.00081874};
Point(1803) = {-0.00449113, -0.000498716, 0.00303279};
Point(1804) = {-0.00415957, -0.000356826, 0.00595};
Spline(1800) = {1800:1804};
Point(1900) = {-0.00478028, 0.000970894, -0.00595};
Point(1901) = {-0.00487939, 0.000506915, -0.00302058};
Point(1902) = {-0.00462819, 0.000361735, 0.0012328};
Point(1903) = {-0.00480124, 0.00077334, 0.00595};
Spline(1900) = {1900:1903};
Point(2000) = {-0.00457644, 0.0015606, -0.00595};
Point(2001) = {-0.00488076, 0.00113047, -0.00242634};
Point(2002) = {-0.00440976, 0.00122634, -0.000910102};
Point(2003) = {-0.00398149, 0.00152213, 0.00423407};
Point(2004) = {-0.00440726, 0.0016693, 0.00595};
Spline(2000) = {2000:2004};
Point(2100) = {-0.00400275, 0.00276382, -0.00595};
Point(2101) = {-0.00466108, 0.00256044, -0.00330721};
Point(2102) = {-0.0042428, 0.00294133, 0.000630714};
Point(2103) = {-0.00404881, 0.00248906, 0.00595};
Spline(2100) = {2100:2103};
Point(2200) = {-0.00489305, 0.0032496, -0.00595};
Point(2201) = {-0.00455846, 0.00305118, -0.00152301};
Point(2202) = {-0.00445067, 0.00358262, 0.00407848};
Point(2203) = {-0.00476579, 0.00318051, 0.00595};
Spline(2200) = {2200:2203};
Point(2300) = {-0.00438789, 0.0045788, -0.00595};
Point(2301) = {-0.00464144, 0.00397629, -0.00364583};
Point(2302) = {-0.00492368, 0.004739, -0.000677342};
Point(2303) = {-0.00452811, 0.00424722, 0.00261189};
Point(2304) = {-0.00468638, 0.0041538, 0.00595};
Spline(2300) = {2300:2304};
Point(2400) = {-0.00457924, 0.00569102, -0.00595};
Point(2401) = {-0.00443018, 0.00523747, -0.00371253};
Point(2402) = {-0.00478079, 0.00575295, -0.0018585};
Point(2403) = {-0.00410057, 0.00572261, 0.00328016};
Point(2404) = {-0.00469689, 0.00553495, 0.00595};
Spline(2400) = {2400:2404};
Point(2500) = {-0.00315308, -0.00552304, -0.00595};
Point(2501) = {-0.00309899, -0.00593022, -0.00463529};
Point(2502) = {-0.00310868, -0.00552935, -0.00288594};
Point(2503) = {-0.003072, -0.00515124, 0.000482377};
Point(2504) = {-0.00325989, -0.00585048, 0.00595};
Spline(2500) = {2500:2504};
Point(2600) = {-0.00308445, -0.00452267, -0.00595};
Point(2601) = {-0.00360319, -0.0046632, -0.00374742};
Point(2602) = {-0.0036017, -0.00411768, -0.0019899};
Point(2603) = {-0.00319905, -0.00450379, 0.00294083};
Point(2604) = {-0.00337713, -0.00494686, 0.00595};
Spline(2600) = {2600:2604};
Point(2700) = {-0.00307355, -0.00369107, -0.00595};
Point(2701) = {-0.00344012, -0.00391991, -0.00340565};
Point(2702) = {-0.0037347, -0.00395287, -0.0019432};
Point(2703) = {-0.0033275, -0.00336332, 0.000515769};
Point(2704) = {-0.00333597, -0.00395986, 0.00270039};
Point(2705) = {-0.00379338, -0.00353091, 0.00595};
Spline(2700) = {2700:2705};
Point(2800) = {-0.00310962, -0.00229, -0.00595};
Point(2801) = {-0.0036088, -0.00199968, -0.00415132};
Point(2802) = {-0.00347417, -0.00278918, -0.00188384};
Point(2803) = {-0.00379371, -0.00219027, 0.000860722};
Point(2804) = {-0.00364658, -0.00227254, 0.00205933};
Point(2805) = {-0.00390923, -0.00295806, 0.00595};
Spline(2800) = {2800:2805};
Point(2900) = {-0.00319024, -0.00151189, -0.00595};
Point(2901) = {-0.00388789, -0.00166187, -0.00460661};
Point(2902) = {-0.00385473, -0.00116083, 0.00121819};
Point(2903) = {-0.00300717, -0.00127875, 0.00321831};
Point(2904) = {-0.00300726, -0.000999222, 0.00595};
Spline(2900) = {2900:2904};
Point(3000) = {-0.00374194, -0.000361335, -0.00595};
Point(3001) = {-0.0035368, -0.000258043, -0.00443837};
Point(3002) = {-0.00324391, -0.000512764, 0.000966654};
Point(3003) = {-0.00332695, -0.000379556, 0.00331798};
Point(3004) = {-0.00384813, -0.000596859, 0.00595};
Spline(3000) = {3000:3004};
Point(3100) = {-0.00375417, 0.000204139, -0.00595};
Point(3101) = {-0.00396381, 0.000246037, -0.00106798};
Point(3102) = {-0.00378535, 2.66676e-05, 0.000942544};
Point(3103) = {-0.00375384, 0.000591314, 0.00374436};
Point(3104) = {-0.00349083, 5.01462e-05, 0.00595};
Spline(3100) = {3100:3104};
Point(3200) = {-0.00337835, 0.00179941, -0.00595};
Point(3201) = {-0.00362795, 0.00109013, -0.00430795};
Point(3202) = {-0.00297565, 0.00105479, -0.00261088};
Point(3203) = {-0.00337717, 0.00130906, -0.00113443};
Point(3204) = {-0.00347478, 0.00141428, 0.00260295};
Point(3205) = {-0.00378031, 0.001752, 0.00595};
Spline(3200) = {3200:3205};
Point(3300) = {-0.00363285, 0.00290013, -0.00595};
Point(3301) = {-0.00361396, 0.00254395, -0.00407085};
Point(3302) = {-0.00344502, 0.00264772, 0.00146731};
Point(3303) = {-0.00338049, 0.00257909, 0.00416567};
Point(3304) = {-0.00297896, 0.0026519, 0.00595};
Spline(3300) = {3300:3304};
Point(3400) = {-0.00308663, 0.00309091, -0.00595};
Point(3401) = {-0.0034674, 0.00312278, -0.0043064};
Point(3402) = {-0.00345131, 0.00375042, -0.000617279};
Point(3403) = {-0.00348958, 0.00329343, 0.00229353};
Point(3404) = {-0.0038565, 0.00318942, 0.00595};
Spline(3400) = {3400:3404};
Point(3500) = {-0.00383878, 0.00484292, -0.00595};
Point(3501) = {-0.00376604, 0.00448138, -0.00447737};
Point(3502) = {-0.00305583, 0.00450696, 0.00141873};
Point(3503) = {-0.00362717, 0.00492304, 0.00595};
Spline(3500) = {3500:3503};
Point(3600) = {-0.00301916, 0.00527514, -0.00595};
Point(3601) = {-0.00343221, 0.0050262, -0.00300393};
Point(3602) = {-0.00305701, 0.00518424, -0.000281177};
Point(3603) = {-0.00335208, 0.00565819, 0.00220207};
Point(3604) = {-0.00305376, 0.00576687, 0.00350002};
Point(3605) = {-0.00353241, 0.00524979, 0.00595};
Spline(3600) = {3600:3605};
Point(3700) = {-0.00202772, -0.00510292, -0.00595};
Point(3701) = {-0.00296452, -0.00578556, -0.00142655};
Point(3702) = {-0.0023018, -0.00575569, 0.00370629};
Point(3703) = {-0.00260996, -0.00558589, 0.00595};
Spline(3700) = {3700:3703};
Point(3800) = {-0.00284027, -0.00493381, -0.00595};
Point(3801) = {-0.00248676, -0.00403722, -0.00223677};
Point(3802) = {-0.00277577, -0.00432776, 0.000149022};
Point(3803) = {-0.00272595, -0.00484284, 0.0015426};
Point(3804) = {-0.00293312, -0.00481904, 0.00595};
Spline(3800) = {3800:3804};
Point(3900) = {-0.00280674, -0.00356462, -0.00595};
Point(3901) = {-0.00277805, -0.00344669, -0.00406502};
Point(3902) = {-0.00251909, -0.00305366, 0.00180325};
Point(3903) = {-0.00271921, -0.00359681, 0.00595};
Spline(3900) = {3900:3903};
Point(4000) = {-0.00272614, -0.00206962, -0.00595};
Point(4001) = {-0.00266814, -0.00221526, -0.00346486};
Point(4002) = {-0.00216927, -0.00225453, 0.00140674};
Point(4003) = {-0.0022976, -0.00288065, 0.00595};
Spline(4000) = {4000:4003};
Point(4100) = {-0.00258897, -0.00154253, -0.00595};
Point(4101) = {-0.00296499, -0.00109775, -0.00115245};
Point(4102) = {-0.00291459, -0.00154668, 0.00209459};
Point(4103) = {-0.00201944, -0.00185166, 0.00595};
Spline(4100) = {4100:4103};
Point(4200) = {-0.00292543, -0.000648655, -0.00595};
Point(4201) = {-0.00244369, -0.000331071, -0.00327057};
Point(4202) = {-0.0026188, -0.000101059, 0.00264346};
Point(4203) = {-0.0024061, -0.000691693, 0.00595};
Spline(4200) = {4200:4203};
Point(4300) = {-0.002676, 0.000281884, -0.00595};
Point(4301) = {-0.00255619, 0.000745378, -0.00170288};
Point(4302) = {-0.002292, 0.000746671, 0.000688549};
Point(4303) = {-0.00240175, 0.000848231, 0.00595};
Spline(4300) = {4300:4303};
Point(4400) = {-0.00236119, 0.00187528, -0.00595};
Point(4401) = {-0.00273553, 0.00143342, -0.000585002};
Point(4402) = {-0.00251356, 0.00137463, 0.00435297};
Point(4403) = {-0.00266314, 0.00189435, 0.00595};
Spline(4400) = {4400:4403};
Point(4500) = {-0.00290852, 0.00231266, -0.00595};
Point(4501) = {-0.00266783, 0.00210214, -0.00156121};
Point(4502) = {-0.00204902, 0.00237546, 0.000498846};
Point(4503) = {-0.00205202, 0.00235835, 0.00397381};
Point(4504) = {-0.002773, 0.00267384, 0.00595};
Spline(4500) = {4500:4504};
Point(4600) = {-0.00217121, 0.00384379, -0.00595};
Point(4601) = {-0.00272901, 0.00336722, -0.00184126};
Point(4602) = {-0.00213207, 0.0031135, 0.00157195};
Point(4603) = {-0.00202002, 0.00314314, 0.00595};
Spline(4600) = {4600:4603};
Point(4700) = {-0.00269542, 0.00481828, -0.00595};
Point(4701) = {-0.00266918, 0.004123, -0.000650102};
Point(4702) = {-0.00214836, 0.00451983, 0.00595};
Spline(4700) = {4700:4702};
Point(4800) = {-0.00222728, 0.00530705, -0.00595};
Point(4801) = {-0.00285743, 0.00537092, -0.00247684};
Point(4802) = {-0.00273024, 0.00522147, 0.00336011};
Point(4803) = {-0.00260454, 0.00499305, 0.00595};
Spline(4800) = {4800:4803};
Point(4900) = {-0.00181589, -0.00572223, -0.00595};
Point(4901) = {-0.00184192, -0.00555865, -0.00159245};
Point(4902) = {-0.00124473, -0.00568086, 0.00432802};
Point(4903) = {-0.00185572, -0.00523551, 0.00595};
Spline(4900) = {4900:4903};
Point(5000) = {-0.00185831, -0.0045859, -0.00595};
Point(5001) = {-0.0013813, -0.00470309, -0.00434849};
Point(5002) = {-0.00131441, -0.00414938, -0.000195187};
Point(5003) = {-0.00187467, -0.00476993, 0.00436856};
Point(5004) = {-0.00179178, -0.00430428, 0.00595};
Spline(5000) = {5000:5004};
Point(5100) = {-0.00124802, -0.00341474, -0.00595};
Point(5101) = {-0.001692, -0.0037331, -0.0032322};
Point(5102) = {-0.00192924, -0.00369906, -0.000898622};
Point(5103) = {-0.00118324, -0.00305693, 0.00353344};
Point(5104) = {-0.00148325, -0.00362134, 0.00595};
Spline(5100) = {5100:5104};
Point(5200) = {-0.00147025, -0.00244275, -0.00595};
Point(5201) = {-0.00176286, -0.00216024, -0.000809312};
Point(5202) = {-0.00195149, -0.00295451, 0.00163989};
Point(5203) = {-0.00112777, -0.00199147, 0.00595};
Spline(5200) = {5200:5203};
Point(5300) = {-0.00138986, -0.00106104, -0.00595};
Point(5301) = {-0.00173516, -0.00148348, -0.00431688};
Point(5302) = {-0.00190881, -0.0018567, -0.00168425};
Point(5303) = {-0.00196203, -0.00116926, 0.0037887};
Point(5304) = {-0.00131444, -0.00133884, 0.00595};
Spline(5300) = {5300:5304};
Point(5400) = {-0.00158881, -0.000250307, -0.00595};
Point(5401) = {-0.00191487, -0.000666748, -0.00256001};
Point(5402) = {-0.00111159, -4.40287e-05, -0.000845288};
Point(5403) = {-0.00126248, -0.000688301, 0.00278308};
Point(5404) = {-0.00116558, -0.000822471, 0.00595};
Spline(5400) = {5400:5404};
Point(5500) = {-0.00192854, 0.00053039, -0.00595};
Point(5501) = {-0.00106005, 0.000197686, -0.00445478};
Point(5502) = {-0.00164017, 0.000775746, -0.00176848};
Point(5503) = {-0.00140242, 0.000293849, 0.00341642};
Point(5504) = {-0.00148977, 9.4726e-05, 0.00595};
Spline(5500) = {5500:5504};
Point(5600) = {-0.00150062, 0.00168419, -0.00595};
Point(5601) = {-0.00175494, 0.0017592, -0.00363518};
Point(5602) = {-0.00187077, 0.00172326, 8.6306e-05};
Point(5603) = {-0.0014619, 0.00126599, 0.00211468};
Point(5604) = {-0.00124433, 0.00101552, 0.00595};
Spline(5600) = {5600:5604};
Point(5700) = {-0.00134233, 0.00239671, -0.00595};
Point(5701) = {-0.001112, 0.00291133, -0.00249896};
Point(5702) = {-0.00124559, 0.00261162, 0.00152787};
Point(5703) = {-0.00168779, 0.00258876, 0.00595};
Spline(5700) = {5700:5703};
Point(5800) = {-0.00108001, 0.00299912, -0.00595};
Point(5801) = {-0.00127965, 0.00334039, -0.00201061};
Point(5802) = {-0.00151105, 0.00394185, 0.000193568};
Point(5803) = {-0.0013915, 0.00323946, 0.00359132};
Point(5804) = {-0.00151995, 0.00319358, 0.00595};
Spline(5800) = {5800:5804};
Point(5900) = {-0.00167997, 0.00452573, -0.00595};
Point(5901) = {-0.0015464, 0.00410267, -0.00396257};
Point(5902) = {-0.00192272, 0.00458082, 0.000819964};
Point(5903) = {-0.0017414, 0.00462595, 0.00395775};
Point(5904) = {-0.0015108, 0.00404972, 0.00595};
Spline(5900) = {5900:5904};
Point(6000) = {-0.00168274, 0.00498828, -0.00595};
Point(6001) = {-0.0013347, 0.00500454, -0.00271762};
Point(6002) = {-0.00125442, 0.00510223, 1.54564e-05};
Point(6003) = {-0.00146316, 0.00496526, 0.00316008};
Point(6004) = {-0.0016252, 0.00551453, 0.00595};
Spline(6000) = {6000:6004};
Point(6100) = {-0.000164121, -0.00565951, -0.00595};
Point(6101) = {-0.00045062, -0.00541937, -0.000469654};
Point(6102) = {-0.000408254, -0.0057773, 0.00595};
Spline(6100) = {6100:6102};
Point(6200) = {-0.000690984, -0.00444254, -0.00595};
Point(6201) = {-0.00097029, -0.00454657, -0.00450098};
Point(6202) = {-0.000326695, -0.00478075, -0.0030887};
Point(6203) = {-0.000809514, -0.00460239, 0.00153365};
Point(6204) = {-0.000568074, -0.00405805, 0.00290499};
Point(6205) = {-0.000145302, -0.00438171, 0.00595};
Spline(6200) = {6200:6205};
Point(6300) = {-0.000856365, -0.0037482, -0.00595};
Point(6301) = {-3.20245e-06, -0.00334879, -0.00319538};
Point(6302) = {-0.000858331, -0.00324806, 0.00231743};
Point(6303) = {-0.00084499, -0.00328798, 0.00595};
Spline(6300) = {6300:6303};
Point(6400) = {-0.000445142, -0.00217173, -0.00595};
Point(6401) = {-0.000963594, -0.00260407, -0.00454743};
Point(6402) = {-0.000720422, -0.00245512, -6.18302e-05};
Point(6403) = {-0.000814694, -0.00289081, 0.00330555};
Point(6404) = {-0.00017513, -0.00259284, 0.00595};
Spline(6400) = {6400:6404};
Point(6500) = {-0.00068636, -0.00149559, -0.00595};
Point(6501) = {-0.000184156, -0.00140088, -0.00460199};
Point(6502) = {-0.000397209, -0.0016718, -0.00326703};
Point(6503) = {-6.8657e-05, -0.00153983, -0.000990005};
Point(6504) = {-0.000855375, -0.00149411, 0.00460561};
Point(6505) = {-0.000878687, -0.00147017, 0.00595};
Spline(6500) = {6500:6505};
Point(6600) = {-9.95598e-05, -7.70461e-06, -0.00595};
Point(6601) = {-0.000691187, -0.000147646, -0.00184065};
Point(6602) = {-0.000123482, -0.000760622, 1.74549e-05};
Point(6603) = {-7.07961e-05, -9.5597e-05, 0.002524};
Point(6604) = {-0.000664823, -0.000840378, 0.00379951};
Point(6605) = {-0.000558314, -7.65482e-05, 0.00595};
Spline(6600) = {6600:6605};
Point(6700) = {-0.000182942, 1.78135e-05, -0.00595};
Point(6701) = {-0.000109063, 0.000853123, -0.00344654};
Point(6702) = {-0.000807186, 0.000373786, -0.00084734};
Point(6703) = {-0.000108306, 0.000846411, 0.00196209};
Point(6704) = {-0.000744724, 0.000512748, 0.00595};
Spline(6700) = {6700:6704};
Point(6800) = {-0.000162857, 0.00142327, -0.00595};
Point(6801) = {-0.000262674, 0.0018638, -0.000507881};
Point(6802) = {-0.000531739, 0.00194168, 0.00112185};
Point(6803) = {-0.000874116, 0.00173601, 0.00257105};
Point(6804) = {-0.000151963, 0.00116536, 0.00448371};
Point(6805) = {-0.000713426, 0.00129375, 0.00595};
Spline(6800) = {6800:6805};
Point(6900) = {-0.000142022, 0.00278884, -0.00595};
Point(6901) = {-0.000846608, 0.00287129, -0.00424092};
Point(6902) = {-0.000116705, 0.00270046, -0.00167542};
Point(6903) = {-0.000649094, 0.00209175, 0.00210238};
Point(6904) = {-0.000329307, 0.0023028, 0.00595};
Spline(6900) = {6900:6904};
Point(7000) = {-0.000713335, 0.00350165, -0.00595};
Point(7001) = {-0.000449094, 0.00381828, -0.00278752};
Point(7002) = {-0.000723424, 0.00339633, 0.00277564};
Point(7003) = {-0.000674022, 0.00334538, 0.00595};
Spline(7000) = {7000:7003};
Point(7100) = {-7.78792e-05, 0.00411256, -0.00595};
Point(7101) = {-0.000428295, 0.0042927, -0.003863};
Point(7102) = {-0.000298251, 0.00397713, -0.00137723};
Point(7103) = {-0.000911152, 0.00449817, 0.0020106};
Point(7104) = {-0.000373419, 0.004268, 0.00437074};
Point(7105) = {-0.000948498, 0.00431128, 0.00595};
Spline(7100) = {7100:7105};
Point(7200) = {-0.000329331, 0.00574141, -0.00595};
Point(7201) = {-0.000370284, 0.00538193, -0.00392716};
Point(7202) = {-0.000149726, 0.00588028, -0.00178585};
Point(7203) = {-0.000710883, 0.0058556, 0.000126483};
Point(7204) = {-0.000810617, 0.00573072, 0.00595};
Spline(7200) = {7200:7204};
Point(7300) = {0.000758733, -0.00504459, -0.00595};
Point(7301) = {0.00046755, -0.00553064, -0.00421532};
Point(7302) = {0.000645624, -0.00594682, -0.00212546};
Point(7303) = {0.000913251, -0.00496839, 0.00329178};
Point(7304) = {0.000110914, -0.00572843, 0.00595};
Spline(7300) = {7300:7304};
Point(7400) = {0.000334313, -0.00427629, -0.00595};
Point(7401) = {0.000865011, -0.00397653, -0.0011016};
Point(7402) = {0.000825321, -0.0043777, 0.00313358};
Point(7403) = {6.65917e-06, -0.00492173, 0.00595};
Spline(7400) = {7400:7403};
Point(7500) = {4.51103e-05, -0.00338252, -0.00595};
Point(7501) = {0.000965643, -0.0036788, -0.00381311};
Point(7502) = {0.000439685, -0.003325, -0.000925349};
Point(7503) = {0.000242543, -0.00330512, 0.00101153};
Point(7504) = {0.000820769, -0.00387951, 0.00595};
Spline(7500) = {7500:7504};
Point(7600) = {0.000802616, -0.00246338, -0.00595};
Point(7601) = {1.29953e-05, -0.00271459, -0.00324216};
Point(7602) = {0.000880025, -0.00260069, 0.00222404};
Point(7603) = {0.000938932, -0.00265109, 0.00595};
Spline(7600) = {7600:7603};
Point(7700) = {0.000437493, -0.00132085, -0.00595};
Point(7701) = {0.000840578, -0.00194496, -0.00331282};
Point(7702) = {0.00032613, -0.00169002, 0.000590958};
Point(7703) = {0.000282493, -0.00180345, 0.00445685};
Point(7704) = {5.07322e-05, -0.00185357, 0.00595};
Spline(7700) = {7700:7704};
Point(7800) = {0.000685658, -0.000987027, -0.00595};
Point(7801) = {0.000921409, -6.45996e-05, -0.0022581};
Point(7802) = {0.000283001, -0.000947946, 0.00232921};
Point(7803) = {0.000122972, -0.000714858, 0.00595};
Spline(7800) = {7800:7803};
Point(7900) = {0.000553966, 0.000792566, -0.00595};
Point(7901) = {0.000849162, 0.000243173, -0.00443504};
Point(7902) = {0.000910543, 0.000507472, 0.00137757};
Point(7903) = {0.000983001, 0.000917677, 0.00595};
Spline(7900) = {7900:7903};
Point(8000) = {0.000199294, 0.00166944, -0.00595};
Point(8001) = {0.000921235, 0.00191736, -0.00321344};
Point(8002) = {0.000136681, 0.00185539, -0.000785753};
Point(8003) = {0.000426171, 0.00190586, 0.00331532};
Point(8004) = {0.000150567, 0.00112407, 0.00595};
Spline(8000) = {8000:8004};
Point(8100) = {0.000468759, 0.0027436, -0.00595};
Point(8101) = {0.000786499, 0.00208457, -0.00358687};
Point(8102) = {0.000307992, 0.00291805, -0.000260467};
Point(8103) = {0.000778349, 0.00203166, 0.0024413};
Point(8104) = {0.000411679, 0.0023214, 0.00595};
Spline(8100) = {8100:8104};
Point(8200) = {0.000872107, 0.00382908, -0.00595};
Point(8201) = {0.000839512, 0.00342339, -0.00164229};
Point(8202) = {0.000396413, 0.00362229, 0.000179252};
Point(8203) = {0.000597454, 0.00378732, 0.00229302};
Point(8204) = {0.000372656, 0.00306419, 0.00595};
Spline(8200) = {8200:8204};
Point(8300) = {0.000764684, 0.00436534, -0.00595};
Point(8301) = {0.000818419, 0.00444304, -6.62955e-05};
Point(8302) = {0.000491217, 0.00486291, 0.00172467};
Point(8303) = {0.000786762, 0.00441845, 0.00595};
Spline(8300) = {8300:8303};
Point(8400) = {0.000986941, 0.00527008, -0.00595};
Point(8401) = {0.000611338, 0.00541121, -0.000380692};
Point(8402) = {0.000428551, 0.00551935, 0.00149508};
Point(8403) = {0.000772802, 0.00576333, 0.00595};
Spline(8400) = {8400:8403};
Point(8500) = {0.0011794, -0.00525221, -0.00595};
Point(8501) = {0.00179982, -0.00514007, -0.00244793};
Point(8502) = {0.00123315, -0.00519161, -0.00122176};
Point(8503) = {0.00136481, -0.00553817, 0.00218539};
Point(8504) = {0.00191678, -0.00555717, 0.00595};
Spline(8500) = {8500:8504};
Point(8600) = {0.00162258, -0.00460858, -0.00595};
Point(8601) = {0.00152183, -0.00488118, -0.00323129};
Point(8602) = {0.0012517, -0.0044404, 0.000782126};
Point(8603) = {0.00132177, -0.00411128, 0.00241224};
Point(8604) = {0.00122621, -0.00397969, 0.00595};
Spline(8600) = {8600:8604};
Point(8700) = {0.00165111, -0.00313585, -0.00595};
Point(8701) = {0.00185837, -0.00323133, -0.0035351};
Point(8702) = {0.00174711, -0.00336551, 0.000372525};
Point(8703) = {0.00111695, -0.00392938, 0.00295321};
Point(8704) = {0.00112681, -0.00385826, 0.00595};
Spline(8700) = {8700:8704};
Point(8800) = {0.0016053, -0.00241202, -0.00595};
Point(8801) = {0.00125892, -0.0023692, -0.00160589};
Point(8802) = {0.00154707, -0.00252861, 0.00219104};
Point(8803) = {0.00118122, -0.0028277, 0.00595};
Spline(8800) = {8800:8803};
Point(8900) = {0.001431, -0.00149993, -0.00595};
Point(8901) = {0.00104565, -0.00174773, -0.00164434};
Point(8902) = {0.00146242, -0.00132189, -3.85132e-05};
Point(8903) = {0.00111322, -0.00107156, 0.00595};
Spline(8900) = {8900:8903};
Point(9000) = {0.00101614, -0.000701432, -0.00595};
Point(9001) = {0.00122563, -0.000337719, -0.00236294};
Point(9002) = {0.00191905, -0.000770443, 0.00344124};
Point(9003) = {0.00180252, -0.000427726, 0.00595};
Spline(9000) = {9000:9003};
Point(9100) = {0.00105939, 0.000362419, -0.00595};
Point(9101) = {0.00118633, 0.00028564, -0.00113139};
Point(9102) = {0.00176541, 0.000882588, 0.00323255};
Point(9103) = {0.00153566, 0.000315802, 0.00595};
Spline(9100) = {9100:9103};
Point(9200) = {0.00151767, 0.00114034, -0.00595};
Point(9201) = {0.00193391, 0.00175074, -0.00452973};
Point(9202) = {0.00146887, 0.001184, -0.00203924};
Point(9203) = {0.00147354, 0.00108507, 0.00376557};
Point(9204) = {0.00155257, 0.00152951, 0.00595};
Spline(9200) = {9200:9204};
Point(9300) = {0.00106858, 0.00243416, -0.00595};
Point(9301) = {0.00102943, 0.00287508, -0.00287954};
Point(9302) = {0.0016166, 0.00223425, 3.49817e-05};
Point(9303) = {0.00143264, 0.00276188, 0.00337309};
Point(9304) = {0.00185228, 0.00255507, 0.00595};
Spline(9300) = {9300:9304};
Point(9400) = {0.00119488, 0.00348419, -0.00595};
Point(9401) = {0.00167772, 0.00325894, -0.00437827};
Point(9402) = {0.00176884, 0.00298837, 0.000123506};
Point(9403) = {0.00182795, 0.00304815, 0.00227859};
Point(9404) = {0.00109691, 0.00382608, 0.00595};
Spline(9400) = {9400:9404};
Point(9500) = {0.00168138, 0.00453172, -0.00595};
Point(9501) = {0.00164351, 0.00458574, -0.00190361};
Point(9502) = {0.00156802, 0.00486742, -9.05016e-05};
Point(9503) = {0.0016446, 0.00452803, 0.00434197};
Point(9504) = {0.00154615, 0.00487664, 0.00595};
Spline(9500) = {9500:9504};
Point(9600) = {0.00153516, 0.00582505, -0.00595};
Point(9601) = {0.0013158, 0.00574143, -0.00191266};
Point(9602) = {0.00133582, 0.00567807, 0.00243091};
Point(9603) = {0.0010275, 0.00565973, 0.00595};
Spline(9600) = {9600:9603};
Point(9700) = {0.00225994, -0.0057783, -0.00595};
Point(9701) = {0.00236418, -0.00545185, -0.00365948};
Point(9702) = {0.00271473, -0.00550752, 0.00183783};
Point(9703) = {0.00228088, -0.00529589, 0.00307487};
Point(9704) = {0.00273804, -0.00496502, 0.00595};
Spline(9700) = {9700:9704};
Point(9800) = {0.00288587, -0.00428751, -0.00595};
Point(9801) = {0.00251198, -0.00445677, -0.00429137};
Point(9802) = {0.00293544, -0.0046129, -0.00282649};
Point(9803) = {0.00273773, -0.00444244, 1.1014e-06};
Point(9804) = {0.00239799, -0.00401517, 0.00215151};
Point(9805) = {0.0025599, -0.004709, 0.00595};
Spline(9800) = {9800:9805};
Point(9900) = {0.00207923, -0.00321454, -0.00595};
Point(9901) = {0.00256342, -0.0037716, -0.00117017};
Point(9902) = {0.00265648, -0.00343213, 0.00405148};
Point(9903) = {0.00201186, -0.00322621, 0.00595};
Spline(9900) = {9900:9903};
Point(10000) = {0.00220782, -0.00253083, -0.00595};
Point(10001) = {0.00216367, -0.00233359, -0.00363762};
Point(10002) = {0.00291589, -0.00240562, -0.000513387};
Point(10003) = {0.00264024, -0.00230482, 0.00429431};
Point(10004) = {0.00289289, -0.00220488, 0.00595};
Spline(10000) = {10000:10004};
Point(10100) = {0.00297224, -0.00149935, -0.00595};
Point(10101) = {0.00284388, -0.00126244, -0.000571515};
Point(10102) = {0.0025519, -0.00132418, 0.00373882};
Point(10103) = {0.00282209, -0.00111199, 0.00595};
Spline(10100) = {10100:10103};
Point(10200) = {0.00269976, -0.000474099, -0.00595};
Point(10201) = {0.00219932, -0.00072108, -0.00260462};
Point(10202) = {0.00200208, -0.000594414, 0.00013237};
Point(10203) = {0.00252224, -0.00040444, 0.00595};
Spline(10200) = {10200:10203};
Point(10300) = {0.00216031, 0.000249219, -0.00595};
Point(10301) = {0.00198601, 0.000399169, -0.00369821};
Point(10302) = {0.00280411, 0.000668456, 0.000864306};
Point(10303) = {0.00288394, 0.000304121, 0.00595};
Spline(10300) = {10300:10303};
Point(10400) = {0.00240144, 0.00186307, -0.00595};
Point(10401) = {0.00266946, 0.00155054, -0.0033993};
Point(10402) = {0.00259885, 0.00158053, 0.00161604};
Point(10403) = {0.00238094, 0.00171913, 0.00300155};
Point(10404) = {0.0020478, 0.00151045, 0.00595};
Spline(10400) = {10400:10404};
Point(10500) = {0.00240763, 0.00228692, -0.00595};
Point(10501) = {0.00284117, 0.00283453, -0.00301519};
Point(10502) = {0.00273188, 0.00267124, 0.0013721};
Point(10503) = {0.00254398, 0.00260514, 0.00453504};
Point(10504) = {0.00247458, 0.00295836, 0.00595};
Spline(10500) = {10500:10504};
Point(10600) = {0.00287768, 0.0031095, -0.00595};
Point(10601) = {0.00229105, 0.00368747, -0.00257276};
Point(10602) = {0.0027218, 0.00395258, 0.000915459};
Point(10603) = {0.00277848, 0.0038488, 0.00334365};
Point(10604) = {0.00291725, 0.0033498, 0.00595};
Spline(10600) = {10600:10604};
Point(10700) = {0.00280843, 0.00445962, -0.00595};
Point(10701) = {0.00243954, 0.00417117, -0.000843275};
Point(10702) = {0.00210054, 0.00484298, 0.000455335};
Point(10703) = {0.00272155, 0.00424997, 0.00463191};
Point(10704) = {0.0026533, 0.00485762, 0.00595};
Spline(10700) = {10700:10704};
Point(10800) = {0.00235181, 0.00559089, -0.00595};
Point(10801) = {0.00237451, 0.00501956, -0.000617335};
Point(10802) = {0.00225147, 0.00560228, 0.00595};
Spline(10800) = {10800:10802};
Point(10900) = {0.00321032, -0.00542999, -0.00595};
Point(10901) = {0.00300147, -0.00527998, -0.000625413};
Point(10902) = {0.00319768, -0.00565061, 0.00409202};
Point(10903) = {0.00344755, -0.00577974, 0.00595};
Spline(10900) = {10900:10903};
Point(11000) = {0.00388987, -0.00457769, -0.00595};
Point(11001) = {0.0032717, -0.00399072, -0.00218339};
Point(11002) = {0.00347876, -0.004882, 0.00242928};
Point(11003) = {0.00396467, -0.0047237, 0.00595};
Spline(11000) = {11000:11003};
Point(11100) = {0.00391439, -0.00314735, -0.00595};
Point(11101) = {0.00334755, -0.00389372, -3.63755e-05};
Point(11102) = {0.00362649, -0.00308888, 0.00329456};
Point(11103) = {0.00365119, -0.00300988, 0.00595};
Spline(11100) = {11100:11103};
Point(11200) = {0.00323741, -0.00264287, -0.00595};
Point(11201) = {0.00390594, -0.00282992, -0.00343691};
Point(11202) = {0.00363877, -0.00260471, -0.00149919};
Point(11203) = {0.00342962, -0.00297284, 0.00270721};
Point(11204) = {0.0038194, -0.00282722, 0.00595};
Spline(11200) = {11200:11204};
Point(11300) = {0.00378809, -0.0013008, -0.00595};
Point(11301) = {0.00337401, -0.00163043, -0.00230344};
Point(11302) = {0.00349137, -0.00172838, 0.00319323};
Point(11303) = {0.00318979, -0.00190456, 0.00595};
Spline(11300) = {11300:11303};
Point(11400) = {0.00315429, -0.000237837, -0.00595};
Point(11401) = {0.00302426, -8.12488e-05, -0.00306134};
Point(11402) = {0.00303377, -0.000224471, 0.000854619};
Point(11403) = {0.00310077, -3.6133e-05, 0.0042123};
Point(11404) = {0.00335443, -0.000627646, 0.00595};
Spline(11400) = {11400:11404};
Point(11500) = {0.00330783, 0.000736255, -0.00595};
Point(11501) = {0.00352029, 0.000929417, -0.00139248};
Point(11502) = {0.00369851, 1.13137e-05, 0.00307567};
Point(11503) = {0.00325043, 0.000590201, 0.00595};
Spline(11500) = {11500:11503};
Point(11600) = {0.00302806, 0.00179086, -0.00595};
Point(11601) = {0.00327636, 0.00182181, -0.00129092};
Point(11602) = {0.00318966, 0.00174637, 0.00169471};
Point(11603) = {0.00367008, 0.00135443, 0.00595};
Spline(11600) = {11600:11603};
Point(11700) = {0.00298008, 0.00206883, -0.00595};
Point(11701) = {0.00379473, 0.00244644, -0.00447676};
Point(11702) = {0.00300955, 0.00204202, -0.00282028};
Point(11703) = {0.00364201, 0.00283552, -0.000693144};
Point(11704) = {0.00374397, 0.00276363, 0.00386947};
Point(11705) = {0.00389629, 0.00283865, 0.00595};
Spline(11700) = {11700:11705};
Point(11800) = {0.00379153, 0.00355969, -0.00595};
Point(11801) = {0.00333662, 0.00345286, -0.00305832};
Point(11802) = {0.00298865, 0.0032033, 0.000486541};
Point(11803) = {0.00393373, 0.00362729, 0.00352773};
Point(11804) = {0.0035844, 0.00388587, 0.00595};
Spline(11800) = {11800:11804};
Point(11900) = {0.0039303, 0.0045628, -0.00595};
Point(11901) = {0.00349918, 0.00441572, -0.00080989};
Point(11902) = {0.00338888, 0.00457139, 0.00238669};
Point(11903) = {0.00336924, 0.00481754, 0.00595};
Spline(11900) = {11900:11903};
Point(12000) = {0.0033857, 0.00496209, -0.00595};
Point(12001) = {0.00393206, 0.00572943, -0.0032686};
Point(12002) = {0.00368424, 0.0050701, -0.000943245};
Point(12003) = {0.00311458, 0.00574765, 0.00284267};
Point(12004) = {0.00394379, 0.00507712, 0.00595};
Spline(12000) = {12000:12004};
Point(12100) = {0.00450972, -0.00551431, -0.00595};
Point(12101) = {0.00477969, -0.00593843, -0.00469447};
Point(12102) = {0.00396714, -0.00531152, -0.00334043};
Point(12103) = {0.0049409, -0.00586609, 0.000429577};
Point(12104) = {0.00417416, -0.0053188, 0.00595};
Spline(12100) = {12100:12104};
Point(12200) = {0.00438201, -0.0040399, -0.00595};
Point(12201) = {0.00423262, -0.00447237, -0.00112312};
Point(12202) = {0.00468522, -0.00413725, 0.00032014};
Point(12203) = {0.00466159, -0.00405134, 0.00595};
Spline(12200) = {12200:12203};
Point(12300) = {0.0042478, -0.00308024, -0.00595};
Point(12301) = {0.00434111, -0.00300372, -0.000925895};
Point(12302) = {0.00425191, -0.00324868, 0.00381542};
Point(12303) = {0.0042229, -0.00301158, 0.00595};
Spline(12300) = {12300:12303};
Point(12400) = {0.00429101, -0.00228171, -0.00595};
Point(12401) = {0.00429122, -0.00242477, -0.00472795};
Point(12402) = {0.00443088, -0.00231458, -0.000435449};
Point(12403) = {0.00433832, -0.00281486, 0.00217451};
Point(12404) = {0.00424252, -0.00241118, 0.00595};
Spline(12400) = {12400:12404};
Point(12500) = {0.00407154, -0.00156229, -0.00595};
Point(12501) = {0.00441366, -0.00105073, -0.00472012};
Point(12502) = {0.0049158, -0.00178773, 0.000206598};
Point(12503) = {0.00461432, -0.00193647, 0.00160566};
Point(12504) = {0.00487882, -0.00196017, 0.00595};
Spline(12500) = {12500:12504};
Point(12600) = {0.00420642, -8.89245e-05, -0.00595};
Point(12601) = {0.00446783, -0.000725834, -0.000571022};
Point(12602) = {0.00479953, -0.000630275, 0.00211473};
Point(12603) = {0.00427323, -0.000706121, 0.00374276};
Point(12604) = {0.00483327, -0.000727364, 0.00595};
Spline(12600) = {12600:12604};
Point(12700) = {0.00427015, 0.000128216, -0.00595};
Point(12701) = {0.00447765, 0.000522083, -0.00324426};
Point(12702) = {0.00466275, 0.000420979, 4.32702e-06};
Point(12703) = {0.00424273, 0.000657906, 0.00423488};
Point(12704) = {0.0044718, 0.000487372, 0.00595};
Spline(12700) = {12700:12704};
Point(12800) = {0.00398668, 0.00116005, -0.00595};
Point(12801) = {0.00435835, 0.00167742, -0.000619262};
Point(12802) = {0.00401722, 0.00191046, 0.00341463};
Point(12803) = {0.00484282, 0.00163805, 0.00595};
Spline(12800) = {12800:12803};
Point(12900) = {0.00475343, 0.00281642, -0.00595};
Point(12901) = {0.00427791, 0.00213333, -0.00203505};
Point(12902) = {0.00494691, 0.00209559, 0.00355793};
Point(12903) = {0.0040253, 0.00263673, 0.00595};
Spline(12900) = {12900:12903};
Point(13000) = {0.00464836, 0.00396593, -0.00595};
Point(13001) = {0.00435556, 0.00346493, -0.00392381};
Point(13002) = {0.00454034, 0.00323605, -0.00169751};
Point(13003) = {0.00421811, 0.00389101, 0.00239174};
Point(13004) = {0.00463982, 0.00378306, 0.00595};
Spline(13000) = {13000:13004};
Point(13100) = {0.00466904, 0.00429948, -0.00595};
Point(13101) = {0.00404695, 0.00459998, -0.00381127};
Point(13102) = {0.00438751, 0.00402385, -0.00170902};
Point(13103) = {0.00481396, 0.00493479, 0.000933915};
Point(13104) = {0.00461335, 0.00416938, 0.00444088};
Point(13105) = {0.00437656, 0.00490263, 0.00595};
Spline(13100) = {13100:13105};
Point(13200) = {0.00487576, 0.00593122, -0.00595};
Point(13201) = {0.00400789, 0.00497869, -0.000745097};
Point(13202) = {0.00425481, 0.00529246, 0.00234643};
Point(13203) = {0.00396829, 0.00548118, 0.00461121};
Point(13204) = {0.0048247, 0.00583573, 0.00595};
Spline(13200) = {13200:13204};
Point(13300) = {0.0053439, -0.00561291, -0.00595};
Point(13301) = {0.00555533, -0.00509705, -0.00233857};
Point(13302) = {0.00543554, -0.0056145, -3.39955e-05};
Point(13303) = {0.00536953, -0.00532698, 0.00420528};
Point(13304) = {0.00513228, -0.00511252, 0.00595};
Spline(13300) = {13300:13304};
Point(13400) = {0.00590162, -0.0046906, -0.00595};
Point(13401) = {0.00572708, -0.00451248, -0.00470468};
Point(13402) = {0.00589374, -0.0041953, -0.000713022};
Point(13403) = {0.00498382, -0.00427278, 0.00178737};
Point(13404) = {0.00560935, -0.00402467, 0.00413346};
Point(13405) = {0.00500437, -0.00450169, 0.00595};
Spline(13400) = {13400:13405};
Point(13500) = {0.00526243, -0.00315466, -0.00595};
Point(13501) = {0.00507469, -0.00322017, -0.00239869};
Point(13502) = {0.00509418, -0.00362944, 0.000809817};
Point(13503) = {0.00506535, -0.00317757, 0.00595};
Spline(13500) = {13500:13503};
Point(13600) = {0.0054705, -0.00202433, -0.00595};
Point(13601) = {0.0059305, -0.00212916, -0.00389752};
Point(13602) = {0.00507852, -0.0020451, 0.000925958};
Point(13603) = {0.00520094, -0.0021627, 0.00243469};
Point(13604) = {0.00593689, -0.00243495, 0.00595};
Spline(13600) = {13600:13604};
Point(13700) = {0.00509477, -0.00156689, -0.00595};
Point(13701) = {0.00531905, -0.00189159, -0.00188599};
Point(13702) = {0.00573215, -0.00111949, 0.00154489};
Point(13703) = {0.00575537, -0.00112205, 0.00595};
Spline(13700) = {13700:13703};
Point(13800) = {0.00591125, -0.000356936, -0.00595};
Point(13801) = {0.00540794, -0.000815218, -0.00470856};
Point(13802) = {0.0054762, -0.000572094, -0.000790966};
Point(13803) = {0.00548421, -0.000452666, 0.00595};
Spline(13800) = {13800:13803};
Point(13900) = {0.00520714, 0.000376567, -0.00595};
Point(13901) = {0.00593965, 0.00053251, -0.000957452};
Point(13902) = {0.00510221, 0.000249147, 0.00112798};
Point(13903) = {0.00542681, 0.000346232, 0.00595};
Spline(13900) = {13900:13903};
Point(14000) = {0.00517381, 0.00180791, -0.00595};
Point(14001) = {0.00556331, 0.00120843, -0.00341337};
Point(14002) = {0.00578106, 0.00139809, 0.00215358};
Point(14003) = {0.00578889, 0.00148934, 0.00464983};
Point(14004) = {0.00544984, 0.00161903, 0.00595};
Spline(14000) = {14000:14004};
Point(14100) = {0.0055027, 0.00213945, -0.00595};
Point(14101) = {0.00525128, 0.00293155, -0.00397822};
Point(14102) = {0.005132, 0.00263497, -0.000583209};
Point(14103) = {0.00502176, 0.00266903, 0.00165482};
Point(14104) = {0.00541625, 0.00213852, 0.00595};
Spline(14100) = {14100:14104};
Point(14200) = {0.00543055, 0.00351382, -0.00595};
Point(14201) = {0.00554226, 0.00392832, -0.00112203};
Point(14202) = {0.0052802, 0.0034099, 0.00110278};
Point(14203) = {0.00579952, 0.00333772, 0.00595};
Spline(14200) = {14200:14203};
Point(14300) = {0.00569852, 0.00439013, -0.00595};
Point(14301) = {0.00532841, 0.00407483, -0.00342189};
Point(14302) = {0.005896, 0.00405112, 0.000450342};
Point(14303) = {0.00585599, 0.00444119, 0.00427041};
Point(14304) = {0.00589967, 0.00448988, 0.00595};
Spline(14300) = {14300:14304};
Point(14400) = {0.00555584, 0.00547476, -0.00595};
Point(14401) = {0.00551357, 0.00586742, -0.00379646};
Point(14402) = {0.00563673, 0.00567699, -0.00113837};
Point(14403) = {0.00550458, 0.00524325, 0.000420315};
Point(14404) = {0.00593912, 0.00499867, 0.00410134};
Point(14405) = {0.00558195, 0.00536096, 0.00595};
Spline(14400) = {14400:14405};
Transfinite Line "*" = 2;
Transfinite Line {100} = 6*NS;
Transfinite Line {200} = 5*NS;
Transfinite Line {300} = 4*NS;
Transfinite Line {400} = 4*NS;
Transfinite Line {500} = 6*NS;
Transfinite Line {600} = 5*NS;
Transfinite Line {700} = 4*NS;
Transfinite Line {800} = 5*NS;
Transfinite Line {900} = 4*NS;
Transfinite Line {1000} = 5*NS;
Transfinite Line {1100} = 5*NS;
Transfinite Line {1200} = 6*NS;
Transfinite Line {1300} = 5*NS;
Transfinite Line {1400} = 4*NS;
Transfinite Line {1500} = 4*NS;
Transfinite Line {1600} = 5*NS;
Transfinite Line {1700} = 6*NS;
Transfinite Line {1800} = 5*NS;
Transfinite Line {1900} = 4*NS;
Transfinite Line {2000} = 5*NS;
Transfinite Line {2100} = 4*NS;
Transfinite Line {2200} = 4*NS;
Transfinite Line {2300} = 5*NS;
Transfinite Line {2400} = 5*NS;
Transfinite Line {2500} = 5*NS;
Transfinite Line {2600} = 5*NS;
Transfinite Line {2700} = 6*NS;
Transfinite Line {2800} = 6*NS;
Transfinite Line {2900} = 5*NS;
Transfinite Line {3000} = 5*NS;
Transfinite Line {3100} = 5*NS;
Transfinite Line {3200} = 6*NS;
Transfinite Line {3300} = 5*NS;
Transfinite Line {3400} = 5*NS;
Transfinite Line {3500} = 4*NS;
Transfinite Line {3600} = 6*NS;
Transfinite Line {3700} = 4*NS;
Transfinite Line {3800} = 5*NS;
Transfinite Line {3900} = 4*NS;
Transfinite Line {4000} = 4*NS;
Transfinite Line {4100} = 4*NS;
Transfinite Line {4200} = 4*NS;
Transfinite Line {4300} = 4*NS;
Transfinite Line {4400} = 4*NS;
Transfinite Line {4500} = 5*NS;
Transfinite Line {4600} = 4*NS;
Transfinite Line {4700} = 3*NS;
Transfinite Line {4800} = 4*NS;
Transfinite Line {4900} = 4*NS;
Transfinite Line {5000} = 5*NS;
Transfinite Line {5100} = 5*NS;
Transfinite Line {5200} = 4*NS;
Transfinite Line {5300} = 5*NS;
Transfinite Line {5400} = 5*NS;
Transfinite Line {5500} = 5*NS;
Transfinite Line {5600} = 5*NS;
Transfinite Line {5700} = 4*NS;
Transfinite Line {5800} = 5*NS;
Transfinite Line {5900} = 5*NS;
Transfinite Line {6000} = 5*NS;
Transfinite Line {6100} = 3*NS;
Transfinite Line {6200} = 6*NS;
Transfinite Line {6300} = 4*NS;
Transfinite Line {6400} = 5*NS;
Transfinite Line {6500} = 6*NS;
Transfinite Line {6600} = 6*NS;
Transfinite Line {6700} = 5*NS;
Transfinite Line {6800} = 6*NS;
Transfinite Line {6900} = 5*NS;
Transfinite Line {7000} = 4*NS;
Transfinite Line {7100} = 6*NS;
Transfinite Line {7200} = 5*NS;
Transfinite Line {7300} = 5*NS;
Transfinite Line {7400} = 4*NS;
Transfinite Line {7500} = 5*NS;
Transfinite Line {7600} = 4*NS;
Transfinite Line {7700} = 5*NS;
Transfinite Line {7800} = 4*NS;
Transfinite Line {7900} = 4*NS;
Transfinite Line {8000} = 5*NS;
Transfinite Line {8100} = 5*NS;
Transfinite Line {8200} = 5*NS;
Transfinite Line {8300} = 4*NS;
Transfinite Line {8400} = 4*NS;
Transfinite Line {8500} = 5*NS;
Transfinite Line {8600} = 5*NS;
Transfinite Line {8700} = 5*NS;
Transfinite Line {8800} = 4*NS;
Transfinite Line {8900} = 4*NS;
Transfinite Line {9000} = 4*NS;
Transfinite Line {9100} = 4*NS;
Transfinite Line {9200} = 5*NS;
Transfinite Line {9300} = 5*NS;
Transfinite Line {9400} = 5*NS;
Transfinite Line {9500} = 5*NS;
Transfinite Line {9600} = 4*NS;
Transfinite Line {9700} = 5*NS;
Transfinite Line {9800} = 6*NS;
Transfinite Line {9900} = 4*NS;
Transfinite Line {10000} = 5*NS;
Transfinite Line {10100} = 4*NS;
Transfinite Line {10200} = 4*NS;
Transfinite Line {10300} = 4*NS;
Transfinite Line {10400} = 5*NS;
Transfinite Line {10500} = 5*NS;
Transfinite Line {10600} = 5*NS;
Transfinite Line {10700} = 5*NS;
Transfinite Line {10800} = 3*NS;
Transfinite Line {10900} = 4*NS;
Transfinite Line {11000} = 4*NS;
Transfinite Line {11100} = 4*NS;
Transfinite Line {11200} = 5*NS;
Transfinite Line {11300} = 4*NS;
Transfinite Line {11400} = 5*NS;
Transfinite Line {11500} = 4*NS;
Transfinite Line {11600} = 4*NS;
Transfinite Line {11700} = 6*NS;
Transfinite Line {11800} = 5*NS;
Transfinite Line {11900} = 4*NS;
Transfinite Line {12000} = 5*NS;
Transfinite Line {12100} = 5*NS;
Transfinite Line {12200} = 4*NS;
Transfinite Line {12300} = 4*NS;
Transfinite Line {12400} = 5*NS;
Transfinite Line {12500} = 5*NS;
Transfinite Line {12600} = 5*NS;
Transfinite Line {12700} = 5*NS;
Transfinite Line {12800} = 4*NS;
Transfinite Line {12900} = 4*NS;
Transfinite Line {13000} = 5*NS;
Transfinite Line {13100} = 6*NS;
Transfinite Line {13200} = 5*NS;
Transfinite Line {13300} = 5*NS;
Transfinite Line {13400} = 6*NS;
Transfinite Line {13500} = 4*NS;
Transfinite Line {13600} = 5*NS;
Transfinite Line {13700} = 4*NS;
Transfinite Line {13800} = 4*NS;
Transfinite Line {13900} = 4*NS;
Transfinite Line {14000} = 5*NS;
Transfinite Line {14100} = 5*NS;
Transfinite Line {14200} = 4*NS;
Transfinite Line {14300} = 5*NS;
Transfinite Line {14400} = 6*NS;
Physical Line(1001) = {100,200,300,400,500,600,700,800,900,1000,1100,1200,1300,1400,1500,1600,1700,1800,1900,2000,2100,2200,2300,2400,2500,2600,2700,2800,2900,3000,3100,3200,3300,3400,3500,3600,3700,3800,3900,4000,4100,4200,4300,4400,4500,4600,4700,4800,4900,5000,5100,5200,5300,5400,5500,5600,5700,5800,5900,6000,6100,6200,6300,6400,6500,6600,6700,6800,6900,7000,7100,7200,7300};
Physical Line(1002) = {7400,7500,7600,7700,7800,7900,8000,8100,8200,8300,8400,8500,8600,8700,8800,8900,9000,9100,9200,9300,9400,9500,9600,9700,9800,9900,10000,10100,10200,10300,10400,10500,10600,10700,10800,10900,11000,11100,11200,11300,11400,11500,11600,11700,11800,11900,12000,12100,12200,12300,12400,12500,12600,12700,12800,12900,13000,13100,13200,13300,13400,13500,13600,13700,13800,13900,14000,14100,14200,14300,14400};
Physical Point(101) = {100,204,303,400,500,600,703,804,900,1004,1104,1200,1300,1400,1500,1604,1705,1804,1903,2004,2100,2200,2304,2404,2504,2604,2705,2800,2904,3004,3100,3205,3304,3400,3500,3600,3703,3804,3903,4003,4100,4203,4300,4400,4504,4603,4700,4803,4903,5004,5104,5200,5304,5400,5504,5604,5703,5800,5904,6004,6102,6205,6300,6400,6500,6605,6700,6805,6904,7000,7100,7200,7304,7403,7500,7603,7704,7800,7903,8004,8100,8204,8303,8403,8504,8600,8700,8800,8903,9003,9100,9200,9304,9400,9504,9600,9704,9805,9903,10000,10100,10200,10303,10400,10500,10604,10700,10802,10903,11000,11100,11200,11303,11400,11503,11600,11700,11804,11900,12004,12104,12203,12300,12404,12500,12604,12700,12803,12900,13000,13100,13204,13300,13405,13503,13600,13700,13803,13900,14000,14104,14203,14300,14400};
Physical Point(102) = {105,200,300,403,505,604,700,800,903,1000,1100,1205,1304,1403,1503,1600,1700,1800,1900,2000,2103,2203,2300,2400,2500,2600,2700,2805,2900,3000,3104,3200,3300,3404,3503,3605,3700,3800,3900,4000,4103,4200,4303,4403,4500,4600,4702,4800,4900,5000,5100,5203,5300,5404,5500,5600,5700,5804,5900,6000,6100,6200,6303,6404,6505,6600,6704,6800,6900,7003,7105,7204,7300,7400,7504,7600,7700,7803,7900,8000,8104,8200,8300,8400,8500,8604,8704,8803,8900,9000,9103,9204,9300,9404,9500,9603,9700,9800,9900,10004,10103,10203,10300,10404,10504,10600,10704,10800,10900,11003,11103,11204,11300,11404,11500,11603,11705,11800,11903,12000,12100,12200,12303,12400,12504,12600,12704,12800,12903,13004,13105,13200,13304,13400,13500,13604,13703,13800,13903,14004,14100,14200,14304,14405};
