Geometry.Tolerance = 1.0e-8;
NS = 10;
Mesh.ElementOrder = 1;
Point(100) = {-0.00560144, -0.00474555, -0.00595};
Point(101) = {-0.00550667, -0.00524565, -0.00241714};
Point(102) = {-0.00477072, -0.00573974, -0.000340647};
Point(103) = {-0.00474553, -0.0048207, 0.00301722};
Point(104) = {-0.00462658, -0.00471075, 0.00595};
Spline(100) = {100:104};
Point(200) = {-0.00560465, -0.00444267, -0.00595};
Point(201) = {-0.00581403, -0.00395619, -0.00135458};
Point(202) = {-0.00494853, -0.00370412, 0.000279311};
Point(203) = {-0.00554567, -0.00389796, 0.00595};
Spline(200) = {200:203};
Point(300) = {-0.00545229, -0.00169665, -0.00595};
Point(301) = {-0.00532688, -0.00250657, -0.00354456};
Point(302) = {-0.00590788, -0.00277381, 0.000654346};
Point(303) = {-0.00505428, -0.0023467, 0.00258222};
Point(304) = {-0.00529033, -0.00209155, 0.00470828};
Point(305) = {-0.0053943, -0.00251331, 0.00595};
Spline(300) = {300:305};
Point(400) = {-0.00534876, -0.000878543, -0.00595};
Point(401) = {-0.00592614, -0.000327471, -0.00325176};
Point(402) = {-0.00539704, -0.00069274, 0.000799992};
Point(403) = {-0.00541259, -0.00139261, 0.00595};
Spline(400) = {400:403};
Point(500) = {-0.00501621, 0.000929193, -0.00595};
Point(501) = {-0.00547315, 0.000831831, -0.00178006};
Point(502) = {-0.00585755, 0.00124705, -4.31093e-05};
Point(503) = {-0.00507796, 0.000900308, 0.0038164};
Point(504) = {-0.00535895, 0.000561442, 0.00595};
Spline(500) = {500:504};
Point(600) = {-0.00458936, 0.00263552, -0.00595};
Point(601) = {-0.00500505, 0.00171101, -0.00226199};
Point(602) = {-0.00563717, 0.00281684, -0.000996739};
Point(603) = {-0.00537563, 0.00266276, 0.00396192};
Point(604) = {-0.0057677, 0.00199659, 0.00595};
Spline(600) = {600:604};
Point(700) = {-0.00547825, 0.00368643, -0.00595};
Point(701) = {-0.00471729, 0.00393908, -0.00295039};
Point(702) = {-0.00457434, 0.00389969, 0.00235324};
Point(703) = {-0.00574854, 0.00347713, 0.00595};
Spline(700) = {700:703};
Point(800) = {-0.00508351, 0.00550817, -0.00595};
Point(801) = {-0.00499889, 0.00564394, -0.00321841};
Point(802) = {-0.00586976, 0.00558976, -0.00111659};
Point(803) = {-0.00569882, 0.00471664, 0.00390748};
Point(804) = {-0.00561003, 0.00496769, 0.00595};
Spline(800) = {800:804};
Point(900) = {-0.0031124, -0.00499851, -0.00595};
Point(901) = {-0.0032609, -0.0052332, -0.00215931};
Point(902) = {-0.00322961, -0.0048702, -0.000909099};
Point(903) = {-0.00431289, -0.0053875, 0.0039057};
Point(904) = {-0.00354504, -0.00586575, 0.00595};
Spline(900) = {900:904};
Point(1000) = {-0.00383088, -0.00377508, -0.00595};
Point(1001) = {-0.00347038, -0.00302204, -0.00306704};
Point(1002) = {-0.00380101, -0.00407735, -0.000774192};
Point(1003) = {-0.00328827, -0.00345874, 0.00183378};
Point(1004) = {-0.00391871, -0.00342887, 0.00595};
Spline(1000) = {1000:1004};
Point(1100) = {-0.00343913, -0.0028197, -0.00595};
Point(1101) = {-0.00379849, -0.00197372, -0.00158981};
Point(1102) = {-0.00366006, -0.00253975, 0.00152734};
Point(1103) = {-0.00345858, -0.00177368, 0.00595};
Spline(1100) = {1100:1103};
Point(1200) = {-0.00384908, -3.15084e-05, -0.00595};
Point(1201) = {-0.00330442, -0.00137405, -0.00141683};
Point(1202) = {-0.00371984, -0.0011525, 0.0021762};
Point(1203) = {-0.00399553, -0.000721282, 0.00595};
Spline(1200) = {1200:1203};
Point(1300) = {-0.00361502, 0.00064691, -0.00595};
Point(1301) = {-0.00438976, 0.000741283, -0.00463373};
Point(1302) = {-0.00432634, 0.000308647, -9.32001e-05};
Point(1303) = {-0.00325062, 0.000940879, 0.00278477};
Point(1304) = {-0.0040906, 0.00111575, 0.00443342};
Point(1305) = {-0.00415763, 0.000681599, 0.00595};
Spline(1300) = {1300:1305};
Point(1400) = {-0.00325555, 0.00257161, -0.00595};
Point(1401) = {-0.00367046, 0.00176168, -0.00354901};
Point(1402) = {-0.00417718, 0.00190473, -0.000226313};
Point(1403) = {-0.00304423, 0.00208019, 0.00112492};
Point(1404) = {-0.00438733, 0.002928, 0.00279336};
Point(1405) = {-0.00355016, 0.00255634, 0.00595};
Spline(1400) = {1400:1405};
Point(1500) = {-0.00425839, 0.004035, -0.00595};
Point(1501) = {-0.00383761, 0.00356534, -0.000989189};
Point(1502) = {-0.00303009, 0.00354553, 0.0028538};
Point(1503) = {-0.00310789, 0.00355479, 0.00595};
Spline(1500) = {1500:1503};
Point(1600) = {-0.00320716, 0.00488818, -0.00595};
Point(1601) = {-0.00439378, 0.00488914, -0.00309923};
Point(1602) = {-0.00364348, 0.00505931, 8.74263e-06};
Point(1603) = {-0.00429189, 0.00573471, 0.00595};
Spline(1600) = {1600:1603};
Point(1700) = {-0.00250599, -0.00457541, -0.00595};
Point(1701) = {-0.00295438, -0.00578825, -0.00154466};
Point(1702) = {-0.0028102, -0.00486951, 0.000913934};
Point(1703) = {-0.00292251, -0.00586741, 0.00212477};
Point(1704) = {-0.00211446, -0.00536204, 0.00432538};
Point(1705) = {-0.00212738, -0.0053625, 0.00595};
Spline(1700) = {1700:1705};
Point(1800) = {-0.00263946, -0.00318265, -0.00595};
Point(1801) = {-0.0026939, -0.00349626, -0.00261121};
Point(1802) = {-0.00222277, -0.00326133, 0.000118454};
Point(1803) = {-0.00228804, -0.00348498, 0.00595};
Spline(1800) = {1800:1803};
Point(1900) = {-0.00156185, -0.00284078, -0.00595};
Point(1901) = {-0.00151698, -0.00279318, -0.00469906};
Point(1902) = {-0.00198942, -0.00153953, 0.000634633};
Point(1903) = {-0.00193304, -0.00176326, 0.00595};
Spline(1900) = {1900:1903};
Point(2000) = {-0.00202012, -0.000939396, -0.00595};
Point(2001) = {-0.00167857, -0.00125572, -0.00312214};
Point(2002) = {-0.00289007, -0.000340563, -0.000959881};
Point(2003) = {-0.00240998, -0.00010064, 0.000429416};
Point(2004) = {-0.00256811, -0.000813937, 0.00328443};
Point(2005) = {-0.00292095, -4.55338e-05, 0.00595};
Spline(2000) = {2000:2005};
Point(2100) = {-0.00172887, 0.00122228, -0.00595};
Point(2101) = {-0.00223181, 0.00101876, -0.00113701};
Point(2102) = {-0.00278511, 0.000570533, 0.00329637};
Point(2103) = {-0.00295139, 0.000899125, 0.00595};
Spline(2100) = {2100:2103};
Point(2200) = {-0.00232984, 0.00171971, -0.00595};
Point(2201) = {-0.00294194, 0.0023869, -0.00181016};
Point(2202) = {-0.00199316, 0.00152107, 0.00140636};
Point(2203) = {-0.00258094, 0.00234889, 0.00595};
Spline(2200) = {2200:2203};
Point(2300) = {-0.00164153, 0.00397642, -0.00595};
Point(2301) = {-0.00217031, 0.00363588, -0.00451307};
Point(2302) = {-0.00287636, 0.00361126, -0.00293838};
Point(2303) = {-0.00211275, 0.00414749, 0.00197238};
Point(2304) = {-0.00231436, 0.00340873, 0.00444778};
Point(2305) = {-0.00185924, 0.00440336, 0.00595};
Spline(2300) = {2300:2305};
Point(2400) = {-0.00258376, 0.00463922, -0.00595};
Point(2401) = {-0.00265006, 0.00498949, -0.00355025};
Point(2402) = {-0.00153944, 0.00456027, -0.00165672};
Point(2403) = {-0.00279883, 0.00452278, 0.00065896};
Point(2404) = {-0.00269325, 0.00553206, 0.00264011};
Point(2405) = {-0.00206749, 0.00512679, 0.00391046};
Point(2406) = {-0.00295989, 0.00482804, 0.00595};
Spline(2400) = {2400:2406};
Point(2500) = {-0.000653028, -0.00545791, -0.00595};
Point(2501) = {-0.000158397, -0.00532616, -0.000784722};
Point(2502) = {-0.000652811, -0.00475104, 0.00595};
Spline(2500) = {2500:2502};
Point(2600) = {-0.000609676, -0.00424718, -0.00595};
Point(2601) = {-0.000114301, -0.00397545, -0.00293771};
Point(2602) = {-0.000948189, -0.00392956, 0.00276919};
Point(2603) = {-0.00110752, -0.00407717, 0.00595};
Spline(2600) = {2600:2603};
Point(2700) = {-0.000496366, -0.00194565, -0.00595};
Point(2701) = {-0.000120106, -0.00156623, -0.00297671};
Point(2702) = {-0.00147817, -0.00222329, 0.000126152};
Point(2703) = {-0.00109572, -0.00294584, 0.00365493};
Point(2704) = {-0.000142517, -0.00208707, 0.00595};
Spline(2700) = {2700:2704};
Point(2800) = {-0.000458822, -0.000920721, -0.00595};
Point(2801) = {-8.69688e-05, -0.00064624, -0.00371544};
Point(2802) = {-0.00126753, -0.00141501, -0.00168857};
Point(2803) = {-0.000797221, -0.000238076, 0.00367277};
Point(2804) = {-0.000441844, -0.000185, 0.00595};
Spline(2800) = {2800:2804};
Point(2900) = {-0.000446148, 0.000300058, -0.00595};
Point(2901) = {-0.000327422, 0.000133816, -0.00434547};
Point(2902) = {-0.000109296, 0.00107037, -0.0010348};
Point(2903) = {-0.00127891, 0.000750552, 0.00403112};
Point(2904) = {-0.00126093, 0.000937696, 0.00595};
Spline(2900) = {2900:2904};
Point(3000) = {-0.00133495, 0.00210199, -0.00595};
Point(3001) = {-0.00143323, 0.00187967, -0.00185228};
Point(3002) = {-0.00140681, 0.00287535, 0.0010024};
Point(3003) = {-0.00132761, 0.00295394, 0.00595};
Spline(3000) = {3000:3003};
Point(3100) = {-0.000258515, 0.00441374, -0.00595};
Point(3101) = {-0.0013533, 0.00420184, -0.00225194};
Point(3102) = {-0.00078471, 0.00339265, -7.0391e-05};
Point(3103) = {-2.70302e-05, 0.00435081, 0.00430931};
Point(3104) = {-0.000853551, 0.0038379, 0.00595};
Spline(3100) = {3100:3104};
Point(3200) = {-2.48437e-05, 0.00583798, -0.00595};
Point(3201) = {-0.00117352, 0.00478318, -0.0013668};
Point(3202) = {-0.000359187, 0.00508605, 0.00344099};
Point(3203) = {-0.00101537, 0.00557615, 0.00595};
Spline(3200) = {3200:3203};
Point(3300) = {0.000788539, -0.00529205, -0.00595};
Point(3301) = {0.000857439, -0.00513854, -0.000306914};
Point(3302) = {0.000766762, -0.00451685, 0.00595};
Spline(3300) = {3300:3302};
Point(3400) = {0.000400259, -0.0037256, -0.00595};
Point(3401) = {0.000562719, -0.00302542, -0.000611791};
Point(3402) = {0.0013946, -0.0036917, 0.00465311};
Point(3403) = {0.00110473, -0.00389649, 0.00595};
Spline(3400) = {3400:3403};
Point(3500) = {0.000374718, -0.0025157, -0.00595};
Point(3501) = {0.00116207, -0.00159408, -0.00124331};
Point(3502) = {0.00148345, -0.00151623, 0.00428955};
Point(3503) = {0.00128656, -0.00255597, 0.00595};
Spline(3500) = {3500:3503};
Point(3600) = {0.00121294, -0.00104821, -0.00595};
Point(3601) = {0.00090065, -0.00130073, -0.00153956};
Point(3602) = {0.000540562, -0.000632451, 0.00439628};
Point(3603) = {0.00146898, -0.000663566, 0.00595};
Spline(3600) = {3600:3603};
Point(3700) = {0.000501598, 0.00119277, -0.00595};
Point(3701) = {0.000200448, 0.00126148, -0.00160383};
Point(3702) = {0.00116937, 0.000813323, 0.000524417};
Point(3703) = {0.00127837, 0.000615416, 0.00595};
Spline(3700) = {3700:3703};
Point(3800) = {0.00138153, 0.00281344, -0.00595};
Point(3801) = {9.43732e-05, 0.00185704, -0.00452169};
Point(3802) = {0.00118638, 0.00243828, 0.000489323};
Point(3803) = {0.000567112, 0.00261482, 0.00256565};
Point(3804) = {0.001062, 0.00185511, 0.00595};
Spline(3800) = {3800:3804};
Point(3900) = {0.000331236, 0.00337622, -0.00595};
Point(3901) = {0.000980201, 0.00307605, -0.000204678};
Point(3902) = {0.000858577, 0.00403794, 0.00177581};
Point(3903) = {0.000470807, 0.00359153, 0.00595};
Spline(3900) = {3900:3903};
Point(4000) = {0.000817392, 0.00538518, -0.00595};
Point(4001) = {0.00132981, 0.0045066, -0.00389701};
Point(4002) = {0.00135205, 0.00586501, 0.000200689};
Point(4003) = {0.000413656, 0.00530525, 0.00425933};
Point(4004) = {0.0013465, 0.0047324, 0.00595};
Spline(4000) = {4000:4004};
Point(4100) = {0.00261956, -0.005693, -0.00595};
Point(4101) = {0.00284691, -0.00508661, -0.000586898};
Point(4102) = {0.00226082, -0.00499395, 0.00595};
Spline(4100) = {4100:4102};
Point(4200) = {0.00247574, -0.00437984, -0.00595};
Point(4201) = {0.00259699, -0.00365863, -0.00229685};
Point(4202) = {0.00211325, -0.00349414, -0.000556138};
Point(4203) = {0.00167648, -0.00376944, 0.00457661};
Point(4204) = {0.00159801, -0.00406715, 0.00595};
Spline(4200) = {4200:4204};
Point(4300) = {0.00216617, -0.00192949, -0.00595};
Point(4301) = {0.00151866, -0.00253128, -0.00322112};
Point(4302) = {0.00295924, -0.00230889, -0.000802037};
Point(4303) = {0.00179637, -0.00208221, 0.00394298};
Point(4304) = {0.00297337, -0.00287704, 0.00595};
Spline(4300) = {4300:4304};
Point(4400) = {0.00203463, -0.0014777, -0.00595};
Point(4401) = {0.00283447, -0.00123972, -0.000367238};
Point(4402) = {0.00151492, -0.00111224, 0.00595};
Spline(4400) = {4400:4402};
Point(4500) = {0.00216206, 0.000264236, -0.00595};
Point(4501) = {0.00182047, 0.000416456, -0.0026371};
Point(4502) = {0.0019788, 0.000161837, -0.000681809};
Point(4503) = {0.0021644, 0.00122735, 0.00297537};
Point(4504) = {0.00157426, 0.000140572, 0.00595};
Spline(4500) = {4500:4504};
Point(4600) = {0.00188106, 0.0016598, -0.00595};
Point(4601) = {0.00182959, 0.00248209, -0.00375233};
Point(4602) = {0.0017706, 0.00157276, -5.03741e-06};
Point(4603) = {0.00224633, 0.00162537, 0.00157165};
Point(4604) = {0.00295261, 0.00264806, 0.00595};
Spline(4600) = {4600:4604};
Point(4700) = {0.00297136, 0.00368829, -0.00595};
Point(4701) = {0.00246059, 0.00360927, -0.000882822};
Point(4702) = {0.0022514, 0.00412864, 0.00239804};
Point(4703) = {0.00208266, 0.00351306, 0.0037461};
Point(4704) = {0.00245039, 0.00337994, 0.00595};
Spline(4700) = {4700:4704};
Point(4800) = {0.00195771, 0.00477408, -0.00595};
Point(4801) = {0.00208692, 0.00484393, -0.00468586};
Point(4802) = {0.00222878, 0.00570525, 5.48565e-05};
Point(4803) = {0.00213919, 0.00570178, 0.00595};
Spline(4800) = {4800:4803};
Point(4900) = {0.003847, -0.00521239, -0.00595};
Point(4901) = {0.00357677, -0.0049072, -0.00152001};
Point(4902) = {0.00309521, -0.00473435, 0.00255893};
Point(4903) = {0.00394303, -0.00547245, 0.00595};
Spline(4900) = {4900:4903};
Point(5000) = {0.00382142, -0.00333573, -0.00595};
Point(5001) = {0.00362781, -0.00399091, -0.00422712};
Point(5002) = {0.00381123, -0.00376183, 0.000569281};
Point(5003) = {0.00363015, -0.00407074, 0.00595};
Spline(5000) = {5000:5003};
Point(5100) = {0.00366812, -0.00194554, -0.00595};
Point(5101) = {0.00324872, -0.00296051, -0.000991929};
Point(5102) = {0.00382376, -0.00170518, 0.00408324};
Point(5103) = {0.00328285, -0.00168157, 0.00595};
Spline(5100) = {5100:5103};
Point(5200) = {0.00298883, -0.000714628, -0.00595};
Point(5201) = {0.00397756, -0.00112198, -0.00261225};
Point(5202) = {0.00437418, -0.00133686, 0.00107853};
Point(5203) = {0.00376442, -0.000482689, 0.00595};
Spline(5200) = {5200:5203};
Point(5300) = {0.00347143, 0.000392074, -0.00595};
Point(5301) = {0.00379969, 0.000768643, -0.00431718};
Point(5302) = {0.00416308, 0.000654415, 0.00123439};
Point(5303) = {0.00444474, 0.000143114, 0.00382062};
Point(5304) = {0.00376391, 1.94085e-05, 0.00595};
Spline(5300) = {5300:5304};
Point(5400) = {0.00347904, 0.00204442, -0.00595};
Point(5401) = {0.00388753, 0.00202334, -0.000117357};
Point(5402) = {0.00380426, 0.00267586, 0.00251101};
Point(5403) = {0.00424823, 0.00178863, 0.00595};
Spline(5400) = {5400:5403};
Point(5500) = {0.0030896, 0.00416087, -0.00595};
Point(5501) = {0.00312626, 0.00308886, -0.00181723};
Point(5502) = {0.00349823, 0.00382143, 0.00356128};
Point(5503) = {0.00390771, 0.00436389, 0.00595};
Spline(5500) = {5500:5503};
Point(5600) = {0.00381694, 0.00461954, -0.00595};
Point(5601) = {0.00318195, 0.00535214, -0.00250889};
Point(5602) = {0.00338278, 0.00451611, 0.00295017};
Point(5603) = {0.00398855, 0.00534345, 0.00595};
Spline(5600) = {5600:5603};
Point(5700) = {0.00457575, -0.00482691, -0.00595};
Point(5701) = {0.00474397, -0.00591778, -0.0042411};
Point(5702) = {0.00559171, -0.00461877, 0.000325255};
Point(5703) = {0.00454033, -0.00506808, 0.00595};
Spline(5700) = {5700:5703};
Point(5800) = {0.00460417, -0.00369606, -0.00595};
Point(5801) = {0.00588391, -0.0034551, -0.000905558};
Point(5802) = {0.00459106, -0.00327231, 0.00267542};
Point(5803) = {0.00526163, -0.00360555, 0.00595};
Spline(5800) = {5800:5803};
Point(5900) = {0.00525866, -0.0029166, -0.00595};
Point(5901) = {0.00584818, -0.00296118, -0.00141478};
Point(5902) = {0.00540196, -0.00224231, 0.00411833};
Point(5903) = {0.005591, -0.0018551, 0.00595};
Spline(5900) = {5900:5903};
Point(6000) = {0.00481393, -0.000979384, -0.00595};
Point(6001) = {0.00449548, -0.000506865, -0.00133307};
Point(6002) = {0.00450061, -8.51507e-05, 0.00355722};
Point(6003) = {0.00498978, -0.00047489, 0.00595};
Spline(6000) = {6000:6003};
Point(6100) = {0.00559363, 0.000474667, -0.00595};
Point(6101) = {0.00573764, 0.00100628, -0.00399155};
Point(6102) = {0.00537401, 0.00113787, -0.000693154};
Point(6103) = {0.00458672, 0.000673874, 0.00283993};
Point(6104) = {0.0048676, 0.000574992, 0.00595};
Spline(6100) = {6100:6104};
Point(6200) = {0.00485563, 0.00165854, -0.00595};
Point(6201) = {0.00584523, 0.0015824, -0.000529045};
Point(6202) = {0.00491649, 0.00256199, 0.000967043};
Point(6203) = {0.00501023, 0.00186424, 0.00595};
Spline(6200) = {6200:6203};
Point(6300) = {0.00592223, 0.00334774, -0.00595};
Point(6301) = {0.00542287, 0.00343507, -0.00336572};
Point(6302) = {0.00520041, 0.00374567, 0.00163265};
Point(6303) = {0.00489403, 0.00311876, 0.00331072};
Point(6304) = {0.00472771, 0.00389905, 0.00595};
Spline(6300) = {6300:6304};
Point(6400) = {0.00467739, 0.00562565, -0.00595};
Point(6401) = {0.00588408, 0.00548124, -0.00444841};
Point(6402) = {0.00481148, 0.0057674, 0.000157786};
Point(6403) = {0.00591813, 0.00448922, 0.00421607};
Point(6404) = {0.00563065, 0.00585565, 0.00595};
Spline(6400) = {6400:6404};
Transfinite Line "*" = 2;
Transfinite Line {100} = 5*NS;
Transfinite Line {200} = 4*NS;
Transfinite Line {300} = 6*NS;
Transfinite Line {400} = 4*NS;
Transfinite Line {500} = 5*NS;
Transfinite Line {600} = 5*NS;
Transfinite Line {700} = 4*NS;
Transfinite Line {800} = 5*NS;
Transfinite Line {900} = 5*NS;
Transfinite Line {1000} = 5*NS;
Transfinite Line {1100} = 4*NS;
Transfinite Line {1200} = 4*NS;
Transfinite Line {1300} = 6*NS;
Transfinite Line {1400} = 6*NS;
Transfinite Line {1500} = 4*NS;
Transfinite Line {1600} = 4*NS;
Transfinite Line {1700} = 6*NS;
Transfinite Line {1800} = 4*NS;
Transfinite Line {1900} = 4*NS;
Transfinite Line {2000} = 6*NS;
Transfinite Line {2100} = 4*NS;
Transfinite Line {2200} = 4*NS;
Transfinite Line {2300} = 6*NS;
Transfinite Line {2400} = 7*NS;
Transfinite Line {2500} = 3*NS;
Transfinite Line {2600} = 4*NS;
Transfinite Line {2700} = 5*NS;
Transfinite Line {2800} = 5*NS;
Transfinite Line {2900} = 5*NS;
Transfinite Line {3000} = 4*NS;
Transfinite Line {3100} = 5*NS;
Transfinite Line {3200} = 4*NS;
Transfinite Line {3300} = 3*NS;
Transfinite Line {3400} = 4*NS;
Transfinite Line {3500} = 4*NS;
Transfinite Line {3600} = 4*NS;
Transfinite Line {3700} = 4*NS;
Transfinite Line {3800} = 5*NS;
Transfinite Line {3900} = 4*NS;
Transfinite Line {4000} = 5*NS;
Transfinite Line {4100} = 3*NS;
Transfinite Line {4200} = 5*NS;
Transfinite Line {4300} = 5*NS;
Transfinite Line {4400} = 3*NS;
Transfinite Line {4500} = 5*NS;
Transfinite Line {4600} = 5*NS;
Transfinite Line {4700} = 5*NS;
Transfinite Line {4800} = 4*NS;
Transfinite Line {4900} = 4*NS;
Transfinite Line {5000} = 4*NS;
Transfinite Line {5100} = 4*NS;
Transfinite Line {5200} = 4*NS;
Transfinite Line {5300} = 5*NS;
Transfinite Line {5400} = 4*NS;
Transfinite Line {5500} = 4*NS;
Transfinite Line {5600} = 4*NS;
Transfinite Line {5700} = 4*NS;
Transfinite Line {5800} = 4*NS;
Transfinite Line {5900} = 4*NS;
Transfinite Line {6000} = 4*NS;
Transfinite Line {6100} = 5*NS;
Transfinite Line {6200} = 4*NS;
Transfinite Line {6300} = 5*NS;
Transfinite Line {6400} = 5*NS;
Physical Line(1001) = {100,200,300,400,500,600,700,800,900,1000,1100,1200,1300,1400,1500,1600,1700,1800,1900,2000,2100,2200,2300,2400,2500,2600,2700,2800,2900,3000,3100,3200,3300};
Physical Line(1002) = {3400,3500,3600,3700,3800,3900,4000,4100,4200,4300,4400,4500,4600,4700,4800,4900,5000,5100,5200,5300,5400,5500,5600,5700,5800,5900,6000,6100,6200,6300,6400};
Physical Point(101) = {104,203,300,403,504,604,703,800,900,1004,1103,1203,1305,1400,1503,1600,1705,1800,1903,2000,2100,2203,2300,2400,2502,2600,2700,2800,2900,3003,3104,3200,3302,3403,3503,3603,3700,3800,3900,4004,4100,4204,4300,4402,4504,4600,4700,4800,4903,5000,5103,5203,5304,5403,5500,5600,5703,5800,5900,6003,6104,6200,6300,6404};
Physical Point(102) = {100,200,305,400,500,600,700,804,904,1000,1100,1200,1300,1405,1500,1603,1700,1803,1900,2005,2103,2200,2305,2406,2500,2603,2704,2804,2904,3000,3100,3203,3300,3400,3500,3600,3703,3804,3903,4000,4102,4200,4304,4400,4500,4604,4704,4803,4900,5003,5100,5200,5300,5400,5503,5603,5700,5803,5903,6000,6100,6203,6304,6400};
