$MeshFormat
2.2 0 8
$EndMeshFormat
$Nodes
693
1 10 0 0
2 9.707106781186548 0.7071067811865475 0
3 9 0 0
4 9 1 0
5 8.292893218813452 0.7071067811865477 0
6 8 -1.110223024625157e-16 0
7 8.292893218813452 -0.7071067811865476 0
8 9 -1 0
9 9.707106781186548 -0.7071067811865479 0
10 9.238795325112868 0 3.826834323650898
11 8.31491579260158 0 3.444150891285808
12 8.968197275039769 0.7071067811865475 3.714748941358907
13 8.31491579260158 1 3.444150891285808
14 7.661634310163392 0.7071067811865477 3.173552841212709
15 7.391036260090294 -1.110223024625157e-16 3.061467458920718
16 7.661634310163392 -0.7071067811865476 3.173552841212709
17 8.31491579260158 -1 3.444150891285808
18 8.968197275039769 -0.7071067811865479 3.714748941358907
19 7.071067811865476 0 7.071067811865476
20 6.363961030678927 0 6.363961030678928
21 6.863961030678928 0.7071067811865475 6.863961030678928
22 6.363961030678927 1 6.363961030678928
23 5.863961030678928 0.7071067811865477 5.863961030678928
24 5.65685424949238 -1.110223024625157e-16 5.656854249492381
25 5.863961030678928 -0.7071067811865476 5.863961030678928
26 6.363961030678927 -1 6.363961030678928
27 6.863961030678928 -0.7071067811865479 6.863961030678928
28 3.826834323650898 0 9.238795325112868
29 3.444150891285807 0 8.31491579260158
30 3.714748941358906 0.7071067811865475 8.968197275039769
31 3.444150891285807 1 8.31491579260158
32 3.17355284121271 0.7071067811865477 7.661634310163393
33 3.061467458920717 -1.110223024625157e-16 7.391036260090294
34 3.17355284121271 -0.7071067811865476 7.661634310163393
35 3.444150891285807 -1 8.31491579260158
36 3.714748941358906 -0.7071067811865479 8.968197275039769
37 0 0 10
38 -8.881784197001252e-16 0 8.999999999999998
39 -8.881784197001252e-16 0.7071067811865475 9.707106781186548
40 -8.881784197001252e-16 1 8.999999999999998
41 -4.440892098500626e-16 0.7071067811865477 8.292893218813454
42 -8.881784197001252e-16 -1.110223024625157e-16 8
43 -4.440892098500626e-16 -0.7071067811865476 8.292893218813454
44 -8.881784197001252e-16 -1 8.999999999999998
45 -8.881784197001252e-16 -0.7071067811865479 9.707106781186548
46 9.923879532511286 0.3826834323650898 0
47 9.38268343236509 0.9238795325112868 0
48 8.61731656763491 0.923879532511287 0
49 8.076120467488712 0.3826834323650897 0
50 8.076120467488714 -0.3826834323650899 0
51 8.61731656763491 -0.923879532511287 0
52 9.38268343236509 -0.9238795325112872 0
53 9.923879532511288 -0.3826834323650899 0
54 9.5 0 0
55 9 0.4999999999986929 0
56 8.5 -5.551115123125783e-17 0
57 9 -0.499999999998698 0
58 9.168469183194853 0.3826834323650898 3.797704281879081
59 8.668469183194855 0.9238795325112868 3.590597500692534
60 8.31491579260158 0.4999999999986929 3.444150891285808
61 8.776855558857225 0 3.635492607468353
62 9.969173337331279 0 0.7845909572784494
63 9.876883405951379 0 1.564344650402309
64 9.723699203976766 0 2.334453638559054
65 9.510565162951535 0 3.090169943749474
66 9.67718301056326 0.7071067811865475 0.7616108201855282
67 9.58759618868995 0.7071067811865475 1.518526056403315
68 9.43889864811411 0.7071067811865475 2.26607907452222
69 9.232007158620339 0.7071067811865475 2.999660961598937
70 8.972256003598151 1 0.7061318615506045
71 8.88919506535624 1 1.407910185362078
72 8.751329283579089 1 2.101008274703148
73 8.559508646656381 1 2.781152949374527
74 8.972256003598151 0 0.7061318615506045
75 8.88919506535624 0 1.407910185362078
76 8.751329283579089 0 2.101008274703148
77 8.559508646656381 0 2.781152949374527
78 7.961362402008307 0.923879532511287 3.297704281879082
79 7.461362402008306 0.3826834323650897 3.090597500692534
80 7.852976026345937 -5.551115123125783e-17 3.252809175103263
81 8.267328996633044 0.7071067811865477 0.6506529029156808
82 8.190793942022529 0.7071067811865477 1.297294314320841
83 8.063759919044069 0.7071067811865477 1.935937474884077
84 7.887010134692424 0.7071067811865477 2.562644937150116
85 7.975338669865024 -1.110223024625157e-16 0.6276727658227595
86 7.901506724761102 -1.110223024625157e-16 1.251475720321847
87 7.778959363181412 -1.110223024625157e-16 1.867562910847243
88 7.608452130361228 -1.110223024625157e-16 2.472135954999579
89 7.461362402008308 -0.3826834323650899 3.090597500692534
90 7.961362402008307 -0.923879532511287 3.297704281879082
91 8.31491579260158 -0.499999999998698 3.444150891285808
92 8.267328996633044 -0.7071067811865476 0.6506529029156808
93 8.190793942022529 -0.7071067811865476 1.297294314320841
94 8.063759919044069 -0.7071067811865476 1.935937474884077
95 7.887010134692424 -0.7071067811865476 2.562644937150116
96 8.972256003598151 -1 0.7061318615506045
97 8.88919506535624 -1 1.407910185362078
98 8.751329283579089 -1 2.101008274703148
99 8.559508646656381 -1 2.781152949374527
100 8.668469183194855 -0.9238795325112872 3.590597500692534
101 9.168469183194855 -0.3826834323650899 3.797704281879082
102 9.67718301056326 -0.7071067811865479 0.7616108201855282
103 9.58759618868995 -0.7071067811865479 1.518526056403315
104 9.43889864811411 -0.7071067811865479 2.26607907452222
105 9.232007158620339 -0.7071067811865479 2.999660961598937
106 7.017242513117115 0.3826834323650898 7.017242513117115
107 6.634559080752025 0.9238795325112868 6.634559080752027
108 6.363961030678927 0.4999999999986929 6.363961030678928
109 6.717514421272202 0 6.717514421272202
110 8.910065241883679 0 4.539904997395468
111 8.526401643540924 0 5.224985647159489
112 8.090169943749475 0 5.877852522924732
113 7.60405965600031 0 6.494480483301837
114 8.649095473030361 0.7071067811865475 4.406934258616024
115 8.276669121313622 0.7071067811865475 5.071949360714425
116 7.853214352192209 0.7071067811865475 5.705694208409711
117 7.381341905130764 0.7071067811865475 6.304261553974294
118 8.019058717695311 1 4.085914497655921
119 7.67376147918683 1 4.70248708244354
120 7.281152949374525 1 5.290067270632258
121 6.843653690400277 1 5.845032434971652
122 8.019058717695311 0 4.085914497655921
123 7.67376147918683 0 4.70248708244354
124 7.281152949374525 0 5.290067270632258
125 6.843653690400277 0 5.845032434971652
126 6.093362980605828 0.923879532511287 6.093362980605829
127 5.710679548240739 0.3826834323650897 5.710679548240739
128 6.010407640085654 -5.551115123125783e-17 6.010407640085654
129 7.38902196236026 0.7071067811865477 3.764894736695818
130 7.070853837060039 0.7071067811865477 4.333024804172654
131 6.709091546556841 0.7071067811865477 4.874440332854804
132 6.305965475669792 0.7071067811865477 5.38580331596901
133 7.128052193506943 -1.110223024625157e-16 3.631923997916374
134 6.821121314832738 -1.110223024625157e-16 4.179988517727591
135 6.472135954999579 -1.110223024625157e-16 4.702282018339785
136 6.083247724800247 -1.110223024625157e-16 5.195584386641469
137 5.710679548240741 -0.3826834323650899 5.71067954824074
138 6.093362980605828 -0.923879532511287 6.093362980605829
139 6.363961030678927 -0.499999999998698 6.363961030678928
140 7.38902196236026 -0.7071067811865476 3.764894736695818
141 7.070853837060039 -0.7071067811865476 4.333024804172654
142 6.709091546556841 -0.7071067811865476 4.874440332854804
143 6.305965475669792 -0.7071067811865476 5.38580331596901
144 8.019058717695311 -1 4.085914497655921
145 7.67376147918683 -1 4.70248708244354
146 7.281152949374525 -1 5.290067270632258
147 6.843653690400277 -1 5.845032434971652
148 6.634559080752025 -0.9238795325112872 6.634559080752027
149 7.017242513117116 -0.3826834323650899 7.017242513117116
150 8.649095473030361 -0.7071067811865479 4.406934258616024
151 8.276669121313622 -0.7071067811865479 5.071949360714425
152 7.853214352192209 -0.7071067811865479 5.705694208409711
153 7.381341905130764 -0.7071067811865479 6.304261553974294
154 3.79770428187908 0.3826834323650898 9.168469183194853
155 3.590597500692533 0.9238795325112868 8.668469183194855
156 3.444150891285807 0.4999999999986929 8.31491579260158
157 3.635492607468352 0 8.776855558857225
158 6.494480483301837 0 7.60405965600031
159 5.877852522924732 0 8.090169943749475
160 5.224985647159489 0 8.526401643540922
161 4.539904997395467 0 8.910065241883679
162 6.304261553974294 0.7071067811865475 7.381341905130764
163 5.705694208409712 0.7071067811865475 7.853214352192211
164 5.071949360714425 0.7071067811865475 8.276669121313621
165 4.406934258616024 0.7071067811865475 8.649095473030361
166 5.845032434971651 1 6.843653690400278
167 5.290067270632257 1 7.281152949374526
168 4.702487082443539 1 7.67376147918683
169 4.08591449765592 1 8.019058717695311
170 5.845032434971651 0 6.843653690400278
171 5.290067270632257 0 7.281152949374526
172 4.702487082443539 0 7.67376147918683
173 4.08591449765592 0 8.019058717695311
174 3.29770428187908 0.923879532511287 7.961362402008307
175 3.090597500692534 0.3826834323650897 7.461362402008307
176 3.252809175103263 -5.551115123125783e-17 7.852976026345937
177 5.385803315969011 0.7071067811865477 6.305965475669791
178 4.874440332854805 0.7071067811865477 6.709091546556843
179 4.333024804172654 0.7071067811865477 7.070853837060039
180 3.764894736695818 0.7071067811865477 7.38902196236026
181 5.195584386641468 -1.110223024625157e-16 6.083247724800248
182 4.702282018339785 -1.110223024625157e-16 6.47213595499958
183 4.17998851772759 -1.110223024625157e-16 6.821121314832738
184 3.631923997916374 -1.110223024625157e-16 7.128052193506943
185 3.090597500692535 -0.3826834323650899 7.461362402008308
186 3.29770428187908 -0.923879532511287 7.961362402008307
187 3.444150891285807 -0.499999999998698 8.31491579260158
188 5.385803315969011 -0.7071067811865476 6.305965475669791
189 4.874440332854805 -0.7071067811865476 6.709091546556843
190 4.333024804172654 -0.7071067811865476 7.070853837060039
191 3.764894736695818 -0.7071067811865476 7.38902196236026
192 5.845032434971651 -1 6.843653690400278
193 5.290067270632257 -1 7.281152949374526
194 4.702487082443539 -1 7.67376147918683
195 4.08591449765592 -1 8.019058717695311
196 3.590597500692533 -0.9238795325112872 8.668469183194855
197 3.797704281879081 -0.3826834323650899 9.168469183194855
198 6.304261553974294 -0.7071067811865479 7.381341905130764
199 5.705694208409712 -0.7071067811865479 7.853214352192211
200 5.071949360714425 -0.7071067811865479 8.276669121313621
201 4.406934258616024 -0.7071067811865479 8.649095473030361
202 -1.332267629550188e-15 0.3826834323650898 9.923879532511286
203 -1.332267629550188e-15 0.9238795325112868 9.382683432365088
204 -8.881784197001252e-16 0.4999999999986929 8.999999999999998
205 -8.881784197001252e-16 0 9.5
206 3.090169943749475 0 9.510565162951536
207 2.334453638559054 0 9.723699203976766
208 1.564344650402309 0 9.876883405951377
209 0.7845909572784495 0 9.969173337331281
210 2.999660961598937 0.7071067811865475 9.232007158620338
211 2.26607907452222 0.7071067811865475 9.43889864811411
212 1.518526056403315 0.7071067811865475 9.587596188689949
213 0.7616108201855276 0.7071067811865475 9.677183010563258
214 2.781152949374526 1 8.559508646656381
215 2.101008274703148 1 8.751329283579089
216 1.407910185362077 1 8.889195065356237
217 0.7061318615506043 1 8.972256003598151
218 2.781152949374526 0 8.559508646656381
219 2.101008274703148 0 8.751329283579089
220 1.407910185362077 0 8.889195065356237
221 0.7061318615506043 0 8.972256003598151
222 -1.332267629550188e-15 0.923879532511287 8.617316567634909
223 -4.440892098500626e-16 0.3826834323650897 8.076120467488714
224 -4.440892098500626e-16 -5.551115123125783e-17 8.5
225 2.562644937150116 0.7071067811865477 7.887010134692425
226 1.935937474884077 0.7071067811865477 8.06375991904407
227 1.297294314320841 0.7071067811865477 8.190793942022529
228 0.6506529029156809 0.7071067811865477 8.267328996633045
229 2.472135954999579 -1.110223024625157e-16 7.608452130361228
230 1.867562910847243 -1.110223024625157e-16 7.778959363181413
231 1.251475720321846 -1.110223024625157e-16 7.901506724761101
232 0.627672765822759 -1.110223024625157e-16 7.975338669865024
233 8.881784197001252e-16 -0.3826834323650899 8.076120467488714
234 -1.332267629550188e-15 -0.923879532511287 8.617316567634909
235 -8.881784197001252e-16 -0.499999999998698 8.999999999999998
236 2.562644937150116 -0.7071067811865476 7.887010134692425
237 1.935937474884077 -0.7071067811865476 8.06375991904407
238 1.297294314320841 -0.7071067811865476 8.190793942022529
239 0.6506529029156809 -0.7071067811865476 8.267328996633045
240 2.781152949374526 -1 8.559508646656381
241 2.101008274703148 -1 8.751329283579089
242 1.407910185362077 -1 8.889195065356237
243 0.7061318615506043 -1 8.972256003598151
244 -1.332267629550188e-15 -0.9238795325112872 9.382683432365088
245 -4.440892098500626e-16 -0.3826834323650899 9.923879532511288
246 2.999660961598937 -0.7071067811865479 9.232007158620338
247 2.26607907452222 -0.7071067811865479 9.43889864811411
248 1.518526056403315 -0.7071067811865479 9.587596188689949
249 0.7616108201855276 -0.7071067811865479 9.677183010563258
250 9.622423284048518 0.3238906006906007 0
251 9.327035582933359 0.6174794857310791 0
252 9.289891773396374 0.2882740172840745 0
253 8.377576715951482 0.3238906006906007 0
254 8.672964417066641 0.6174794857310791 0
255 8.710108226603626 0.2882740172840745 0
256 8.377576715951482 -0.3238906006906015 0
257 8.672964417066641 -0.6174794857310807 0
258 8.710108226603626 -0.288274017284076 0
259 9.622423284048518 -0.3238906006906017 0
260 9.327035582933359 -0.6174794857310807 0
261 9.289891773396374 -0.288274017284076 0
262 9.893287523839911 0.3826834323650898 0.7786186142329041
263 9.801700107732124 0.3826834323650898 1.5524367857921
264 9.649681951064132 0.3826834323650898 2.31668366832927
265 9.43817029632296 0.3826834323650898 3.066647425675696
266 9.353759750655399 0.9238795325112868 0.7361568576039973
267 9.267167029642167 0.9238795325112868 1.46777506338387
268 9.123439142245442 0.9238795325112868 2.190343947813244
269 8.923462218685396 0.9238795325112868 2.899408633441075
270 8.972256003598151 0.4999999999986929 0.7061318615506045
271 8.88919506535624 0.4999999999986929 1.407910185362078
272 8.751329283579089 0.4999999999986929 2.101008274703148
273 8.559508646656381 0.4999999999986929 2.781152949374527
274 9.470714670464716 0 0.745361409414527
275 9.383039235653809 0 1.486127417882193
276 9.237514243777927 0 2.217730956631101
277 9.035036904803958 0 2.935661446562
278 8.889959925292464 0.3238906006906007 3.682341970009446
279 8.617057274076608 0.6174794857310791 3.569301990668264
280 8.582740868685891 0.2882740172840745 3.555087670143535
281 8.590752256540904 0.923879532511287 0.6761068654972117
282 8.511223101070312 0.923879532511287 1.348045307340286
283 8.379219424912737 0.923879532511287 2.011672601593053
284 8.195555074627368 0.923879532511287 2.662897265307978
285 8.051224483356389 0.3826834323650897 0.6336451088683047
286 7.976690022980354 0.3826834323650897 1.263383584932056
287 7.852976616094045 0.3826834323650897 1.885332881077027
288 7.680846996989802 0.3826834323650897 2.495658473073357
289 8.473797336731588 -5.551115123125783e-17 0.6669023136866821
290 8.395350895058671 -5.551115123125783e-17 1.329692952841962
291 8.26514432338025 -5.551115123125783e-17 1.984285592775196
292 8.083980388508804 -5.551115123125783e-17 2.626644452187053
293 7.739871659910697 0.3238906006906007 3.20595981256217
294 8.012774311126552 0.6174794857310791 3.318999791903352
295 8.047090716517271 0.2882740172840745 3.333214112428081
296 8.051224483356391 -0.3826834323650899 0.6336451088683048
297 7.976690022980356 -0.3826834323650899 1.263383584932056
298 7.852976616094047 -0.3826834323650899 1.885332881077028
299 7.680846996989803 -0.3826834323650899 2.495658473073358
300 8.590752256540904 -0.923879532511287 0.6761068654972117
301 8.511223101070312 -0.923879532511287 1.348045307340286
302 8.379219424912737 -0.923879532511287 2.011672601593053
303 8.195555074627368 -0.923879532511287 2.662897265307978
304 8.972256003598151 -0.499999999998698 0.7061318615506045
305 8.88919506535624 -0.499999999998698 1.407910185362078
306 8.751329283579089 -0.499999999998698 2.101008274703148
307 8.559508646656381 -0.499999999998698 2.781152949374527
308 7.739871659910697 -0.3238906006906015 3.20595981256217
309 8.012774311126552 -0.6174794857310807 3.318999791903352
310 8.047090716517271 -0.288274017284076 3.333214112428081
311 9.353759750655399 -0.9238795325112872 0.7361568576039973
312 9.267167029642167 -0.9238795325112872 1.46777506338387
313 9.123439142245442 -0.9238795325112872 2.190343947813244
314 8.923462218685396 -0.9238795325112872 2.899408633441075
315 9.893287523839913 -0.3826834323650899 0.7786186142329042
316 9.801700107732126 -0.3826834323650899 1.5524367857921
317 9.649681951064133 -0.3826834323650899 2.31668366832927
318 9.438170296322962 -0.3826834323650899 3.066647425675696
319 8.889959925292464 -0.3238906006906017 3.682341970009446
320 8.617057274076608 -0.6174794857310807 3.569301990668264
321 8.582740868685891 -0.288274017284076 3.555087670143535
322 8.842241408726965 0.3826834323650898 4.505347028319858
323 8.461498275630634 0.3826834323650898 5.185212812151129
324 8.028587191931338 0.3826834323650898 5.833110034737256
325 7.546177198417626 0.3826834323650898 6.44504419425331
326 8.360032152631403 0.9238795325112868 4.259649140357393
327 8.000052743854189 0.9238795325112868 4.902438626594872
328 7.59075034962362 0.9238795325112868 5.515002948473122
329 7.134648455306988 0.9238795325112868 6.093565443249457
330 8.019058717695311 0.4999999999986929 4.085914497655921
331 7.67376147918683 0.4999999999986929 4.70248708244354
332 7.281152949374525 0.4999999999986929 5.290067270632258
333 6.843653690400277 0.4999999999986929 5.845032434971652
334 8.464561979789494 0 4.312909747525695
335 8.100081561363877 0 4.963736364801514
336 7.685661446562 0 5.583959896778495
337 7.223856673200294 0 6.169756459136745
338 6.804080755598035 0.3238906006906007 6.804080755598035
339 6.595210109060401 0.6174794857310791 6.595210109060401
340 6.568945469457697 0.2882740172840745 6.568945469457698
341 7.678085282759217 0.923879532511287 3.912179854954449
342 7.347470214519472 0.923879532511287 4.502535538292207
343 6.971555549125433 0.923879532511287 5.065131592791394
344 6.552658925493567 0.923879532511287 5.59649942669385
345 7.195876026663655 0.3826834323650897 3.666481966991983
346 6.886024682743024 0.3826834323650897 4.219761352735951
347 6.533718706817713 0.3826834323650897 4.747024506527259
348 6.141130182382927 0.3826834323650897 5.245020675689995
349 7.573555455601126 -5.551115123125783e-17 3.858919247786148
350 7.247441397009784 -5.551115123125783e-17 4.441237800085565
351 6.876644452187053 -5.551115123125783e-17 4.996174644486022
352 6.463450707600262 -5.551115123125783e-17 5.52030841080656
353 5.92384130575982 0.3238906006906007 5.92384130575982
354 6.132711952297453 0.6174794857310791 6.132711952297454
355 6.158976591900157 0.2882740172840745 6.158976591900158
356 7.195876026663656 -0.3826834323650899 3.666481966991983
357 6.886024682743026 -0.3826834323650899 4.219761352735951
358 6.533718706817715 -0.3826834323650899 4.747024506527259
359 6.141130182382929 -0.3826834323650899 5.245020675689995
360 7.678085282759217 -0.923879532511287 3.912179854954449
361 7.347470214519472 -0.923879532511287 4.502535538292207
362 6.971555549125433 -0.923879532511287 5.065131592791394
363 6.552658925493567 -0.923879532511287 5.59649942669385
364 8.019058717695311 -0.499999999998698 4.085914497655921
365 7.67376147918683 -0.499999999998698 4.70248708244354
366 7.281152949374525 -0.499999999998698 5.290067270632258
367 6.843653690400277 -0.499999999998698 5.845032434971652
368 5.92384130575982 -0.3238906006906015 5.92384130575982
369 6.132711952297453 -0.6174794857310807 6.132711952297454
370 6.158976591900157 -0.288274017284076 6.158976591900158
371 8.360032152631403 -0.9238795325112872 4.259649140357393
372 8.000052743854189 -0.9238795325112872 4.902438626594872
373 7.59075034962362 -0.9238795325112872 5.515002948473122
374 7.134648455306988 -0.9238795325112872 6.093565443249457
375 8.842241408726967 -0.3826834323650899 4.50534702831986
376 8.461498275630635 -0.3826834323650899 5.185212812151129
377 8.02858719193134 -0.3826834323650899 5.833110034737257
378 7.546177198417628 -0.3826834323650899 6.445044194253311
379 6.804080755598035 -0.3238906006906017 6.804080755598035
380 6.595210109060401 -0.6174794857310807 6.595210109060401
381 6.568945469457697 -0.288274017284076 6.568945469457698
382 6.44504419425331 0.3826834323650898 7.546177198417628
383 5.833110034737256 0.3826834323650898 8.02858719193134
384 5.185212812151127 0.3826834323650898 8.461498275630634
385 4.505347028319857 0.3826834323650898 8.842241408726965
386 6.093565443249455 0.9238795325112868 7.134648455306989
387 5.515002948473121 0.9238795325112868 7.590750349623621
388 4.90243862659487 0.9238795325112868 8.000052743854187
389 4.259649140357392 0.9238795325112868 8.360032152631403
390 5.845032434971651 0.4999999999986929 6.843653690400278
391 5.290067270632257 0.4999999999986929 7.281152949374526
392 4.702487082443539 0.4999999999986929 7.67376147918683
393 4.08591449765592 0.4999999999986929 8.019058717695311
394 6.169756459136745 0 7.223856673200295
395 5.583959896778495 0 7.685661446562002
396 4.963736364801514 0 8.100081561363876
397 4.312909747525694 0 8.464561979789494
398 3.682341970009446 0.3238906006906007 8.889959925292464
399 3.569301990668263 0.6174794857310791 8.617057274076608
400 3.555087670143534 0.2882740172840745 8.582740868685891
401 5.596499426693849 0.923879532511287 6.552658925493569
402 5.065131592791394 0.923879532511287 6.971555549125434
403 4.502535538292206 0.923879532511287 7.347470214519472
404 3.912179854954448 0.923879532511287 7.678085282759217
405 5.245020675689995 0.3826834323650897 6.141130182382927
406 4.747024506527259 0.3826834323650897 6.533718706817714
407 4.21976135273595 0.3826834323650897 6.886024682743023
408 3.666481966991983 0.3826834323650897 7.195876026663655
409 5.52030841080656 -5.551115123125783e-17 6.463450707600263
410 4.996174644486022 -5.551115123125783e-17 6.876644452187053
411 4.441237800085565 -5.551115123125783e-17 7.247441397009784
412 3.858919247786147 -5.551115123125783e-17 7.573555455601126
413 3.20595981256217 0.3238906006906007 7.739871659910697
414 3.318999791903351 0.6174794857310791 8.012774311126552
415 3.33321411242808 0.2882740172840745 8.047090716517271
416 5.245020675689997 -0.3826834323650899 6.141130182382929
417 4.747024506527261 -0.3826834323650899 6.533718706817715
418 4.219761352735951 -0.3826834323650899 6.886024682743025
419 3.666481966991984 -0.3826834323650899 7.195876026663655
420 5.596499426693849 -0.923879532511287 6.552658925493569
421 5.065131592791394 -0.923879532511287 6.971555549125434
422 4.502535538292206 -0.923879532511287 7.347470214519472
423 3.912179854954448 -0.923879532511287 7.678085282759217
424 5.845032434971651 -0.499999999998698 6.843653690400278
425 5.290067270632257 -0.499999999998698 7.281152949374526
426 4.702487082443539 -0.499999999998698 7.67376147918683
427 4.08591449765592 -0.499999999998698 8.019058717695311
428 3.20595981256217 -0.3238906006906015 7.739871659910697
429 3.318999791903351 -0.6174794857310807 8.012774311126552
430 3.33321411242808 -0.288274017284076 8.047090716517271
431 6.093565443249455 -0.9238795325112872 7.134648455306989
432 5.515002948473121 -0.9238795325112872 7.590750349623621
433 4.90243862659487 -0.9238795325112872 8.000052743854187
434 4.259649140357392 -0.9238795325112872 8.360032152631403
435 6.445044194253311 -0.3826834323650899 7.546177198417629
436 5.833110034737258 -0.3826834323650899 8.02858719193134
437 5.185212812151129 -0.3826834323650899 8.461498275630635
438 4.505347028319859 -0.3826834323650899 8.842241408726967
439 3.682341970009446 -0.3238906006906017 8.889959925292464
440 3.569301990668263 -0.6174794857310807 8.617057274076608
441 3.555087670143534 -0.288274017284076 8.582740868685891
442 3.066647425675694 0.3826834323650898 9.43817029632296
443 2.316683668329269 0.3826834323650898 9.64968195106413
444 1.552436785792098 0.3826834323650898 9.801700107732122
445 0.778618614232903 0.3826834323650898 9.893287523839909
446 2.899408633441074 0.9238795325112868 8.923462218685396
447 2.190343947813242 0.9238795325112868 9.123439142245443
448 1.467775063383869 0.9238795325112868 9.267167029642165
449 0.7361568576039961 0.9238795325112868 9.353759750655398
450 2.781152949374526 0.4999999999986929 8.559508646656381
451 2.101008274703148 0.4999999999986929 8.751329283579089
452 1.407910185362077 0.4999999999986929 8.889195065356237
453 0.7061318615506043 0.4999999999986929 8.972256003598151
454 2.935661446562 0 9.03503690480396
455 2.217730956631101 0 9.237514243777929
456 1.486127417882193 0 9.383039235653808
457 0.7453614094145262 0 9.470714670464716
458 0 0.3238906006906007 9.622423284048518
459 -4.440892098500626e-16 0.6174794857310791 9.327035582933357
460 -8.881784197001252e-16 0.2882740172840745 9.289891773396374
461 2.662897265307977 0.923879532511287 8.195555074627368
462 2.011672601593053 0.923879532511287 8.379219424912737
463 1.348045307340285 0.923879532511287 8.511223101070311
464 0.6761068654972107 0.923879532511287 8.590752256540904
465 2.495658473073357 0.3826834323650897 7.680846996989803
466 1.885332881077028 0.3826834323650897 7.852976616094047
467 1.263383584932056 0.3826834323650897 7.976690022980355
468 0.6336451088683046 0.3826834323650897 8.051224483356391
469 2.626644452187053 -5.551115123125783e-17 8.083980388508804
470 1.984285592775196 -5.551115123125783e-17 8.265144323380252
471 1.329692952841962 -5.551115123125783e-17 8.395350895058669
472 0.6669023136866818 -5.551115123125783e-17 8.473797336731586
473 -4.440892098500626e-16 0.3238906006906007 8.377576715951482
474 -1.332267629550188e-15 0.6174794857310791 8.672964417066639
475 -1.332267629550188e-15 0.2882740172840745 8.710108226603625
476 2.495658473073358 -0.3826834323650899 7.680846996989803
477 1.885332881077029 -0.3826834323650899 7.852976616094049
478 1.263383584932057 -0.3826834323650899 7.976690022980356
479 0.6336451088683055 -0.3826834323650899 8.051224483356391
480 2.662897265307977 -0.923879532511287 8.195555074627368
481 2.011672601593053 -0.923879532511287 8.379219424912737
482 1.348045307340285 -0.923879532511287 8.511223101070311
483 0.6761068654972107 -0.923879532511287 8.590752256540904
484 2.781152949374526 -0.499999999998698 8.559508646656381
485 2.101008274703148 -0.499999999998698 8.751329283579089
486 1.407910185362077 -0.499999999998698 8.889195065356237
487 0.7061318615506043 -0.499999999998698 8.972256003598151
488 -4.440892098500626e-16 -0.3238906006906015 8.377576715951482
489 -1.332267629550188e-15 -0.6174794857310807 8.672964417066639
490 -1.332267629550188e-15 -0.288274017284076 8.710108226603625
491 2.899408633441074 -0.9238795325112872 8.923462218685396
492 2.190343947813242 -0.9238795325112872 9.123439142245443
493 1.467775063383869 -0.9238795325112872 9.267167029642165
494 0.7361568576039961 -0.9238795325112872 9.353759750655398
495 3.066647425675696 -0.3826834323650899 9.438170296322962
496 2.31668366832927 -0.3826834323650899 9.649681951064132
497 1.552436785792099 -0.3826834323650899 9.801700107732124
498 0.7786186142329039 -0.3826834323650899 9.893287523839913
499 0 -0.3238906006906017 9.622423284048518
500 -4.440892098500626e-16 -0.6174794857310807 9.327035582933357
501 -8.881784197001252e-16 -0.288274017284076 9.289891773396374
502 9.592760564385218 0.3238906006906007 0.7549666295770068
503 9.503955285925896 0.3238906006906007 1.505278638830791
504 9.356554962743006 0.3238906006906007 2.246310104720242
505 9.151468366844554 0.3238906006906007 2.973492321840184
506 9.298283444971934 0.6174794857310791 0.7317907776583845
507 9.212204297579254 0.6174794857310791 1.459069821827378
508 9.069328847323208 0.6174794857310791 2.177353215354854
509 8.870537968865538 0.6174794857310791 2.882212502266252
510 9.261254137403633 0.2882740172840745 0.7288765079502253
511 9.175517789974286 0.2882740172840745 1.453259249852903
512 9.033211324200462 0.2882740172840745 2.168682165222499
513 8.835212106765361 0.2882740172840745 2.870734433883497
514 8.351751442811086 0.3238906006906007 0.6572970935242022
515 8.274434844786583 0.3238906006906007 1.310541731893364
516 8.146103604415172 0.3238906006906007 1.955706444686055
517 7.96754892646821 0.3238906006906007 2.58881357690887
518 8.646228562224369 0.6174794857310791 0.6804729454428246
519 8.566185833133227 0.6174794857310791 1.356750548896778
520 8.433329719834971 0.6174794857310791 2.024663334051442
521 8.248479324447226 0.6174794857310791 2.680093396482801
522 8.683257869792671 0.2882740172840745 0.6833872151509837
523 8.602872340738195 0.2882740172840745 1.362561120871252
524 8.469447242957717 0.2882740172840745 2.033334384183799
525 8.283805186547402 0.2882740172840745 2.691571464865556
526 8.351751442811086 -0.3238906006906015 0.6572970935242022
527 8.274434844786583 -0.3238906006906015 1.310541731893364
528 8.146103604415172 -0.3238906006906015 1.955706444686055
529 7.96754892646821 -0.3238906006906015 2.58881357690887
530 8.646228562224369 -0.6174794857310807 0.6804729454428246
531 8.566185833133227 -0.6174794857310807 1.356750548896778
532 8.433329719834971 -0.6174794857310807 2.024663334051442
533 8.248479324447226 -0.6174794857310807 2.680093396482801
534 8.683257869792671 -0.288274017284076 0.6833872151509837
535 8.602872340738195 -0.288274017284076 1.362561120871252
536 8.469447242957717 -0.288274017284076 2.033334384183799
537 8.283805186547402 -0.288274017284076 2.691571464865556
538 9.592760564385218 -0.3238906006906017 0.7549666295770068
539 9.503955285925896 -0.3238906006906017 1.505278638830791
540 9.356554962743006 -0.3238906006906017 2.246310104720242
541 9.151468366844554 -0.3238906006906017 2.973492321840184
542 9.298283444971934 -0.6174794857310807 0.7317907776583845
543 9.212204297579254 -0.6174794857310807 1.459069821827378
544 9.069328847323208 -0.6174794857310807 2.177353215354854
545 8.870537968865538 -0.6174794857310807 2.882212502266252
546 9.261254137403633 -0.288274017284076 0.7288765079502253
547 9.175517789974286 -0.288274017284076 1.453259249852903
548 9.033211324200462 -0.288274017284076 2.168682165222499
549 8.835212106765361 -0.288274017284076 2.870734433883497
550 8.573641924589289 0.3238906006906007 4.368488755430638
551 8.204464570395771 0.3238906006906007 5.027702355004678
552 7.784703963864441 0.3238906006906007 5.655918497679425
553 7.316948068719132 0.3238906006906007 6.249264022032225
554 8.310449555730679 0.6174794857310791 4.23438554538445
555 7.952605152368765 0.6174794857310791 4.873362705137263
556 7.54573029373293 0.6174794857310791 5.482293963255358
557 7.092333498626287 0.6174794857310791 6.057425056042246
558 8.277354179100016 0.2882740172840745 4.217522608730524
559 7.920934848500414 0.2882740172840745 4.853955117966106
560 7.515680320581684 0.2882740172840745 5.460461379795558
561 7.064089124269253 0.2882740172840745 6.033302081430904
562 7.464475510801332 0.3238906006906007 3.803340239881205
563 7.143058387977889 0.3238906006906007 4.377271809882402
564 6.777601934884611 0.3238906006906007 4.924216043585091
565 6.370359312081423 0.3238906006906007 5.440800847911079
566 7.727667879659942 0.6174794857310791 3.937443449927392
567 7.394917806004894 0.6174794857310791 4.531611459749817
568 7.01657560501612 0.6174794857310791 5.097840578009158
569 6.594973882174267 0.6174794857310791 5.632639813901059
570 7.760763256290606 0.2882740172840745 3.954306386581318
571 7.426588109873247 0.2882740172840745 4.551019046920974
572 7.046625578167369 0.2882740172840745 5.119673161468958
573 6.623218256531303 0.2882740172840745 5.656762788512402
574 7.464475510801332 -0.3238906006906015 3.803340239881205
575 7.143058387977889 -0.3238906006906015 4.377271809882402
576 6.777601934884611 -0.3238906006906015 4.924216043585091
577 6.370359312081423 -0.3238906006906015 5.440800847911079
578 7.727667879659942 -0.6174794857310807 3.937443449927392
579 7.394917806004894 -0.6174794857310807 4.531611459749817
580 7.01657560501612 -0.6174794857310807 5.097840578009158
581 6.594973882174267 -0.6174794857310807 5.632639813901059
582 7.760763256290606 -0.288274017284076 3.954306386581318
583 7.426588109873247 -0.288274017284076 4.551019046920974
584 7.046625578167369 -0.288274017284076 5.119673161468958
585 6.623218256531303 -0.288274017284076 5.656762788512402
586 8.573641924589289 -0.3238906006906017 4.368488755430638
587 8.204464570395771 -0.3238906006906017 5.027702355004678
588 7.784703963864441 -0.3238906006906017 5.655918497679425
589 7.316948068719132 -0.3238906006906017 6.249264022032225
590 8.310449555730679 -0.6174794857310807 4.23438554538445
591 7.952605152368765 -0.6174794857310807 4.873362705137263
592 7.54573029373293 -0.6174794857310807 5.482293963255358
593 7.092333498626287 -0.6174794857310807 6.057425056042246
594 8.277354179100016 -0.288274017284076 4.217522608730524
595 7.920934848500414 -0.288274017284076 4.853955117966106
596 7.515680320581684 -0.288274017284076 5.460461379795558
597 7.064089124269253 -0.288274017284076 6.033302081430904
598 6.249264022032225 0.3238906006906007 7.316948068719134
599 5.655918497679425 0.3238906006906007 7.784703963864442
600 5.027702355004677 0.3238906006906007 8.204464570395771
601 4.368488755430636 0.3238906006906007 8.573641924589289
602 6.057425056042246 0.6174794857310791 7.092333498626289
603 5.482293963255358 0.6174794857310791 7.545730293732932
604 4.873362705137263 0.6174794857310791 7.952605152368765
605 4.23438554538445 0.6174794857310791 8.310449555730678
606 6.033302081430903 0.2882740172840745 7.064089124269254
607 5.460461379795558 0.2882740172840745 7.515680320581685
608 4.853955117966105 0.2882740172840745 7.920934848500413
609 4.217522608730524 0.2882740172840745 8.277354179100016
610 5.44080084791108 0.3238906006906007 6.370359312081423
611 4.924216043585091 0.3238906006906007 6.777601934884611
612 4.377271809882401 0.3238906006906007 7.143058387977888
613 3.803340239881205 0.3238906006906007 7.464475510801332
614 5.632639813901058 0.6174794857310791 6.594973882174268
615 5.097840578009158 0.6174794857310791 7.016575605016122
616 4.531611459749815 0.6174794857310791 7.394917806004893
617 3.93744344992739 0.6174794857310791 7.727667879659942
618 5.656762788512402 0.2882740172840745 6.623218256531304
619 5.119673161468958 0.2882740172840745 7.04662557816737
620 4.551019046920973 0.2882740172840745 7.426588109873247
621 3.954306386581318 0.2882740172840745 7.760763256290605
622 5.44080084791108 -0.3238906006906015 6.370359312081423
623 4.924216043585091 -0.3238906006906015 6.777601934884611
624 4.377271809882401 -0.3238906006906015 7.143058387977888
625 3.803340239881205 -0.3238906006906015 7.464475510801332
626 5.632639813901058 -0.6174794857310807 6.594973882174268
627 5.097840578009158 -0.6174794857310807 7.016575605016122
628 4.531611459749815 -0.6174794857310807 7.394917806004893
629 3.93744344992739 -0.6174794857310807 7.727667879659942
630 5.656762788512402 -0.288274017284076 6.623218256531304
631 5.119673161468958 -0.288274017284076 7.04662557816737
632 4.551019046920973 -0.288274017284076 7.426588109873247
633 3.954306386581318 -0.288274017284076 7.760763256290605
634 6.249264022032225 -0.3238906006906017 7.316948068719134
635 5.655918497679425 -0.3238906006906017 7.784703963864442
636 5.027702355004677 -0.3238906006906017 8.204464570395771
637 4.368488755430636 -0.3238906006906017 8.573641924589289
638 6.057425056042246 -0.6174794857310807 7.092333498626289
639 5.482293963255358 -0.6174794857310807 7.545730293732932
640 4.873362705137263 -0.6174794857310807 7.952605152368765
641 4.23438554538445 -0.6174794857310807 8.310449555730678
642 6.033302081430903 -0.288274017284076 7.064089124269254
643 5.460461379795558 -0.288274017284076 7.515680320581685
644 4.853955117966105 -0.288274017284076 7.920934848500413
645 4.217522608730524 -0.288274017284076 8.277354179100016
646 2.973492321840184 0.3238906006906007 9.151468366844554
647 2.246310104720243 0.3238906006906007 9.356554962743008
648 1.505278638830791 0.3238906006906007 9.503955285925894
649 0.754966629577007 0.3238906006906007 9.592760564385216
650 2.882212502266251 0.6174794857310791 8.870537968865536
651 2.177353215354854 0.6174794857310791 9.069328847323206
652 1.459069821827378 0.6174794857310791 9.212204297579252
653 0.7317907776583841 0.6174794857310791 9.298283444971934
654 2.870734433883497 0.2882740172840745 8.835212106765361
655 2.168682165222498 0.2882740172840745 9.033211324200463
656 1.453259249852903 0.2882740172840745 9.175517789974284
657 0.7288765079502246 0.2882740172840745 9.261254137403633
658 2.588813576908869 0.3238906006906007 7.96754892646821
659 1.955706444686055 0.3238906006906007 8.146103604415172
660 1.310541731893364 0.3238906006906007 8.274434844786583
661 0.657297093524202 0.3238906006906007 8.351751442811086
662 2.6800933964828 0.6174794857310791 8.248479324447226
663 2.024663334051441 0.6174794857310791 8.433329719834971
664 1.356750548896777 0.6174794857310791 8.566185833133225
665 0.6804729454428236 0.6174794857310791 8.646228562224367
666 2.691571464865555 0.2882740172840745 8.283805186547402
667 2.033334384183798 0.2882740172840745 8.469447242957717
668 1.362561120871251 0.2882740172840745 8.602872340738193
669 0.6833872151509826 0.2882740172840745 8.683257869792669
670 2.588813576908869 -0.3238906006906015 7.96754892646821
671 1.955706444686055 -0.3238906006906015 8.146103604415172
672 1.310541731893364 -0.3238906006906015 8.274434844786583
673 0.657297093524202 -0.3238906006906015 8.351751442811086
674 2.6800933964828 -0.6174794857310807 8.248479324447226
675 2.024663334051441 -0.6174794857310807 8.433329719834971
676 1.356750548896777 -0.6174794857310807 8.566185833133225
677 0.6804729454428236 -0.6174794857310807 8.646228562224367
678 2.691571464865555 -0.288274017284076 8.283805186547402
679 2.033334384183798 -0.288274017284076 8.469447242957717
680 1.362561120871251 -0.288274017284076 8.602872340738193
681 0.6833872151509826 -0.288274017284076 8.683257869792669
682 2.973492321840184 -0.3238906006906017 9.151468366844554
683 2.246310104720243 -0.3238906006906017 9.356554962743008
684 1.505278638830791 -0.3238906006906017 9.503955285925894
685 0.754966629577007 -0.3238906006906017 9.592760564385216
686 2.882212502266251 -0.6174794857310807 8.870537968865536
687 2.177353215354854 -0.6174794857310807 9.069328847323206
688 1.459069821827378 -0.6174794857310807 9.212204297579252
689 0.7317907776583841 -0.6174794857310807 9.298283444971934
690 2.870734433883497 -0.288274017284076 8.835212106765361
691 2.168682165222498 -0.288274017284076 9.033211324200463
692 1.453259249852903 -0.288274017284076 9.175517789974284
693 0.7288765079502246 -0.288274017284076 9.261254137403633
$EndNodes
$Elements
1376
1 2 2 2002 14 250 46 2
2 2 2 2002 14 2 47 251
3 2 2 2002 14 251 250 2
4 2 2 2002 14 252 3 54
5 2 2 2002 14 55 3 252
6 2 2 2002 14 54 250 252
7 2 2 2002 14 1 46 250
8 2 2 2002 14 1 250 54
9 2 2 2002 14 251 47 4
10 2 2 2002 14 55 251 4
11 2 2 2002 14 251 55 252
12 2 2 2002 14 251 252 250
13 2 2 2002 16 5 49 253
14 2 2 2002 16 254 48 5
15 2 2 2002 16 5 253 254
16 2 2 2002 16 255 3 55
17 2 2 2002 16 255 253 56
18 2 2 2002 16 56 3 255
19 2 2 2002 16 253 49 6
20 2 2 2002 16 56 253 6
21 2 2 2002 16 4 48 254
22 2 2 2002 16 4 254 55
23 2 2 2002 16 255 55 254
24 2 2 2002 16 253 255 254
25 2 2 2002 18 256 50 7
26 2 2 2002 18 7 51 257
27 2 2 2002 18 257 256 7
28 2 2 2002 18 258 3 56
29 2 2 2002 18 57 3 258
30 2 2 2002 18 56 256 258
31 2 2 2002 18 257 51 8
32 2 2 2002 18 57 257 8
33 2 2 2002 18 6 50 256
34 2 2 2002 18 6 256 56
35 2 2 2002 18 257 57 258
36 2 2 2002 18 257 258 256
37 2 2 2002 20 9 53 259
38 2 2 2002 20 260 52 9
39 2 2 2002 20 9 259 260
40 2 2 2002 20 54 3 261
41 2 2 2002 20 261 3 57
42 2 2 2002 20 261 259 54
43 2 2 2002 20 8 52 260
44 2 2 2002 20 8 260 57
45 2 2 2002 20 259 53 1
46 2 2 2002 20 54 259 1
47 2 2 2002 20 261 57 260
48 2 2 2002 20 259 261 260
49 2 2 2000 306 458 202 39
50 2 2 2000 306 39 203 459
51 2 2 2000 306 459 458 39
52 2 2 2000 306 460 38 205
53 2 2 2000 306 204 38 460
54 2 2 2000 306 205 458 460
55 2 2 2000 306 37 202 458
56 2 2 2000 306 37 458 205
57 2 2 2000 306 459 203 40
58 2 2 2000 306 204 459 40
59 2 2 2000 306 459 204 460
60 2 2 2000 306 459 460 458
61 2 2 2000 328 41 223 473
62 2 2 2000 328 474 222 41
63 2 2 2000 328 41 473 474
64 2 2 2000 328 475 38 204
65 2 2 2000 328 475 473 224
66 2 2 2000 328 224 38 475
67 2 2 2000 328 473 223 42
68 2 2 2000 328 224 473 42
69 2 2 2000 328 40 222 474
70 2 2 2000 328 40 474 204
71 2 2 2000 328 475 204 474
72 2 2 2000 328 473 475 474
73 2 2 2000 350 488 233 43
74 2 2 2000 350 43 234 489
75 2 2 2000 350 489 488 43
76 2 2 2000 350 490 38 224
77 2 2 2000 350 235 38 490
78 2 2 2000 350 224 488 490
79 2 2 2000 350 489 234 44
80 2 2 2000 350 235 489 44
81 2 2 2000 350 42 233 488
82 2 2 2000 350 42 488 224
83 2 2 2000 350 489 235 490
84 2 2 2000 350 489 490 488
85 2 2 2000 372 45 245 499
86 2 2 2000 372 500 244 45
87 2 2 2000 372 45 499 500
88 2 2 2000 372 205 38 501
89 2 2 2000 372 501 38 235
90 2 2 2000 372 501 499 205
91 2 2 2000 372 44 244 500
92 2 2 2000 372 44 500 235
93 2 2 2000 372 499 245 37
94 2 2 2000 372 205 499 37
95 2 2 2000 372 501 235 500
96 2 2 2000 372 499 501 500
97 3 2 2004 29 1 46 262 62
98 3 2 2004 29 62 262 263 63
99 3 2 2004 29 63 263 264 64
100 3 2 2004 29 64 264 265 65
101 3 2 2004 29 65 265 58 10
102 3 2 2004 29 46 2 66 262
103 3 2 2004 29 262 66 67 263
104 3 2 2004 29 263 67 68 264
105 3 2 2004 29 264 68 69 265
106 3 2 2004 29 265 69 12 58
107 3 2 2004 33 2 47 266 66
108 3 2 2004 33 66 266 267 67
109 3 2 2004 33 67 267 268 68
110 3 2 2004 33 68 268 269 69
111 3 2 2004 33 69 269 59 12
112 3 2 2004 33 47 4 70 266
113 3 2 2004 33 266 70 71 267
114 3 2 2004 33 267 71 72 268
115 3 2 2004 33 268 72 73 269
116 3 2 2004 33 269 73 13 59
117 3 2 2004 51 4 48 281 70
118 3 2 2004 51 70 281 282 71
119 3 2 2004 51 71 282 283 72
120 3 2 2004 51 72 283 284 73
121 3 2 2004 51 73 284 78 13
122 3 2 2004 51 48 5 81 281
123 3 2 2004 51 281 81 82 282
124 3 2 2004 51 282 82 83 283
125 3 2 2004 51 283 83 84 284
126 3 2 2004 51 284 84 14 78
127 3 2 2004 55 5 49 285 81
128 3 2 2004 55 81 285 286 82
129 3 2 2004 55 82 286 287 83
130 3 2 2004 55 83 287 288 84
131 3 2 2004 55 84 288 79 14
132 3 2 2004 55 49 6 85 285
133 3 2 2004 55 285 85 86 286
134 3 2 2004 55 286 86 87 287
135 3 2 2004 55 287 87 88 288
136 3 2 2004 55 288 88 15 79
137 3 2 2004 73 6 50 296 85
138 3 2 2004 73 85 296 297 86
139 3 2 2004 73 86 297 298 87
140 3 2 2004 73 87 298 299 88
141 3 2 2004 73 88 299 89 15
142 3 2 2004 73 50 7 92 296
143 3 2 2004 73 296 92 93 297
144 3 2 2004 73 297 93 94 298
145 3 2 2004 73 298 94 95 299
146 3 2 2004 73 299 95 16 89
147 3 2 2004 77 7 51 300 92
148 3 2 2004 77 92 300 301 93
149 3 2 2004 77 93 301 302 94
150 3 2 2004 77 94 302 303 95
151 3 2 2004 77 95 303 90 16
152 3 2 2004 77 51 8 96 300
153 3 2 2004 77 300 96 97 301
154 3 2 2004 77 301 97 98 302
155 3 2 2004 77 302 98 99 303
156 3 2 2004 77 303 99 17 90
157 3 2 2004 95 8 52 311 96
158 3 2 2004 95 96 311 312 97
159 3 2 2004 95 97 312 313 98
160 3 2 2004 95 98 313 314 99
161 3 2 2004 95 99 314 100 17
162 3 2 2004 95 52 9 102 311
163 3 2 2004 95 311 102 103 312
164 3 2 2004 95 312 103 104 313
165 3 2 2004 95 313 104 105 314
166 3 2 2004 95 314 105 18 100
167 3 2 2004 99 9 53 315 102
168 3 2 2004 99 102 315 316 103
169 3 2 2004 99 103 316 317 104
170 3 2 2004 99 104 317 318 105
171 3 2 2004 99 105 318 101 18
172 3 2 2004 99 53 1 62 315
173 3 2 2004 99 315 62 63 316
174 3 2 2004 99 316 63 64 317
175 3 2 2004 99 317 64 65 318
176 3 2 2004 99 318 65 10 101
177 3 2 2004 117 10 58 322 110
178 3 2 2004 117 110 322 323 111
179 3 2 2004 117 111 323 324 112
180 3 2 2004 117 112 324 325 113
181 3 2 2004 117 113 325 106 19
182 3 2 2004 117 58 12 114 322
183 3 2 2004 117 322 114 115 323
184 3 2 2004 117 323 115 116 324
185 3 2 2004 117 324 116 117 325
186 3 2 2004 117 325 117 21 106
187 3 2 2004 121 12 59 326 114
188 3 2 2004 121 114 326 327 115
189 3 2 2004 121 115 327 328 116
190 3 2 2004 121 116 328 329 117
191 3 2 2004 121 117 329 107 21
192 3 2 2004 121 59 13 118 326
193 3 2 2004 121 326 118 119 327
194 3 2 2004 121 327 119 120 328
195 3 2 2004 121 328 120 121 329
196 3 2 2004 121 329 121 22 107
197 3 2 2004 139 13 78 341 118
198 3 2 2004 139 118 341 342 119
199 3 2 2004 139 119 342 343 120
200 3 2 2004 139 120 343 344 121
201 3 2 2004 139 121 344 126 22
202 3 2 2004 139 78 14 129 341
203 3 2 2004 139 341 129 130 342
204 3 2 2004 139 342 130 131 343
205 3 2 2004 139 343 131 132 344
206 3 2 2004 139 344 132 23 126
207 3 2 2004 143 14 79 345 129
208 3 2 2004 143 129 345 346 130
209 3 2 2004 143 130 346 347 131
210 3 2 2004 143 131 347 348 132
211 3 2 2004 143 132 348 127 23
212 3 2 2004 143 79 15 133 345
213 3 2 2004 143 345 133 134 346
214 3 2 2004 143 346 134 135 347
215 3 2 2004 143 347 135 136 348
216 3 2 2004 143 348 136 24 127
217 3 2 2004 161 15 89 356 133
218 3 2 2004 161 133 356 357 134
219 3 2 2004 161 134 357 358 135
220 3 2 2004 161 135 358 359 136
221 3 2 2004 161 136 359 137 24
222 3 2 2004 161 89 16 140 356
223 3 2 2004 161 356 140 141 357
224 3 2 2004 161 357 141 142 358
225 3 2 2004 161 358 142 143 359
226 3 2 2004 161 359 143 25 137
227 3 2 2004 165 16 90 360 140
228 3 2 2004 165 140 360 361 141
229 3 2 2004 165 141 361 362 142
230 3 2 2004 165 142 362 363 143
231 3 2 2004 165 143 363 138 25
232 3 2 2004 165 90 17 144 360
233 3 2 2004 165 360 144 145 361
234 3 2 2004 165 361 145 146 362
235 3 2 2004 165 362 146 147 363
236 3 2 2004 165 363 147 26 138
237 3 2 2004 183 17 100 371 144
238 3 2 2004 183 144 371 372 145
239 3 2 2004 183 145 372 373 146
240 3 2 2004 183 146 373 374 147
241 3 2 2004 183 147 374 148 26
242 3 2 2004 183 100 18 150 371
243 3 2 2004 183 371 150 151 372
244 3 2 2004 183 372 151 152 373
245 3 2 2004 183 373 152 153 374
246 3 2 2004 183 374 153 27 148
247 3 2 2004 187 18 101 375 150
248 3 2 2004 187 150 375 376 151
249 3 2 2004 187 151 376 377 152
250 3 2 2004 187 152 377 378 153
251 3 2 2004 187 153 378 149 27
252 3 2 2004 187 101 10 110 375
253 3 2 2004 187 375 110 111 376
254 3 2 2004 187 376 111 112 377
255 3 2 2004 187 377 112 113 378
256 3 2 2004 187 378 113 19 149
257 3 2 2004 205 19 106 382 158
258 3 2 2004 205 158 382 383 159
259 3 2 2004 205 159 383 384 160
260 3 2 2004 205 160 384 385 161
261 3 2 2004 205 161 385 154 28
262 3 2 2004 205 106 21 162 382
263 3 2 2004 205 382 162 163 383
264 3 2 2004 205 383 163 164 384
265 3 2 2004 205 384 164 165 385
266 3 2 2004 205 385 165 30 154
267 3 2 2004 209 21 107 386 162
268 3 2 2004 209 162 386 387 163
269 3 2 2004 209 163 387 388 164
270 3 2 2004 209 164 388 389 165
271 3 2 2004 209 165 389 155 30
272 3 2 2004 209 107 22 166 386
273 3 2 2004 209 386 166 167 387
274 3 2 2004 209 387 167 168 388
275 3 2 2004 209 388 168 169 389
276 3 2 2004 209 389 169 31 155
277 3 2 2004 227 22 126 401 166
278 3 2 2004 227 166 401 402 167
279 3 2 2004 227 167 402 403 168
280 3 2 2004 227 168 403 404 169
281 3 2 2004 227 169 404 174 31
282 3 2 2004 227 126 23 177 401
283 3 2 2004 227 401 177 178 402
284 3 2 2004 227 402 178 179 403
285 3 2 2004 227 403 179 180 404
286 3 2 2004 227 404 180 32 174
287 3 2 2004 231 23 127 405 177
288 3 2 2004 231 177 405 406 178
289 3 2 2004 231 178 406 407 179
290 3 2 2004 231 179 407 408 180
291 3 2 2004 231 180 408 175 32
292 3 2 2004 231 127 24 181 405
293 3 2 2004 231 405 181 182 406
294 3 2 2004 231 406 182 183 407
295 3 2 2004 231 407 183 184 408
296 3 2 2004 231 408 184 33 175
297 3 2 2004 249 24 137 416 181
298 3 2 2004 249 181 416 417 182
299 3 2 2004 249 182 417 418 183
300 3 2 2004 249 183 418 419 184
301 3 2 2004 249 184 419 185 33
302 3 2 2004 249 137 25 188 416
303 3 2 2004 249 416 188 189 417
304 3 2 2004 249 417 189 190 418
305 3 2 2004 249 418 190 191 419
306 3 2 2004 249 419 191 34 185
307 3 2 2004 253 25 138 420 188
308 3 2 2004 253 188 420 421 189
309 3 2 2004 253 189 421 422 190
310 3 2 2004 253 190 422 423 191
311 3 2 2004 253 191 423 186 34
312 3 2 2004 253 138 26 192 420
313 3 2 2004 253 420 192 193 421
314 3 2 2004 253 421 193 194 422
315 3 2 2004 253 422 194 195 423
316 3 2 2004 253 423 195 35 186
317 3 2 2004 271 26 148 431 192
318 3 2 2004 271 192 431 432 193
319 3 2 2004 271 193 432 433 194
320 3 2 2004 271 194 433 434 195
321 3 2 2004 271 195 434 196 35
322 3 2 2004 271 148 27 198 431
323 3 2 2004 271 431 198 199 432
324 3 2 2004 271 432 199 200 433
325 3 2 2004 271 433 200 201 434
326 3 2 2004 271 434 201 36 196
327 3 2 2004 275 27 149 435 198
328 3 2 2004 275 198 435 436 199
329 3 2 2004 275 199 436 437 200
330 3 2 2004 275 200 437 438 201
331 3 2 2004 275 201 438 197 36
332 3 2 2004 275 149 19 158 435
333 3 2 2004 275 435 158 159 436
334 3 2 2004 275 436 159 160 437
335 3 2 2004 275 437 160 161 438
336 3 2 2004 275 438 161 28 197
337 3 2 2005 293 28 154 442 206
338 3 2 2005 293 206 442 443 207
339 3 2 2005 293 207 443 444 208
340 3 2 2005 293 208 444 445 209
341 3 2 2005 293 209 445 202 37
342 3 2 2005 293 154 30 210 442
343 3 2 2005 293 442 210 211 443
344 3 2 2005 293 443 211 212 444
345 3 2 2005 293 444 212 213 445
346 3 2 2005 293 445 213 39 202
347 3 2 2004 297 30 155 446 210
348 3 2 2004 297 210 446 447 211
349 3 2 2004 297 211 447 448 212
350 3 2 2004 297 212 448 449 213
351 3 2 2004 297 213 449 203 39
352 3 2 2004 297 155 31 214 446
353 3 2 2004 297 446 214 215 447
354 3 2 2004 297 447 215 216 448
355 3 2 2004 297 448 216 217 449
356 3 2 2004 297 449 217 40 203
357 3 2 2004 315 31 174 461 214
358 3 2 2004 315 214 461 462 215
359 3 2 2004 315 215 462 463 216
360 3 2 2004 315 216 463 464 217
361 3 2 2004 315 217 464 222 40
362 3 2 2004 315 174 32 225 461
363 3 2 2004 315 461 225 226 462
364 3 2 2004 315 462 226 227 463
365 3 2 2004 315 463 227 228 464
366 3 2 2004 315 464 228 41 222
367 3 2 2004 319 32 175 465 225
368 3 2 2004 319 225 465 466 226
369 3 2 2004 319 226 466 467 227
370 3 2 2004 319 227 467 468 228
371 3 2 2004 319 228 468 223 41
372 3 2 2004 319 175 33 229 465
373 3 2 2004 319 465 229 230 466
374 3 2 2004 319 466 230 231 467
375 3 2 2004 319 467 231 232 468
376 3 2 2004 319 468 232 42 223
377 3 2 2004 337 33 185 476 229
378 3 2 2004 337 229 476 477 230
379 3 2 2004 337 230 477 478 231
380 3 2 2004 337 231 478 479 232
381 3 2 2004 337 232 479 233 42
382 3 2 2004 337 185 34 236 476
383 3 2 2004 337 476 236 237 477
384 3 2 2004 337 477 237 238 478
385 3 2 2004 337 478 238 239 479
386 3 2 2004 337 479 239 43 233
387 3 2 2004 341 34 186 480 236
388 3 2 2004 341 236 480 481 237
389 3 2 2004 341 237 481 482 238
390 3 2 2004 341 238 482 483 239
391 3 2 2004 341 239 483 234 43
392 3 2 2004 341 186 35 240 480
393 3 2 2004 341 480 240 241 481
394 3 2 2004 341 481 241 242 482
395 3 2 2004 341 482 242 243 483
396 3 2 2004 341 483 243 44 234
397 3 2 2004 359 35 196 491 240
398 3 2 2004 359 240 491 492 241
399 3 2 2004 359 241 492 493 242
400 3 2 2004 359 242 493 494 243
401 3 2 2004 359 243 494 244 44
402 3 2 2004 359 196 36 246 491
403 3 2 2004 359 491 246 247 492
404 3 2 2004 359 492 247 248 493
405 3 2 2004 359 493 248 249 494
406 3 2 2004 359 494 249 45 244
407 3 2 2005 363 36 197 495 246
408 3 2 2005 363 246 495 496 247
409 3 2 2005 363 247 496 497 248
410 3 2 2005 363 248 497 498 249
411 3 2 2005 363 249 498 245 45
412 3 2 2005 363 197 28 206 495
413 3 2 2005 363 495 206 207 496
414 3 2 2005 363 496 207 208 497
415 3 2 2005 363 497 208 209 498
416 3 2 2005 363 498 209 37 245
417 6 2 301 1 250 46 2 502 262 66
418 6 2 301 1 502 262 66 503 263 67
419 6 2 301 1 503 263 67 504 264 68
420 6 2 301 1 504 264 68 505 265 69
421 6 2 301 1 505 265 69 278 58 12
422 6 2 301 1 2 47 251 66 266 506
423 6 2 301 1 66 266 506 67 267 507
424 6 2 301 1 67 267 507 68 268 508
425 6 2 301 1 68 268 508 69 269 509
426 6 2 301 1 69 269 509 12 59 279
427 6 2 301 1 251 250 2 506 502 66
428 6 2 301 1 506 502 66 507 503 67
429 6 2 301 1 507 503 67 508 504 68
430 6 2 301 1 508 504 68 509 505 69
431 6 2 301 1 509 505 69 279 278 12
432 6 2 301 1 252 3 54 510 74 274
433 6 2 301 1 510 74 274 511 75 275
434 6 2 301 1 511 75 275 512 76 276
435 6 2 301 1 512 76 276 513 77 277
436 6 2 301 1 513 77 277 280 11 61
437 6 2 301 1 55 3 252 270 74 510
438 6 2 301 1 270 74 510 271 75 511
439 6 2 301 1 271 75 511 272 76 512
440 6 2 301 1 272 76 512 273 77 513
441 6 2 301 1 273 77 513 60 11 280
442 6 2 301 1 54 250 252 274 502 510
443 6 2 301 1 274 502 510 275 503 511
444 6 2 301 1 275 503 511 276 504 512
445 6 2 301 1 276 504 512 277 505 513
446 6 2 301 1 277 505 513 61 278 280
447 6 2 301 1 1 46 250 62 262 502
448 6 2 301 1 62 262 502 63 263 503
449 6 2 301 1 63 263 503 64 264 504
450 6 2 301 1 64 264 504 65 265 505
451 6 2 301 1 65 265 505 10 58 278
452 6 2 301 1 1 250 54 62 502 274
453 6 2 301 1 62 502 274 63 503 275
454 6 2 301 1 63 503 275 64 504 276
455 6 2 301 1 64 504 276 65 505 277
456 6 2 301 1 65 505 277 10 278 61
457 6 2 301 1 251 47 4 506 266 70
458 6 2 301 1 506 266 70 507 267 71
459 6 2 301 1 507 267 71 508 268 72
460 6 2 301 1 508 268 72 509 269 73
461 6 2 301 1 509 269 73 279 59 13
462 6 2 301 1 55 251 4 270 506 70
463 6 2 301 1 270 506 70 271 507 71
464 6 2 301 1 271 507 71 272 508 72
465 6 2 301 1 272 508 72 273 509 73
466 6 2 301 1 273 509 73 60 279 13
467 6 2 301 1 251 55 252 506 270 510
468 6 2 301 1 506 270 510 507 271 511
469 6 2 301 1 507 271 511 508 272 512
470 6 2 301 1 508 272 512 509 273 513
471 6 2 301 1 509 273 513 279 60 280
472 6 2 301 1 251 252 250 506 510 502
473 6 2 301 1 506 510 502 507 511 503
474 6 2 301 1 507 511 503 508 512 504
475 6 2 301 1 508 512 504 509 513 505
476 6 2 301 1 509 513 505 279 280 278
477 6 2 301 2 5 49 253 81 285 514
478 6 2 301 2 81 285 514 82 286 515
479 6 2 301 2 82 286 515 83 287 516
480 6 2 301 2 83 287 516 84 288 517
481 6 2 301 2 84 288 517 14 79 293
482 6 2 301 2 254 48 5 518 281 81
483 6 2 301 2 518 281 81 519 282 82
484 6 2 301 2 519 282 82 520 283 83
485 6 2 301 2 520 283 83 521 284 84
486 6 2 301 2 521 284 84 294 78 14
487 6 2 301 2 5 253 254 81 514 518
488 6 2 301 2 81 514 518 82 515 519
489 6 2 301 2 82 515 519 83 516 520
490 6 2 301 2 83 516 520 84 517 521
491 6 2 301 2 84 517 521 14 293 294
492 6 2 301 2 255 3 55 522 74 270
493 6 2 301 2 522 74 270 523 75 271
494 6 2 301 2 523 75 271 524 76 272
495 6 2 301 2 524 76 272 525 77 273
496 6 2 301 2 525 77 273 295 11 60
497 6 2 301 2 255 253 56 522 514 289
498 6 2 301 2 522 514 289 523 515 290
499 6 2 301 2 523 515 290 524 516 291
500 6 2 301 2 524 516 291 525 517 292
501 6 2 301 2 525 517 292 295 293 80
502 6 2 301 2 56 3 255 289 74 522
503 6 2 301 2 289 74 522 290 75 523
504 6 2 301 2 290 75 523 291 76 524
505 6 2 301 2 291 76 524 292 77 525
506 6 2 301 2 292 77 525 80 11 295
507 6 2 301 2 253 49 6 514 285 85
508 6 2 301 2 514 285 85 515 286 86
509 6 2 301 2 515 286 86 516 287 87
510 6 2 301 2 516 287 87 517 288 88
511 6 2 301 2 517 288 88 293 79 15
512 6 2 301 2 56 253 6 289 514 85
513 6 2 301 2 289 514 85 290 515 86
514 6 2 301 2 290 515 86 291 516 87
515 6 2 301 2 291 516 87 292 517 88
516 6 2 301 2 292 517 88 80 293 15
517 6 2 301 2 4 48 254 70 281 518
518 6 2 301 2 70 281 518 71 282 519
519 6 2 301 2 71 282 519 72 283 520
520 6 2 301 2 72 283 520 73 284 521
521 6 2 301 2 73 284 521 13 78 294
522 6 2 301 2 4 254 55 70 518 270
523 6 2 301 2 70 518 270 71 519 271
524 6 2 301 2 71 519 271 72 520 272
525 6 2 301 2 72 520 272 73 521 273
526 6 2 301 2 73 521 273 13 294 60
527 6 2 301 2 255 55 254 522 270 518
528 6 2 301 2 522 270 518 523 271 519
529 6 2 301 2 523 271 519 524 272 520
530 6 2 301 2 524 272 520 525 273 521
531 6 2 301 2 525 273 521 295 60 294
532 6 2 301 2 253 255 254 514 522 518
533 6 2 301 2 514 522 518 515 523 519
534 6 2 301 2 515 523 519 516 524 520
535 6 2 301 2 516 524 520 517 525 521
536 6 2 301 2 517 525 521 293 295 294
537 6 2 301 3 256 50 7 526 296 92
538 6 2 301 3 526 296 92 527 297 93
539 6 2 301 3 527 297 93 528 298 94
540 6 2 301 3 528 298 94 529 299 95
541 6 2 301 3 529 299 95 308 89 16
542 6 2 301 3 7 51 257 92 300 530
543 6 2 301 3 92 300 530 93 301 531
544 6 2 301 3 93 301 531 94 302 532
545 6 2 301 3 94 302 532 95 303 533
546 6 2 301 3 95 303 533 16 90 309
547 6 2 301 3 257 256 7 530 526 92
548 6 2 301 3 530 526 92 531 527 93
549 6 2 301 3 531 527 93 532 528 94
550 6 2 301 3 532 528 94 533 529 95
551 6 2 301 3 533 529 95 309 308 16
552 6 2 301 3 258 3 56 534 74 289
553 6 2 301 3 534 74 289 535 75 290
554 6 2 301 3 535 75 290 536 76 291
555 6 2 301 3 536 76 291 537 77 292
556 6 2 301 3 537 77 292 310 11 80
557 6 2 301 3 57 3 258 304 74 534
558 6 2 301 3 304 74 534 305 75 535
559 6 2 301 3 305 75 535 306 76 536
560 6 2 301 3 306 76 536 307 77 537
561 6 2 301 3 307 77 537 91 11 310
562 6 2 301 3 56 256 258 289 526 534
563 6 2 301 3 289 526 534 290 527 535
564 6 2 301 3 290 527 535 291 528 536
565 6 2 301 3 291 528 536 292 529 537
566 6 2 301 3 292 529 537 80 308 310
567 6 2 301 3 257 51 8 530 300 96
568 6 2 301 3 530 300 96 531 301 97
569 6 2 301 3 531 301 97 532 302 98
570 6 2 301 3 532 302 98 533 303 99
571 6 2 301 3 533 303 99 309 90 17
572 6 2 301 3 57 257 8 304 530 96
573 6 2 301 3 304 530 96 305 531 97
574 6 2 301 3 305 531 97 306 532 98
575 6 2 301 3 306 532 98 307 533 99
576 6 2 301 3 307 533 99 91 309 17
577 6 2 301 3 6 50 256 85 296 526
578 6 2 301 3 85 296 526 86 297 527
579 6 2 301 3 86 297 527 87 298 528
580 6 2 301 3 87 298 528 88 299 529
581 6 2 301 3 88 299 529 15 89 308
582 6 2 301 3 6 256 56 85 526 289
583 6 2 301 3 85 526 289 86 527 290
584 6 2 301 3 86 527 290 87 528 291
585 6 2 301 3 87 528 291 88 529 292
586 6 2 301 3 88 529 292 15 308 80
587 6 2 301 3 257 57 258 530 304 534
588 6 2 301 3 530 304 534 531 305 535
589 6 2 301 3 531 305 535 532 306 536
590 6 2 301 3 532 306 536 533 307 537
591 6 2 301 3 533 307 537 309 91 310
592 6 2 301 3 257 258 256 530 534 526
593 6 2 301 3 530 534 526 531 535 527
594 6 2 301 3 531 535 527 532 536 528
595 6 2 301 3 532 536 528 533 537 529
596 6 2 301 3 533 537 529 309 310 308
597 6 2 301 4 9 53 259 102 315 538
598 6 2 301 4 102 315 538 103 316 539
599 6 2 301 4 103 316 539 104 317 540
600 6 2 301 4 104 317 540 105 318 541
601 6 2 301 4 105 318 541 18 101 319
602 6 2 301 4 260 52 9 542 311 102
603 6 2 301 4 542 311 102 543 312 103
604 6 2 301 4 543 312 103 544 313 104
605 6 2 301 4 544 313 104 545 314 105
606 6 2 301 4 545 314 105 320 100 18
607 6 2 301 4 9 259 260 102 538 542
608 6 2 301 4 102 538 542 103 539 543
609 6 2 301 4 103 539 543 104 540 544
610 6 2 301 4 104 540 544 105 541 545
611 6 2 301 4 105 541 545 18 319 320
612 6 2 301 4 54 3 261 274 74 546
613 6 2 301 4 274 74 546 275 75 547
614 6 2 301 4 275 75 547 276 76 548
615 6 2 301 4 276 76 548 277 77 549
616 6 2 301 4 277 77 549 61 11 321
617 6 2 301 4 261 3 57 546 74 304
618 6 2 301 4 546 74 304 547 75 305
619 6 2 301 4 547 75 305 548 76 306
620 6 2 301 4 548 76 306 549 77 307
621 6 2 301 4 549 77 307 321 11 91
622 6 2 301 4 261 259 54 546 538 274
623 6 2 301 4 546 538 274 547 539 275
624 6 2 301 4 547 539 275 548 540 276
625 6 2 301 4 548 540 276 549 541 277
626 6 2 301 4 549 541 277 321 319 61
627 6 2 301 4 8 52 260 96 311 542
628 6 2 301 4 96 311 542 97 312 543
629 6 2 301 4 97 312 543 98 313 544
630 6 2 301 4 98 313 544 99 314 545
631 6 2 301 4 99 314 545 17 100 320
632 6 2 301 4 8 260 57 96 542 304
633 6 2 301 4 96 542 304 97 543 305
634 6 2 301 4 97 543 305 98 544 306
635 6 2 301 4 98 544 306 99 545 307
636 6 2 301 4 99 545 307 17 320 91
637 6 2 301 4 259 53 1 538 315 62
638 6 2 301 4 538 315 62 539 316 63
639 6 2 301 4 539 316 63 540 317 64
640 6 2 301 4 540 317 64 541 318 65
641 6 2 301 4 541 318 65 319 101 10
642 6 2 301 4 54 259 1 274 538 62
643 6 2 301 4 274 538 62 275 539 63
644 6 2 301 4 275 539 63 276 540 64
645 6 2 301 4 276 540 64 277 541 65
646 6 2 301 4 277 541 65 61 319 10
647 6 2 301 4 261 57 260 546 304 542
648 6 2 301 4 546 304 542 547 305 543
649 6 2 301 4 547 305 543 548 306 544
650 6 2 301 4 548 306 544 549 307 545
651 6 2 301 4 549 307 545 321 91 320
652 6 2 301 4 259 261 260 538 546 542
653 6 2 301 4 538 546 542 539 547 543
654 6 2 301 4 539 547 543 540 548 544
655 6 2 301 4 540 548 544 541 549 545
656 6 2 301 4 541 549 545 319 321 320
657 6 2 301 5 278 58 12 550 322 114
658 6 2 301 5 550 322 114 551 323 115
659 6 2 301 5 551 323 115 552 324 116
660 6 2 301 5 552 324 116 553 325 117
661 6 2 301 5 553 325 117 338 106 21
662 6 2 301 5 12 59 279 114 326 554
663 6 2 301 5 114 326 554 115 327 555
664 6 2 301 5 115 327 555 116 328 556
665 6 2 301 5 116 328 556 117 329 557
666 6 2 301 5 117 329 557 21 107 339
667 6 2 301 5 279 278 12 554 550 114
668 6 2 301 5 554 550 114 555 551 115
669 6 2 301 5 555 551 115 556 552 116
670 6 2 301 5 556 552 116 557 553 117
671 6 2 301 5 557 553 117 339 338 21
672 6 2 301 5 280 11 61 558 122 334
673 6 2 301 5 558 122 334 559 123 335
674 6 2 301 5 559 123 335 560 124 336
675 6 2 301 5 560 124 336 561 125 337
676 6 2 301 5 561 125 337 340 20 109
677 6 2 301 5 60 11 280 330 122 558
678 6 2 301 5 330 122 558 331 123 559
679 6 2 301 5 331 123 559 332 124 560
680 6 2 301 5 332 124 560 333 125 561
681 6 2 301 5 333 125 561 108 20 340
682 6 2 301 5 61 278 280 334 550 558
683 6 2 301 5 334 550 558 335 551 559
684 6 2 301 5 335 551 559 336 552 560
685 6 2 301 5 336 552 560 337 553 561
686 6 2 301 5 337 553 561 109 338 340
687 6 2 301 5 10 58 278 110 322 550
688 6 2 301 5 110 322 550 111 323 551
689 6 2 301 5 111 323 551 112 324 552
690 6 2 301 5 112 324 552 113 325 553
691 6 2 301 5 113 325 553 19 106 338
692 6 2 301 5 10 278 61 110 550 334
693 6 2 301 5 110 550 334 111 551 335
694 6 2 301 5 111 551 335 112 552 336
695 6 2 301 5 112 552 336 113 553 337
696 6 2 301 5 113 553 337 19 338 109
697 6 2 301 5 279 59 13 554 326 118
698 6 2 301 5 554 326 118 555 327 119
699 6 2 301 5 555 327 119 556 328 120
700 6 2 301 5 556 328 120 557 329 121
701 6 2 301 5 557 329 121 339 107 22
702 6 2 301 5 60 279 13 330 554 118
703 6 2 301 5 330 554 118 331 555 119
704 6 2 301 5 331 555 119 332 556 120
705 6 2 301 5 332 556 120 333 557 121
706 6 2 301 5 333 557 121 108 339 22
707 6 2 301 5 279 60 280 554 330 558
708 6 2 301 5 554 330 558 555 331 559
709 6 2 301 5 555 331 559 556 332 560
710 6 2 301 5 556 332 560 557 333 561
711 6 2 301 5 557 333 561 339 108 340
712 6 2 301 5 279 280 278 554 558 550
713 6 2 301 5 554 558 550 555 559 551
714 6 2 301 5 555 559 551 556 560 552
715 6 2 301 5 556 560 552 557 561 553
716 6 2 301 5 557 561 553 339 340 338
717 6 2 301 6 14 79 293 129 345 562
718 6 2 301 6 129 345 562 130 346 563
719 6 2 301 6 130 346 563 131 347 564
720 6 2 301 6 131 347 564 132 348 565
721 6 2 301 6 132 348 565 23 127 353
722 6 2 301 6 294 78 14 566 341 129
723 6 2 301 6 566 341 129 567 342 130
724 6 2 301 6 567 342 130 568 343 131
725 6 2 301 6 568 343 131 569 344 132
726 6 2 301 6 569 344 132 354 126 23
727 6 2 301 6 14 293 294 129 562 566
728 6 2 301 6 129 562 566 130 563 567
729 6 2 301 6 130 563 567 131 564 568
730 6 2 301 6 131 564 568 132 565 569
731 6 2 301 6 132 565 569 23 353 354
732 6 2 301 6 295 11 60 570 122 330
733 6 2 301 6 570 122 330 571 123 331
734 6 2 301 6 571 123 331 572 124 332
735 6 2 301 6 572 124 332 573 125 333
736 6 2 301 6 573 125 333 355 20 108
737 6 2 301 6 295 293 80 570 562 349
738 6 2 301 6 570 562 349 571 563 350
739 6 2 301 6 571 563 350 572 564 351
740 6 2 301 6 572 564 351 573 565 352
741 6 2 301 6 573 565 352 355 353 128
742 6 2 301 6 80 11 295 349 122 570
743 6 2 301 6 349 122 570 350 123 571
744 6 2 301 6 350 123 571 351 124 572
745 6 2 301 6 351 124 572 352 125 573
746 6 2 301 6 352 125 573 128 20 355
747 6 2 301 6 293 79 15 562 345 133
748 6 2 301 6 562 345 133 563 346 134
749 6 2 301 6 563 346 134 564 347 135
750 6 2 301 6 564 347 135 565 348 136
751 6 2 301 6 565 348 136 353 127 24
752 6 2 301 6 80 293 15 349 562 133
753 6 2 301 6 349 562 133 350 563 134
754 6 2 301 6 350 563 134 351 564 135
755 6 2 301 6 351 564 135 352 565 136
756 6 2 301 6 352 565 136 128 353 24
757 6 2 301 6 13 78 294 118 341 566
758 6 2 301 6 118 341 566 119 342 567
759 6 2 301 6 119 342 567 120 343 568
760 6 2 301 6 120 343 568 121 344 569
761 6 2 301 6 121 344 569 22 126 354
762 6 2 301 6 13 294 60 118 566 330
763 6 2 301 6 118 566 330 119 567 331
764 6 2 301 6 119 567 331 120 568 332
765 6 2 301 6 120 568 332 121 569 333
766 6 2 301 6 121 569 333 22 354 108
767 6 2 301 6 295 60 294 570 330 566
768 6 2 301 6 570 330 566 571 331 567
769 6 2 301 6 571 331 567 572 332 568
770 6 2 301 6 572 332 568 573 333 569
771 6 2 301 6 573 333 569 355 108 354
772 6 2 301 6 293 295 294 562 570 566
773 6 2 301 6 562 570 566 563 571 567
774 6 2 301 6 563 571 567 564 572 568
775 6 2 301 6 564 572 568 565 573 569
776 6 2 301 6 565 573 569 353 355 354
777 6 2 301 7 308 89 16 574 356 140
778 6 2 301 7 574 356 140 575 357 141
779 6 2 301 7 575 357 141 576 358 142
780 6 2 301 7 576 358 142 577 359 143
781 6 2 301 7 577 359 143 368 137 25
782 6 2 301 7 16 90 309 140 360 578
783 6 2 301 7 140 360 578 141 361 579
784 6 2 301 7 141 361 579 142 362 580
785 6 2 301 7 142 362 580 143 363 581
786 6 2 301 7 143 363 581 25 138 369
787 6 2 301 7 309 308 16 578 574 140
788 6 2 301 7 578 574 140 579 575 141
789 6 2 301 7 579 575 141 580 576 142
790 6 2 301 7 580 576 142 581 577 143
791 6 2 301 7 581 577 143 369 368 25
792 6 2 301 7 310 11 80 582 122 349
793 6 2 301 7 582 122 349 583 123 350
794 6 2 301 7 583 123 350 584 124 351
795 6 2 301 7 584 124 351 585 125 352
796 6 2 301 7 585 125 352 370 20 128
797 6 2 301 7 91 11 310 364 122 582
798 6 2 301 7 364 122 582 365 123 583
799 6 2 301 7 365 123 583 366 124 584
800 6 2 301 7 366 124 584 367 125 585
801 6 2 301 7 367 125 585 139 20 370
802 6 2 301 7 80 308 310 349 574 582
803 6 2 301 7 349 574 582 350 575 583
804 6 2 301 7 350 575 583 351 576 584
805 6 2 301 7 351 576 584 352 577 585
806 6 2 301 7 352 577 585 128 368 370
807 6 2 301 7 309 90 17 578 360 144
808 6 2 301 7 578 360 144 579 361 145
809 6 2 301 7 579 361 145 580 362 146
810 6 2 301 7 580 362 146 581 363 147
811 6 2 301 7 581 363 147 369 138 26
812 6 2 301 7 91 309 17 364 578 144
813 6 2 301 7 364 578 144 365 579 145
814 6 2 301 7 365 579 145 366 580 146
815 6 2 301 7 366 580 146 367 581 147
816 6 2 301 7 367 581 147 139 369 26
817 6 2 301 7 15 89 308 133 356 574
818 6 2 301 7 133 356 574 134 357 575
819 6 2 301 7 134 357 575 135 358 576
820 6 2 301 7 135 358 576 136 359 577
821 6 2 301 7 136 359 577 24 137 368
822 6 2 301 7 15 308 80 133 574 349
823 6 2 301 7 133 574 349 134 575 350
824 6 2 301 7 134 575 350 135 576 351
825 6 2 301 7 135 576 351 136 577 352
826 6 2 301 7 136 577 352 24 368 128
827 6 2 301 7 309 91 310 578 364 582
828 6 2 301 7 578 364 582 579 365 583
829 6 2 301 7 579 365 583 580 366 584
830 6 2 301 7 580 366 584 581 367 585
831 6 2 301 7 581 367 585 369 139 370
832 6 2 301 7 309 310 308 578 582 574
833 6 2 301 7 578 582 574 579 583 575
834 6 2 301 7 579 583 575 580 584 576
835 6 2 301 7 580 584 576 581 585 577
836 6 2 301 7 581 585 577 369 370 368
837 6 2 301 8 18 101 319 150 375 586
838 6 2 301 8 150 375 586 151 376 587
839 6 2 301 8 151 376 587 152 377 588
840 6 2 301 8 152 377 588 153 378 589
841 6 2 301 8 153 378 589 27 149 379
842 6 2 301 8 320 100 18 590 371 150
843 6 2 301 8 590 371 150 591 372 151
844 6 2 301 8 591 372 151 592 373 152
845 6 2 301 8 592 373 152 593 374 153
846 6 2 301 8 593 374 153 380 148 27
847 6 2 301 8 18 319 320 150 586 590
848 6 2 301 8 150 586 590 151 587 591
849 6 2 301 8 151 587 591 152 588 592
850 6 2 301 8 152 588 592 153 589 593
851 6 2 301 8 153 589 593 27 379 380
852 6 2 301 8 61 11 321 334 122 594
853 6 2 301 8 334 122 594 335 123 595
854 6 2 301 8 335 123 595 336 124 596
855 6 2 301 8 336 124 596 337 125 597
856 6 2 301 8 337 125 597 109 20 381
857 6 2 301 8 321 11 91 594 122 364
858 6 2 301 8 594 122 364 595 123 365
859 6 2 301 8 595 123 365 596 124 366
860 6 2 301 8 596 124 366 597 125 367
861 6 2 301 8 597 125 367 381 20 139
862 6 2 301 8 321 319 61 594 586 334
863 6 2 301 8 594 586 334 595 587 335
864 6 2 301 8 595 587 335 596 588 336
865 6 2 301 8 596 588 336 597 589 337
866 6 2 301 8 597 589 337 381 379 109
867 6 2 301 8 17 100 320 144 371 590
868 6 2 301 8 144 371 590 145 372 591
869 6 2 301 8 145 372 591 146 373 592
870 6 2 301 8 146 373 592 147 374 593
871 6 2 301 8 147 374 593 26 148 380
872 6 2 301 8 17 320 91 144 590 364
873 6 2 301 8 144 590 364 145 591 365
874 6 2 301 8 145 591 365 146 592 366
875 6 2 301 8 146 592 366 147 593 367
876 6 2 301 8 147 593 367 26 380 139
877 6 2 301 8 319 101 10 586 375 110
878 6 2 301 8 586 375 110 587 376 111
879 6 2 301 8 587 376 111 588 377 112
880 6 2 301 8 588 377 112 589 378 113
881 6 2 301 8 589 378 113 379 149 19
882 6 2 301 8 61 319 10 334 586 110
883 6 2 301 8 334 586 110 335 587 111
884 6 2 301 8 335 587 111 336 588 112
885 6 2 301 8 336 588 112 337 589 113
886 6 2 301 8 337 589 113 109 379 19
887 6 2 301 8 321 91 320 594 364 590
888 6 2 301 8 594 364 590 595 365 591
889 6 2 301 8 595 365 591 596 366 592
890 6 2 301 8 596 366 592 597 367 593
891 6 2 301 8 597 367 593 381 139 380
892 6 2 301 8 319 321 320 586 594 590
893 6 2 301 8 586 594 590 587 595 591
894 6 2 301 8 587 595 591 588 596 592
895 6 2 301 8 588 596 592 589 597 593
896 6 2 301 8 589 597 593 379 381 380
897 6 2 301 9 338 106 21 598 382 162
898 6 2 301 9 598 382 162 599 383 163
899 6 2 301 9 599 383 163 600 384 164
900 6 2 301 9 600 384 164 601 385 165
901 6 2 301 9 601 385 165 398 154 30
902 6 2 301 9 21 107 339 162 386 602
903 6 2 301 9 162 386 602 163 387 603
904 6 2 301 9 163 387 603 164 388 604
905 6 2 301 9 164 388 604 165 389 605
906 6 2 301 9 165 389 605 30 155 399
907 6 2 301 9 339 338 21 602 598 162
908 6 2 301 9 602 598 162 603 599 163
909 6 2 301 9 603 599 163 604 600 164
910 6 2 301 9 604 600 164 605 601 165
911 6 2 301 9 605 601 165 399 398 30
912 6 2 301 9 340 20 109 606 170 394
913 6 2 301 9 606 170 394 607 171 395
914 6 2 301 9 607 171 395 608 172 396
915 6 2 301 9 608 172 396 609 173 397
916 6 2 301 9 609 173 397 400 29 157
917 6 2 301 9 108 20 340 390 170 606
918 6 2 301 9 390 170 606 391 171 607
919 6 2 301 9 391 171 607 392 172 608
920 6 2 301 9 392 172 608 393 173 609
921 6 2 301 9 393 173 609 156 29 400
922 6 2 301 9 109 338 340 394 598 606
923 6 2 301 9 394 598 606 395 599 607
924 6 2 301 9 395 599 607 396 600 608
925 6 2 301 9 396 600 608 397 601 609
926 6 2 301 9 397 601 609 157 398 400
927 6 2 301 9 19 106 338 158 382 598
928 6 2 301 9 158 382 598 159 383 599
929 6 2 301 9 159 383 599 160 384 600
930 6 2 301 9 160 384 600 161 385 601
931 6 2 301 9 161 385 601 28 154 398
932 6 2 301 9 19 338 109 158 598 394
933 6 2 301 9 158 598 394 159 599 395
934 6 2 301 9 159 599 395 160 600 396
935 6 2 301 9 160 600 396 161 601 397
936 6 2 301 9 161 601 397 28 398 157
937 6 2 301 9 339 107 22 602 386 166
938 6 2 301 9 602 386 166 603 387 167
939 6 2 301 9 603 387 167 604 388 168
940 6 2 301 9 604 388 168 605 389 169
941 6 2 301 9 605 389 169 399 155 31
942 6 2 301 9 108 339 22 390 602 166
943 6 2 301 9 390 602 166 391 603 167
944 6 2 301 9 391 603 167 392 604 168
945 6 2 301 9 392 604 168 393 605 169
946 6 2 301 9 393 605 169 156 399 31
947 6 2 301 9 339 108 340 602 390 606
948 6 2 301 9 602 390 606 603 391 607
949 6 2 301 9 603 391 607 604 392 608
950 6 2 301 9 604 392 608 605 393 609
951 6 2 301 9 605 393 609 399 156 400
952 6 2 301 9 339 340 338 602 606 598
953 6 2 301 9 602 606 598 603 607 599
954 6 2 301 9 603 607 599 604 608 600
955 6 2 301 9 604 608 600 605 609 601
956 6 2 301 9 605 609 601 399 400 398
957 6 2 301 10 23 127 353 177 405 610
958 6 2 301 10 177 405 610 178 406 611
959 6 2 301 10 178 406 611 179 407 612
960 6 2 301 10 179 407 612 180 408 613
961 6 2 301 10 180 408 613 32 175 413
962 6 2 301 10 354 126 23 614 401 177
963 6 2 301 10 614 401 177 615 402 178
964 6 2 301 10 615 402 178 616 403 179
965 6 2 301 10 616 403 179 617 404 180
966 6 2 301 10 617 404 180 414 174 32
967 6 2 301 10 23 353 354 177 610 614
968 6 2 301 10 177 610 614 178 611 615
969 6 2 301 10 178 611 615 179 612 616
970 6 2 301 10 179 612 616 180 613 617
971 6 2 301 10 180 613 617 32 413 414
972 6 2 301 10 355 20 108 618 170 390
973 6 2 301 10 618 170 390 619 171 391
974 6 2 301 10 619 171 391 620 172 392
975 6 2 301 10 620 172 392 621 173 393
976 6 2 301 10 621 173 393 415 29 156
977 6 2 301 10 355 353 128 618 610 409
978 6 2 301 10 618 610 409 619 611 410
979 6 2 301 10 619 611 410 620 612 411
980 6 2 301 10 620 612 411 621 613 412
981 6 2 301 10 621 613 412 415 413 176
982 6 2 301 10 128 20 355 409 170 618
983 6 2 301 10 409 170 618 410 171 619
984 6 2 301 10 410 171 619 411 172 620
985 6 2 301 10 411 172 620 412 173 621
986 6 2 301 10 412 173 621 176 29 415
987 6 2 301 10 353 127 24 610 405 181
988 6 2 301 10 610 405 181 611 406 182
989 6 2 301 10 611 406 182 612 407 183
990 6 2 301 10 612 407 183 613 408 184
991 6 2 301 10 613 408 184 413 175 33
992 6 2 301 10 128 353 24 409 610 181
993 6 2 301 10 409 610 181 410 611 182
994 6 2 301 10 410 611 182 411 612 183
995 6 2 301 10 411 612 183 412 613 184
996 6 2 301 10 412 613 184 176 413 33
997 6 2 301 10 22 126 354 166 401 614
998 6 2 301 10 166 401 614 167 402 615
999 6 2 301 10 167 402 615 168 403 616
1000 6 2 301 10 168 403 616 169 404 617
1001 6 2 301 10 169 404 617 31 174 414
1002 6 2 301 10 22 354 108 166 614 390
1003 6 2 301 10 166 614 390 167 615 391
1004 6 2 301 10 167 615 391 168 616 392
1005 6 2 301 10 168 616 392 169 617 393
1006 6 2 301 10 169 617 393 31 414 156
1007 6 2 301 10 355 108 354 618 390 614
1008 6 2 301 10 618 390 614 619 391 615
1009 6 2 301 10 619 391 615 620 392 616
1010 6 2 301 10 620 392 616 621 393 617
1011 6 2 301 10 621 393 617 415 156 414
1012 6 2 301 10 353 355 354 610 618 614
1013 6 2 301 10 610 618 614 611 619 615
1014 6 2 301 10 611 619 615 612 620 616
1015 6 2 301 10 612 620 616 613 621 617
1016 6 2 301 10 613 621 617 413 415 414
1017 6 2 301 11 368 137 25 622 416 188
1018 6 2 301 11 622 416 188 623 417 189
1019 6 2 301 11 623 417 189 624 418 190
1020 6 2 301 11 624 418 190 625 419 191
1021 6 2 301 11 625 419 191 428 185 34
1022 6 2 301 11 25 138 369 188 420 626
1023 6 2 301 11 188 420 626 189 421 627
1024 6 2 301 11 189 421 627 190 422 628
1025 6 2 301 11 190 422 628 191 423 629
1026 6 2 301 11 191 423 629 34 186 429
1027 6 2 301 11 369 368 25 626 622 188
1028 6 2 301 11 626 622 188 627 623 189
1029 6 2 301 11 627 623 189 628 624 190
1030 6 2 301 11 628 624 190 629 625 191
1031 6 2 301 11 629 625 191 429 428 34
1032 6 2 301 11 370 20 128 630 170 409
1033 6 2 301 11 630 170 409 631 171 410
1034 6 2 301 11 631 171 410 632 172 411
1035 6 2 301 11 632 172 411 633 173 412
1036 6 2 301 11 633 173 412 430 29 176
1037 6 2 301 11 139 20 370 424 170 630
1038 6 2 301 11 424 170 630 425 171 631
1039 6 2 301 11 425 171 631 426 172 632
1040 6 2 301 11 426 172 632 427 173 633
1041 6 2 301 11 427 173 633 187 29 430
1042 6 2 301 11 128 368 370 409 622 630
1043 6 2 301 11 409 622 630 410 623 631
1044 6 2 301 11 410 623 631 411 624 632
1045 6 2 301 11 411 624 632 412 625 633
1046 6 2 301 11 412 625 633 176 428 430
1047 6 2 301 11 369 138 26 626 420 192
1048 6 2 301 11 626 420 192 627 421 193
1049 6 2 301 11 627 421 193 628 422 194
1050 6 2 301 11 628 422 194 629 423 195
1051 6 2 301 11 629 423 195 429 186 35
1052 6 2 301 11 139 369 26 424 626 192
1053 6 2 301 11 424 626 192 425 627 193
1054 6 2 301 11 425 627 193 426 628 194
1055 6 2 301 11 426 628 194 427 629 195
1056 6 2 301 11 427 629 195 187 429 35
1057 6 2 301 11 24 137 368 181 416 622
1058 6 2 301 11 181 416 622 182 417 623
1059 6 2 301 11 182 417 623 183 418 624
1060 6 2 301 11 183 418 624 184 419 625
1061 6 2 301 11 184 419 625 33 185 428
1062 6 2 301 11 24 368 128 181 622 409
1063 6 2 301 11 181 622 409 182 623 410
1064 6 2 301 11 182 623 410 183 624 411
1065 6 2 301 11 183 624 411 184 625 412
1066 6 2 301 11 184 625 412 33 428 176
1067 6 2 301 11 369 139 370 626 424 630
1068 6 2 301 11 626 424 630 627 425 631
1069 6 2 301 11 627 425 631 628 426 632
1070 6 2 301 11 628 426 632 629 427 633
1071 6 2 301 11 629 427 633 429 187 430
1072 6 2 301 11 369 370 368 626 630 622
1073 6 2 301 11 626 630 622 627 631 623
1074 6 2 301 11 627 631 623 628 632 624
1075 6 2 301 11 628 632 624 629 633 625
1076 6 2 301 11 629 633 625 429 430 428
1077 6 2 301 12 27 149 379 198 435 634
1078 6 2 301 12 198 435 634 199 436 635
1079 6 2 301 12 199 436 635 200 437 636
1080 6 2 301 12 200 437 636 201 438 637
1081 6 2 301 12 201 438 637 36 197 439
1082 6 2 301 12 380 148 27 638 431 198
1083 6 2 301 12 638 431 198 639 432 199
1084 6 2 301 12 639 432 199 640 433 200
1085 6 2 301 12 640 433 200 641 434 201
1086 6 2 301 12 641 434 201 440 196 36
1087 6 2 301 12 27 379 380 198 634 638
1088 6 2 301 12 198 634 638 199 635 639
1089 6 2 301 12 199 635 639 200 636 640
1090 6 2 301 12 200 636 640 201 637 641
1091 6 2 301 12 201 637 641 36 439 440
1092 6 2 301 12 109 20 381 394 170 642
1093 6 2 301 12 394 170 642 395 171 643
1094 6 2 301 12 395 171 643 396 172 644
1095 6 2 301 12 396 172 644 397 173 645
1096 6 2 301 12 397 173 645 157 29 441
1097 6 2 301 12 381 20 139 642 170 424
1098 6 2 301 12 642 170 424 643 171 425
1099 6 2 301 12 643 171 425 644 172 426
1100 6 2 301 12 644 172 426 645 173 427
1101 6 2 301 12 645 173 427 441 29 187
1102 6 2 301 12 381 379 109 642 634 394
1103 6 2 301 12 642 634 394 643 635 395
1104 6 2 301 12 643 635 395 644 636 396
1105 6 2 301 12 644 636 396 645 637 397
1106 6 2 301 12 645 637 397 441 439 157
1107 6 2 301 12 26 148 380 192 431 638
1108 6 2 301 12 192 431 638 193 432 639
1109 6 2 301 12 193 432 639 194 433 640
1110 6 2 301 12 194 433 640 195 434 641
1111 6 2 301 12 195 434 641 35 196 440
1112 6 2 301 12 26 380 139 192 638 424
1113 6 2 301 12 192 638 424 193 639 425
1114 6 2 301 12 193 639 425 194 640 426
1115 6 2 301 12 194 640 426 195 641 427
1116 6 2 301 12 195 641 427 35 440 187
1117 6 2 301 12 379 149 19 634 435 158
1118 6 2 301 12 634 435 158 635 436 159
1119 6 2 301 12 635 436 159 636 437 160
1120 6 2 301 12 636 437 160 637 438 161
1121 6 2 301 12 637 438 161 439 197 28
1122 6 2 301 12 109 379 19 394 634 158
1123 6 2 301 12 394 634 158 395 635 159
1124 6 2 301 12 395 635 159 396 636 160
1125 6 2 301 12 396 636 160 397 637 161
1126 6 2 301 12 397 637 161 157 439 28
1127 6 2 301 12 381 139 380 642 424 638
1128 6 2 301 12 642 424 638 643 425 639
1129 6 2 301 12 643 425 639 644 426 640
1130 6 2 301 12 644 426 640 645 427 641
1131 6 2 301 12 645 427 641 441 187 440
1132 6 2 301 12 379 381 380 634 642 638
1133 6 2 301 12 634 642 638 635 643 639
1134 6 2 301 12 635 643 639 636 644 640
1135 6 2 301 12 636 644 640 637 645 641
1136 6 2 301 12 637 645 641 439 441 440
1137 6 2 301 13 398 154 30 646 442 210
1138 6 2 301 13 646 442 210 647 443 211
1139 6 2 301 13 647 443 211 648 444 212
1140 6 2 301 13 648 444 212 649 445 213
1141 6 2 301 13 649 445 213 458 202 39
1142 6 2 301 13 30 155 399 210 446 650
1143 6 2 301 13 210 446 650 211 447 651
1144 6 2 301 13 211 447 651 212 448 652
1145 6 2 301 13 212 448 652 213 449 653
1146 6 2 301 13 213 449 653 39 203 459
1147 6 2 301 13 399 398 30 650 646 210
1148 6 2 301 13 650 646 210 651 647 211
1149 6 2 301 13 651 647 211 652 648 212
1150 6 2 301 13 652 648 212 653 649 213
1151 6 2 301 13 653 649 213 459 458 39
1152 6 2 301 13 400 29 157 654 218 454
1153 6 2 301 13 654 218 454 655 219 455
1154 6 2 301 13 655 219 455 656 220 456
1155 6 2 301 13 656 220 456 657 221 457
1156 6 2 301 13 657 221 457 460 38 205
1157 6 2 301 13 156 29 400 450 218 654
1158 6 2 301 13 450 218 654 451 219 655
1159 6 2 301 13 451 219 655 452 220 656
1160 6 2 301 13 452 220 656 453 221 657
1161 6 2 301 13 453 221 657 204 38 460
1162 6 2 301 13 157 398 400 454 646 654
1163 6 2 301 13 454 646 654 455 647 655
1164 6 2 301 13 455 647 655 456 648 656
1165 6 2 301 13 456 648 656 457 649 657
1166 6 2 301 13 457 649 657 205 458 460
1167 6 2 301 13 28 154 398 206 442 646
1168 6 2 301 13 206 442 646 207 443 647
1169 6 2 301 13 207 443 647 208 444 648
1170 6 2 301 13 208 444 648 209 445 649
1171 6 2 301 13 209 445 649 37 202 458
1172 6 2 301 13 28 398 157 206 646 454
1173 6 2 301 13 206 646 454 207 647 455
1174 6 2 301 13 207 647 455 208 648 456
1175 6 2 301 13 208 648 456 209 649 457
1176 6 2 301 13 209 649 457 37 458 205
1177 6 2 301 13 399 155 31 650 446 214
1178 6 2 301 13 650 446 214 651 447 215
1179 6 2 301 13 651 447 215 652 448 216
1180 6 2 301 13 652 448 216 653 449 217
1181 6 2 301 13 653 449 217 459 203 40
1182 6 2 301 13 156 399 31 450 650 214
1183 6 2 301 13 450 650 214 451 651 215
1184 6 2 301 13 451 651 215 452 652 216
1185 6 2 301 13 452 652 216 453 653 217
1186 6 2 301 13 453 653 217 204 459 40
1187 6 2 301 13 399 156 400 650 450 654
1188 6 2 301 13 650 450 654 651 451 655
1189 6 2 301 13 651 451 655 652 452 656
1190 6 2 301 13 652 452 656 653 453 657
1191 6 2 301 13 653 453 657 459 204 460
1192 6 2 301 13 399 400 398 650 654 646
1193 6 2 301 13 650 654 646 651 655 647
1194 6 2 301 13 651 655 647 652 656 648
1195 6 2 301 13 652 656 648 653 657 649
1196 6 2 301 13 653 657 649 459 460 458
1197 6 2 301 14 32 175 413 225 465 658
1198 6 2 301 14 225 465 658 226 466 659
1199 6 2 301 14 226 466 659 227 467 660
1200 6 2 301 14 227 467 660 228 468 661
1201 6 2 301 14 228 468 661 41 223 473
1202 6 2 301 14 414 174 32 662 461 225
1203 6 2 301 14 662 461 225 663 462 226
1204 6 2 301 14 663 462 226 664 463 227
1205 6 2 301 14 664 463 227 665 464 228
1206 6 2 301 14 665 464 228 474 222 41
1207 6 2 301 14 32 413 414 225 658 662
1208 6 2 301 14 225 658 662 226 659 663
1209 6 2 301 14 226 659 663 227 660 664
1210 6 2 301 14 227 660 664 228 661 665
1211 6 2 301 14 228 661 665 41 473 474
1212 6 2 301 14 415 29 156 666 218 450
1213 6 2 301 14 666 218 450 667 219 451
1214 6 2 301 14 667 219 451 668 220 452
1215 6 2 301 14 668 220 452 669 221 453
1216 6 2 301 14 669 221 453 475 38 204
1217 6 2 301 14 415 413 176 666 658 469
1218 6 2 301 14 666 658 469 667 659 470
1219 6 2 301 14 667 659 470 668 660 471
1220 6 2 301 14 668 660 471 669 661 472
1221 6 2 301 14 669 661 472 475 473 224
1222 6 2 301 14 176 29 415 469 218 666
1223 6 2 301 14 469 218 666 470 219 667
1224 6 2 301 14 470 219 667 471 220 668
1225 6 2 301 14 471 220 668 472 221 669
1226 6 2 301 14 472 221 669 224 38 475
1227 6 2 301 14 413 175 33 658 465 229
1228 6 2 301 14 658 465 229 659 466 230
1229 6 2 301 14 659 466 230 660 467 231
1230 6 2 301 14 660 467 231 661 468 232
1231 6 2 301 14 661 468 232 473 223 42
1232 6 2 301 14 176 413 33 469 658 229
1233 6 2 301 14 469 658 229 470 659 230
1234 6 2 301 14 470 659 230 471 660 231
1235 6 2 301 14 471 660 231 472 661 232
1236 6 2 301 14 472 661 232 224 473 42
1237 6 2 301 14 31 174 414 214 461 662
1238 6 2 301 14 214 461 662 215 462 663
1239 6 2 301 14 215 462 663 216 463 664
1240 6 2 301 14 216 463 664 217 464 665
1241 6 2 301 14 217 464 665 40 222 474
1242 6 2 301 14 31 414 156 214 662 450
1243 6 2 301 14 214 662 450 215 663 451
1244 6 2 301 14 215 663 451 216 664 452
1245 6 2 301 14 216 664 452 217 665 453
1246 6 2 301 14 217 665 453 40 474 204
1247 6 2 301 14 415 156 414 666 450 662
1248 6 2 301 14 666 450 662 667 451 663
1249 6 2 301 14 667 451 663 668 452 664
1250 6 2 301 14 668 452 664 669 453 665
1251 6 2 301 14 669 453 665 475 204 474
1252 6 2 301 14 413 415 414 658 666 662
1253 6 2 301 14 658 666 662 659 667 663
1254 6 2 301 14 659 667 663 660 668 664
1255 6 2 301 14 660 668 664 661 669 665
1256 6 2 301 14 661 669 665 473 475 474
1257 6 2 301 15 428 185 34 670 476 236
1258 6 2 301 15 670 476 236 671 477 237
1259 6 2 301 15 671 477 237 672 478 238
1260 6 2 301 15 672 478 238 673 479 239
1261 6 2 301 15 673 479 239 488 233 43
1262 6 2 301 15 34 186 429 236 480 674
1263 6 2 301 15 236 480 674 237 481 675
1264 6 2 301 15 237 481 675 238 482 676
1265 6 2 301 15 238 482 676 239 483 677
1266 6 2 301 15 239 483 677 43 234 489
1267 6 2 301 15 429 428 34 674 670 236
1268 6 2 301 15 674 670 236 675 671 237
1269 6 2 301 15 675 671 237 676 672 238
1270 6 2 301 15 676 672 238 677 673 239
1271 6 2 301 15 677 673 239 489 488 43
1272 6 2 301 15 430 29 176 678 218 469
1273 6 2 301 15 678 218 469 679 219 470
1274 6 2 301 15 679 219 470 680 220 471
1275 6 2 301 15 680 220 471 681 221 472
1276 6 2 301 15 681 221 472 490 38 224
1277 6 2 301 15 187 29 430 484 218 678
1278 6 2 301 15 484 218 678 485 219 679
1279 6 2 301 15 485 219 679 486 220 680
1280 6 2 301 15 486 220 680 487 221 681
1281 6 2 301 15 487 221 681 235 38 490
1282 6 2 301 15 176 428 430 469 670 678
1283 6 2 301 15 469 670 678 470 671 679
1284 6 2 301 15 470 671 679 471 672 680
1285 6 2 301 15 471 672 680 472 673 681
1286 6 2 301 15 472 673 681 224 488 490
1287 6 2 301 15 429 186 35 674 480 240
1288 6 2 301 15 674 480 240 675 481 241
1289 6 2 301 15 675 481 241 676 482 242
1290 6 2 301 15 676 482 242 677 483 243
1291 6 2 301 15 677 483 243 489 234 44
1292 6 2 301 15 187 429 35 484 674 240
1293 6 2 301 15 484 674 240 485 675 241
1294 6 2 301 15 485 675 241 486 676 242
1295 6 2 301 15 486 676 242 487 677 243
1296 6 2 301 15 487 677 243 235 489 44
1297 6 2 301 15 33 185 428 229 476 670
1298 6 2 301 15 229 476 670 230 477 671
1299 6 2 301 15 230 477 671 231 478 672
1300 6 2 301 15 231 478 672 232 479 673
1301 6 2 301 15 232 479 673 42 233 488
1302 6 2 301 15 33 428 176 229 670 469
1303 6 2 301 15 229 670 469 230 671 470
1304 6 2 301 15 230 671 470 231 672 471
1305 6 2 301 15 231 672 471 232 673 472
1306 6 2 301 15 232 673 472 42 488 224
1307 6 2 301 15 429 187 430 674 484 678
1308 6 2 301 15 674 484 678 675 485 679
1309 6 2 301 15 675 485 679 676 486 680
1310 6 2 301 15 676 486 680 677 487 681
1311 6 2 301 15 677 487 681 489 235 490
1312 6 2 301 15 429 430 428 674 678 670
1313 6 2 301 15 674 678 670 675 679 671
1314 6 2 301 15 675 679 671 676 680 672
1315 6 2 301 15 676 680 672 677 681 673
1316 6 2 301 15 677 681 673 489 490 488
1317 6 2 301 16 36 197 439 246 495 682
1318 6 2 301 16 246 495 682 247 496 683
1319 6 2 301 16 247 496 683 248 497 684
1320 6 2 301 16 248 497 684 249 498 685
1321 6 2 301 16 249 498 685 45 245 499
1322 6 2 301 16 440 196 36 686 491 246
1323 6 2 301 16 686 491 246 687 492 247
1324 6 2 301 16 687 492 247 688 493 248
1325 6 2 301 16 688 493 248 689 494 249
1326 6 2 301 16 689 494 249 500 244 45
1327 6 2 301 16 36 439 440 246 682 686
1328 6 2 301 16 246 682 686 247 683 687
1329 6 2 301 16 247 683 687 248 684 688
1330 6 2 301 16 248 684 688 249 685 689
1331 6 2 301 16 249 685 689 45 499 500
1332 6 2 301 16 157 29 441 454 218 690
1333 6 2 301 16 454 218 690 455 219 691
1334 6 2 301 16 455 219 691 456 220 692
1335 6 2 301 16 456 220 692 457 221 693
1336 6 2 301 16 457 221 693 205 38 501
1337 6 2 301 16 441 29 187 690 218 484
1338 6 2 301 16 690 218 484 691 219 485
1339 6 2 301 16 691 219 485 692 220 486
1340 6 2 301 16 692 220 486 693 221 487
1341 6 2 301 16 693 221 487 501 38 235
1342 6 2 301 16 441 439 157 690 682 454
1343 6 2 301 16 690 682 454 691 683 455
1344 6 2 301 16 691 683 455 692 684 456
1345 6 2 301 16 692 684 456 693 685 457
1346 6 2 301 16 693 685 457 501 499 205
1347 6 2 301 16 35 196 440 240 491 686
1348 6 2 301 16 240 491 686 241 492 687
1349 6 2 301 16 241 492 687 242 493 688
1350 6 2 301 16 242 493 688 243 494 689
1351 6 2 301 16 243 494 689 44 244 500
1352 6 2 301 16 35 440 187 240 686 484
1353 6 2 301 16 240 686 484 241 687 485
1354 6 2 301 16 241 687 485 242 688 486
1355 6 2 301 16 242 688 486 243 689 487
1356 6 2 301 16 243 689 487 44 500 235
1357 6 2 301 16 439 197 28 682 495 206
1358 6 2 301 16 682 495 206 683 496 207
1359 6 2 301 16 683 496 207 684 497 208
1360 6 2 301 16 684 497 208 685 498 209
1361 6 2 301 16 685 498 209 499 245 37
1362 6 2 301 16 157 439 28 454 682 206
1363 6 2 301 16 454 682 206 455 683 207
1364 6 2 301 16 455 683 207 456 684 208
1365 6 2 301 16 456 684 208 457 685 209
1366 6 2 301 16 457 685 209 205 499 37
1367 6 2 301 16 441 187 440 690 484 686
1368 6 2 301 16 690 484 686 691 485 687
1369 6 2 301 16 691 485 687 692 486 688
1370 6 2 301 16 692 486 688 693 487 689
1371 6 2 301 16 693 487 689 501 235 500
1372 6 2 301 16 439 441 440 682 690 686
1373 6 2 301 16 682 690 686 683 691 687
1374 6 2 301 16 683 691 687 684 692 688
1375 6 2 301 16 684 692 688 685 693 689
1376 6 2 301 16 685 693 689 499 501 500
$EndElements
