$MeshFormat
2.2 0 8
$EndMeshFormat
$Nodes
704
1 1.25 0 0
2 1.45 0 0
3 7.654042494670958e-17 1.25 0
4 8.878689293818311e-17 1.45 0
5 -1.25 1.530808498934192e-16 0
6 -1.45 1.775737858763662e-16 0
7 -2.296212748401287e-16 -1.25 0
8 -2.663606788145493e-16 -1.45 0
9 1.25 0 12.5
10 1.45 0 12.5
11 8.878689293818311e-17 1.45 12.5
12 7.654042494670958e-17 1.25 12.5
13 -1.45 1.775737858763662e-16 12.5
14 -1.25 1.530808498934192e-16 12.5
15 -2.663606788145493e-16 -1.45 12.5
16 -2.296212748401287e-16 -1.25 12.5
17 1.225981600504038 0.2438629025201603 0
18 1.154849415639108 0.4783542904563622 0
19 1.039337015378182 0.6944627912745027 0
20 0.8838834764831844 0.8838834764831843 0
21 0.6944627912745028 1.039337015378182 0
22 0.4783542904563623 1.154849415639108 0
23 0.2438629025201604 1.225981600504038 0
24 1.422138656584684 0.2828809669233859 0
25 1.339625322141366 0.5548909769293802 0
26 1.20563093783869 0.8055768378784232 0
27 1.025304832720494 1.025304832720494 0
28 0.8055768378784233 1.20563093783869 0
29 0.5548909769293803 1.339625322141366 0
30 0.282880966923386 1.422138656584684 0
31 -0.2438629025201602 1.225981600504038 0
32 -0.4783542904563622 1.154849415639108 0
33 -0.6944627912745026 1.039337015378182 0
34 -0.8838834764831843 0.8838834764831844 0
35 -1.039337015378182 0.6944627912745029 0
36 -1.154849415639108 0.4783542904563624 0
37 -1.225981600504038 0.2438629025201605 0
38 -0.2828809669233858 1.422138656584684 0
39 -0.5548909769293801 1.339625322141366 0
40 -0.805576837878423 1.20563093783869 0
41 -1.025304832720494 1.025304832720494 0
42 -1.20563093783869 0.8055768378784234 0
43 -1.339625322141366 0.5548909769293804 0
44 -1.422138656584684 0.2828809669233862 0
45 -1.225981600504038 -0.2438629025201602 0
46 -1.154849415639108 -0.4783542904563621 0
47 -1.039337015378182 -0.6944627912745026 0
48 -0.8838834764831845 -0.8838834764831842 0
49 -0.6944627912745029 -1.039337015378182 0
50 -0.4783542904563625 -1.154849415639108 0
51 -0.2438629025201605 -1.225981600504038 0
52 -1.422138656584684 -0.2828809669233858 0
53 -1.339625322141366 -0.5548909769293801 0
54 -1.20563093783869 -0.805576837878423 0
55 -1.025304832720494 -1.025304832720494 0
56 -0.8055768378784234 -1.20563093783869 0
57 -0.5548909769293804 -1.339625322141366 0
58 -0.2828809669233862 -1.422138656584684 0
59 0.2438629025201601 -1.225981600504038 0
60 0.478354290456362 -1.154849415639108 0
61 0.6944627912745025 -1.039337015378182 0
62 0.8838834764831842 -0.8838834764831845 0
63 1.039337015378181 -0.6944627912745031 0
64 1.154849415639108 -0.4783542904563625 0
65 1.225981600504038 -0.2438629025201606 0
66 0.2828809669233857 -1.422138656584684 0
67 0.5548909769293799 -1.339625322141366 0
68 0.8055768378784229 -1.205630937838691 0
69 1.025304832720494 -1.025304832720494 0
70 1.20563093783869 -0.8055768378784235 0
71 1.339625322141366 -0.5548909769293805 0
72 1.422138656584684 -0.2828809669233863 0
73 1.422138656584684 0.2828809669233859 12.5
74 1.339625322141366 0.5548909769293802 12.5
75 1.20563093783869 0.8055768378784232 12.5
76 1.025304832720494 1.025304832720494 12.5
77 0.8055768378784233 1.20563093783869 12.5
78 0.5548909769293803 1.339625322141366 12.5
79 0.282880966923386 1.422138656584684 12.5
80 0.2438629025201604 1.225981600504038 12.5
81 0.4783542904563623 1.154849415639108 12.5
82 0.6944627912745028 1.039337015378182 12.5
83 0.8838834764831844 0.8838834764831843 12.5
84 1.039337015378182 0.6944627912745027 12.5
85 1.154849415639108 0.4783542904563622 12.5
86 1.225981600504038 0.2438629025201603 12.5
87 1.25 0 1.25
88 1.25 0 2.5
89 1.25 0 3.75
90 1.25 0 5
91 1.25 0 6.25
92 1.25 0 7.5
93 1.25 0 8.75
94 1.25 0 10
95 1.25 0 11.25
96 1.45 0 1.25
97 1.45 0 2.5
98 1.45 0 3.75
99 1.45 0 5
100 1.45 0 6.25
101 1.45 0 7.5
102 1.45 0 8.75
103 1.45 0 10
104 1.45 0 11.25
105 8.878689293818311e-17 1.45 1.25
106 8.878689293818311e-17 1.45 2.5
107 8.878689293818311e-17 1.45 3.75
108 8.878689293818311e-17 1.45 5
109 8.878689293818311e-17 1.45 6.25
110 8.878689293818311e-17 1.45 7.5
111 8.878689293818311e-17 1.45 8.75
112 8.878689293818311e-17 1.45 10
113 8.878689293818311e-17 1.45 11.25
114 7.654042494670958e-17 1.25 1.25
115 7.654042494670958e-17 1.25 2.5
116 7.654042494670958e-17 1.25 3.75
117 7.654042494670958e-17 1.25 5
118 7.654042494670958e-17 1.25 6.25
119 7.654042494670958e-17 1.25 7.5
120 7.654042494670958e-17 1.25 8.75
121 7.654042494670958e-17 1.25 10
122 7.654042494670958e-17 1.25 11.25
123 -0.2828809669233858 1.422138656584684 12.5
124 -0.5548909769293801 1.339625322141366 12.5
125 -0.805576837878423 1.20563093783869 12.5
126 -1.025304832720494 1.025304832720494 12.5
127 -1.20563093783869 0.8055768378784234 12.5
128 -1.339625322141366 0.5548909769293804 12.5
129 -1.422138656584684 0.2828809669233862 12.5
130 -1.225981600504038 0.2438629025201605 12.5
131 -1.154849415639108 0.4783542904563624 12.5
132 -1.039337015378182 0.6944627912745029 12.5
133 -0.8838834764831843 0.8838834764831844 12.5
134 -0.6944627912745026 1.039337015378182 12.5
135 -0.4783542904563622 1.154849415639108 12.5
136 -0.2438629025201602 1.225981600504038 12.5
137 -1.45 1.775737858763662e-16 1.25
138 -1.45 1.775737858763662e-16 2.5
139 -1.45 1.775737858763662e-16 3.75
140 -1.45 1.775737858763662e-16 5
141 -1.45 1.775737858763662e-16 6.25
142 -1.45 1.775737858763662e-16 7.5
143 -1.45 1.775737858763662e-16 8.75
144 -1.45 1.775737858763662e-16 10
145 -1.45 1.775737858763662e-16 11.25
146 -1.25 1.530808498934192e-16 1.25
147 -1.25 1.530808498934192e-16 2.5
148 -1.25 1.530808498934192e-16 3.75
149 -1.25 1.530808498934192e-16 5
150 -1.25 1.530808498934192e-16 6.25
151 -1.25 1.530808498934192e-16 7.5
152 -1.25 1.530808498934192e-16 8.75
153 -1.25 1.530808498934192e-16 10
154 -1.25 1.530808498934192e-16 11.25
155 -1.422138656584684 -0.2828809669233858 12.5
156 -1.339625322141366 -0.5548909769293801 12.5
157 -1.20563093783869 -0.805576837878423 12.5
158 -1.025304832720494 -1.025304832720494 12.5
159 -0.8055768378784234 -1.20563093783869 12.5
160 -0.5548909769293804 -1.339625322141366 12.5
161 -0.2828809669233862 -1.422138656584684 12.5
162 -0.2438629025201605 -1.225981600504038 12.5
163 -0.4783542904563625 -1.154849415639108 12.5
164 -0.6944627912745029 -1.039337015378182 12.5
165 -0.8838834764831845 -0.8838834764831842 12.5
166 -1.039337015378182 -0.6944627912745026 12.5
167 -1.154849415639108 -0.4783542904563621 12.5
168 -1.225981600504038 -0.2438629025201602 12.5
169 -2.663606788145493e-16 -1.45 1.25
170 -2.663606788145493e-16 -1.45 2.5
171 -2.663606788145493e-16 -1.45 3.75
172 -2.663606788145493e-16 -1.45 5
173 -2.663606788145493e-16 -1.45 6.25
174 -2.663606788145493e-16 -1.45 7.5
175 -2.663606788145493e-16 -1.45 8.75
176 -2.663606788145493e-16 -1.45 10
177 -2.663606788145493e-16 -1.45 11.25
178 -2.296212748401287e-16 -1.25 1.25
179 -2.296212748401287e-16 -1.25 2.5
180 -2.296212748401287e-16 -1.25 3.75
181 -2.296212748401287e-16 -1.25 5
182 -2.296212748401287e-16 -1.25 6.25
183 -2.296212748401287e-16 -1.25 7.5
184 -2.296212748401287e-16 -1.25 8.75
185 -2.296212748401287e-16 -1.25 10
186 -2.296212748401287e-16 -1.25 11.25
187 0.2828809669233857 -1.422138656584684 12.5
188 0.5548909769293799 -1.339625322141366 12.5
189 0.8055768378784229 -1.205630937838691 12.5
190 1.025304832720494 -1.025304832720494 12.5
191 1.20563093783869 -0.8055768378784235 12.5
192 1.339625322141366 -0.5548909769293805 12.5
193 1.422138656584684 -0.2828809669233863 12.5
194 1.225981600504038 -0.2438629025201606 12.5
195 1.154849415639108 -0.4783542904563625 12.5
196 1.039337015378181 -0.6944627912745031 12.5
197 0.8838834764831842 -0.8838834764831845 12.5
198 0.6944627912745025 -1.039337015378182 12.5
199 0.478354290456362 -1.154849415639108 12.5
200 0.2438629025201601 -1.225981600504038 12.5
201 1.422138656584684 0.2828809669233859 1.25
202 1.422138656584684 0.2828809669233859 2.5
203 1.422138656584684 0.2828809669233859 3.75
204 1.422138656584684 0.2828809669233859 5
205 1.422138656584684 0.2828809669233859 6.25
206 1.422138656584684 0.2828809669233859 7.5
207 1.422138656584684 0.2828809669233859 8.75
208 1.422138656584684 0.2828809669233859 10
209 1.422138656584684 0.2828809669233859 11.25
210 1.339625322141366 0.5548909769293802 1.25
211 1.339625322141366 0.5548909769293802 2.5
212 1.339625322141366 0.5548909769293802 3.75
213 1.339625322141366 0.5548909769293802 5
214 1.339625322141366 0.5548909769293802 6.25
215 1.339625322141366 0.5548909769293802 7.5
216 1.339625322141366 0.5548909769293802 8.75
217 1.339625322141366 0.5548909769293802 10
218 1.339625322141366 0.5548909769293802 11.25
219 1.20563093783869 0.8055768378784232 1.25
220 1.20563093783869 0.8055768378784232 2.5
221 1.20563093783869 0.8055768378784232 3.75
222 1.20563093783869 0.8055768378784232 5
223 1.20563093783869 0.8055768378784232 6.25
224 1.20563093783869 0.8055768378784232 7.5
225 1.20563093783869 0.8055768378784232 8.75
226 1.20563093783869 0.8055768378784232 10
227 1.20563093783869 0.8055768378784232 11.25
228 1.025304832720494 1.025304832720494 1.25
229 1.025304832720494 1.025304832720494 2.5
230 1.025304832720494 1.025304832720494 3.75
231 1.025304832720494 1.025304832720494 5
232 1.025304832720494 1.025304832720494 6.25
233 1.025304832720494 1.025304832720494 7.5
234 1.025304832720494 1.025304832720494 8.75
235 1.025304832720494 1.025304832720494 10
236 1.025304832720494 1.025304832720494 11.25
237 0.8055768378784233 1.20563093783869 1.25
238 0.8055768378784233 1.20563093783869 2.5
239 0.8055768378784233 1.20563093783869 3.75
240 0.8055768378784233 1.20563093783869 5
241 0.8055768378784233 1.20563093783869 6.25
242 0.8055768378784233 1.20563093783869 7.5
243 0.8055768378784233 1.20563093783869 8.75
244 0.8055768378784233 1.20563093783869 10
245 0.8055768378784233 1.20563093783869 11.25
246 0.5548909769293803 1.339625322141366 1.25
247 0.5548909769293803 1.339625322141366 2.5
248 0.5548909769293803 1.339625322141366 3.75
249 0.5548909769293803 1.339625322141366 5
250 0.5548909769293803 1.339625322141366 6.25
251 0.5548909769293803 1.339625322141366 7.5
252 0.5548909769293803 1.339625322141366 8.75
253 0.5548909769293803 1.339625322141366 10
254 0.5548909769293803 1.339625322141366 11.25
255 0.282880966923386 1.422138656584684 1.25
256 0.282880966923386 1.422138656584684 2.5
257 0.282880966923386 1.422138656584684 3.75
258 0.282880966923386 1.422138656584684 5
259 0.282880966923386 1.422138656584684 6.25
260 0.282880966923386 1.422138656584684 7.5
261 0.282880966923386 1.422138656584684 8.75
262 0.282880966923386 1.422138656584684 10
263 0.282880966923386 1.422138656584684 11.25
264 1.225981600504038 0.2438629025201603 1.25
265 1.225981600504038 0.2438629025201603 2.5
266 1.225981600504038 0.2438629025201603 3.75
267 1.225981600504038 0.2438629025201603 5
268 1.225981600504038 0.2438629025201603 6.25
269 1.225981600504038 0.2438629025201603 7.5
270 1.225981600504038 0.2438629025201603 8.75
271 1.225981600504038 0.2438629025201603 10
272 1.225981600504038 0.2438629025201603 11.25
273 1.154849415639108 0.4783542904563622 1.25
274 1.154849415639108 0.4783542904563622 2.5
275 1.154849415639108 0.4783542904563622 3.75
276 1.154849415639108 0.4783542904563622 5
277 1.154849415639108 0.4783542904563622 6.25
278 1.154849415639108 0.4783542904563622 7.5
279 1.154849415639108 0.4783542904563622 8.75
280 1.154849415639108 0.4783542904563622 10
281 1.154849415639108 0.4783542904563622 11.25
282 1.039337015378182 0.6944627912745027 1.25
283 1.039337015378182 0.6944627912745027 2.5
284 1.039337015378182 0.6944627912745027 3.75
285 1.039337015378182 0.6944627912745027 5
286 1.039337015378182 0.6944627912745027 6.25
287 1.039337015378182 0.6944627912745027 7.5
288 1.039337015378182 0.6944627912745027 8.75
289 1.039337015378182 0.6944627912745027 10
290 1.039337015378182 0.6944627912745027 11.25
291 0.8838834764831844 0.8838834764831843 1.25
292 0.8838834764831844 0.8838834764831843 2.5
293 0.8838834764831844 0.8838834764831843 3.75
294 0.8838834764831844 0.8838834764831843 5
295 0.8838834764831844 0.8838834764831843 6.25
296 0.8838834764831844 0.8838834764831843 7.5
297 0.8838834764831844 0.8838834764831843 8.75
298 0.8838834764831844 0.8838834764831843 10
299 0.8838834764831844 0.8838834764831843 11.25
300 0.6944627912745028 1.039337015378182 1.25
301 0.6944627912745028 1.039337015378182 2.5
302 0.6944627912745028 1.039337015378182 3.75
303 0.6944627912745028 1.039337015378182 5
304 0.6944627912745028 1.039337015378182 6.25
305 0.6944627912745028 1.039337015378182 7.5
306 0.6944627912745028 1.039337015378182 8.75
307 0.6944627912745028 1.039337015378182 10
308 0.6944627912745028 1.039337015378182 11.25
309 0.4783542904563623 1.154849415639108 1.25
310 0.4783542904563623 1.154849415639108 2.5
311 0.4783542904563623 1.154849415639108 3.75
312 0.4783542904563623 1.154849415639108 5
313 0.4783542904563623 1.154849415639108 6.25
314 0.4783542904563623 1.154849415639108 7.5
315 0.4783542904563623 1.154849415639108 8.75
316 0.4783542904563623 1.154849415639108 10
317 0.4783542904563623 1.154849415639108 11.25
318 0.2438629025201604 1.225981600504038 1.25
319 0.2438629025201604 1.225981600504038 2.5
320 0.2438629025201604 1.225981600504038 3.75
321 0.2438629025201604 1.225981600504038 5
322 0.2438629025201604 1.225981600504038 6.25
323 0.2438629025201604 1.225981600504038 7.5
324 0.2438629025201604 1.225981600504038 8.75
325 0.2438629025201604 1.225981600504038 10
326 0.2438629025201604 1.225981600504038 11.25
327 -0.2828809669233858 1.422138656584684 1.25
328 -0.2828809669233858 1.422138656584684 2.5
329 -0.2828809669233858 1.422138656584684 3.75
330 -0.2828809669233858 1.422138656584684 5
331 -0.2828809669233858 1.422138656584684 6.25
332 -0.2828809669233858 1.422138656584684 7.5
333 -0.2828809669233858 1.422138656584684 8.75
334 -0.2828809669233858 1.422138656584684 10
335 -0.2828809669233858 1.422138656584684 11.25
336 -0.5548909769293801 1.339625322141366 1.25
337 -0.5548909769293801 1.339625322141366 2.5
338 -0.5548909769293801 1.339625322141366 3.75
339 -0.5548909769293801 1.339625322141366 5
340 -0.5548909769293801 1.339625322141366 6.25
341 -0.5548909769293801 1.339625322141366 7.5
342 -0.5548909769293801 1.339625322141366 8.75
343 -0.5548909769293801 1.339625322141366 10
344 -0.5548909769293801 1.339625322141366 11.25
345 -0.805576837878423 1.20563093783869 1.25
346 -0.805576837878423 1.20563093783869 2.5
347 -0.805576837878423 1.20563093783869 3.75
348 -0.805576837878423 1.20563093783869 5
349 -0.805576837878423 1.20563093783869 6.25
350 -0.805576837878423 1.20563093783869 7.5
351 -0.805576837878423 1.20563093783869 8.75
352 -0.805576837878423 1.20563093783869 10
353 -0.805576837878423 1.20563093783869 11.25
354 -1.025304832720494 1.025304832720494 1.25
355 -1.025304832720494 1.025304832720494 2.5
356 -1.025304832720494 1.025304832720494 3.75
357 -1.025304832720494 1.025304832720494 5
358 -1.025304832720494 1.025304832720494 6.25
359 -1.025304832720494 1.025304832720494 7.5
360 -1.025304832720494 1.025304832720494 8.75
361 -1.025304832720494 1.025304832720494 10
362 -1.025304832720494 1.025304832720494 11.25
363 -1.20563093783869 0.8055768378784234 1.25
364 -1.20563093783869 0.8055768378784234 2.5
365 -1.20563093783869 0.8055768378784234 3.75
366 -1.20563093783869 0.8055768378784234 5
367 -1.20563093783869 0.8055768378784234 6.25
368 -1.20563093783869 0.8055768378784234 7.5
369 -1.20563093783869 0.8055768378784234 8.75
370 -1.20563093783869 0.8055768378784234 10
371 -1.20563093783869 0.8055768378784234 11.25
372 -1.339625322141366 0.5548909769293804 1.25
373 -1.339625322141366 0.5548909769293804 2.5
374 -1.339625322141366 0.5548909769293804 3.75
375 -1.339625322141366 0.5548909769293804 5
376 -1.339625322141366 0.5548909769293804 6.25
377 -1.339625322141366 0.5548909769293804 7.5
378 -1.339625322141366 0.5548909769293804 8.75
379 -1.339625322141366 0.5548909769293804 10
380 -1.339625322141366 0.5548909769293804 11.25
381 -1.422138656584684 0.2828809669233862 1.25
382 -1.422138656584684 0.2828809669233862 2.5
383 -1.422138656584684 0.2828809669233862 3.75
384 -1.422138656584684 0.2828809669233862 5
385 -1.422138656584684 0.2828809669233862 6.25
386 -1.422138656584684 0.2828809669233862 7.5
387 -1.422138656584684 0.2828809669233862 8.75
388 -1.422138656584684 0.2828809669233862 10
389 -1.422138656584684 0.2828809669233862 11.25
390 -0.2438629025201602 1.225981600504038 1.25
391 -0.2438629025201602 1.225981600504038 2.5
392 -0.2438629025201602 1.225981600504038 3.75
393 -0.2438629025201602 1.225981600504038 5
394 -0.2438629025201602 1.225981600504038 6.25
395 -0.2438629025201602 1.225981600504038 7.5
396 -0.2438629025201602 1.225981600504038 8.75
397 -0.2438629025201602 1.225981600504038 10
398 -0.2438629025201602 1.225981600504038 11.25
399 -0.4783542904563622 1.154849415639108 1.25
400 -0.4783542904563622 1.154849415639108 2.5
401 -0.4783542904563622 1.154849415639108 3.75
402 -0.4783542904563622 1.154849415639108 5
403 -0.4783542904563622 1.154849415639108 6.25
404 -0.4783542904563622 1.154849415639108 7.5
405 -0.4783542904563622 1.154849415639108 8.75
406 -0.4783542904563622 1.154849415639108 10
407 -0.4783542904563622 1.154849415639108 11.25
408 -0.6944627912745026 1.039337015378182 1.25
409 -0.6944627912745026 1.039337015378182 2.5
410 -0.6944627912745026 1.039337015378182 3.75
411 -0.6944627912745026 1.039337015378182 5
412 -0.6944627912745026 1.039337015378182 6.25
413 -0.6944627912745026 1.039337015378182 7.5
414 -0.6944627912745026 1.039337015378182 8.75
415 -0.6944627912745026 1.039337015378182 10
416 -0.6944627912745026 1.039337015378182 11.25
417 -0.8838834764831843 0.8838834764831844 1.25
418 -0.8838834764831843 0.8838834764831844 2.5
419 -0.8838834764831843 0.8838834764831844 3.75
420 -0.8838834764831843 0.8838834764831844 5
421 -0.8838834764831843 0.8838834764831844 6.25
422 -0.8838834764831843 0.8838834764831844 7.5
423 -0.8838834764831843 0.8838834764831844 8.75
424 -0.8838834764831843 0.8838834764831844 10
425 -0.8838834764831843 0.8838834764831844 11.25
426 -1.039337015378182 0.6944627912745029 1.25
427 -1.039337015378182 0.6944627912745029 2.5
428 -1.039337015378182 0.6944627912745029 3.75
429 -1.039337015378182 0.6944627912745029 5
430 -1.039337015378182 0.6944627912745029 6.25
431 -1.039337015378182 0.6944627912745029 7.5
432 -1.039337015378182 0.6944627912745029 8.75
433 -1.039337015378182 0.6944627912745029 10
434 -1.039337015378182 0.6944627912745029 11.25
435 -1.154849415639108 0.4783542904563624 1.25
436 -1.154849415639108 0.4783542904563624 2.5
437 -1.154849415639108 0.4783542904563624 3.75
438 -1.154849415639108 0.4783542904563624 5
439 -1.154849415639108 0.4783542904563624 6.25
440 -1.154849415639108 0.4783542904563624 7.5
441 -1.154849415639108 0.4783542904563624 8.75
442 -1.154849415639108 0.4783542904563624 10
443 -1.154849415639108 0.4783542904563624 11.25
444 -1.225981600504038 0.2438629025201605 1.25
445 -1.225981600504038 0.2438629025201605 2.5
446 -1.225981600504038 0.2438629025201605 3.75
447 -1.225981600504038 0.2438629025201605 5
448 -1.225981600504038 0.2438629025201605 6.25
449 -1.225981600504038 0.2438629025201605 7.5
450 -1.225981600504038 0.2438629025201605 8.75
451 -1.225981600504038 0.2438629025201605 10
452 -1.225981600504038 0.2438629025201605 11.25
453 -1.422138656584684 -0.2828809669233858 1.25
454 -1.422138656584684 -0.2828809669233858 2.5
455 -1.422138656584684 -0.2828809669233858 3.75
456 -1.422138656584684 -0.2828809669233858 5
457 -1.422138656584684 -0.2828809669233858 6.25
458 -1.422138656584684 -0.2828809669233858 7.5
459 -1.422138656584684 -0.2828809669233858 8.75
460 -1.422138656584684 -0.2828809669233858 10
461 -1.422138656584684 -0.2828809669233858 11.25
462 -1.339625322141366 -0.5548909769293801 1.25
463 -1.339625322141366 -0.5548909769293801 2.5
464 -1.339625322141366 -0.5548909769293801 3.75
465 -1.339625322141366 -0.5548909769293801 5
466 -1.339625322141366 -0.5548909769293801 6.25
467 -1.339625322141366 -0.5548909769293801 7.5
468 -1.339625322141366 -0.5548909769293801 8.75
469 -1.339625322141366 -0.5548909769293801 10
470 -1.339625322141366 -0.5548909769293801 11.25
471 -1.20563093783869 -0.805576837878423 1.25
472 -1.20563093783869 -0.805576837878423 2.5
473 -1.20563093783869 -0.805576837878423 3.75
474 -1.20563093783869 -0.805576837878423 5
475 -1.20563093783869 -0.805576837878423 6.25
476 -1.20563093783869 -0.805576837878423 7.5
477 -1.20563093783869 -0.805576837878423 8.75
478 -1.20563093783869 -0.805576837878423 10
479 -1.20563093783869 -0.805576837878423 11.25
480 -1.025304832720494 -1.025304832720494 1.25
481 -1.025304832720494 -1.025304832720494 2.5
482 -1.025304832720494 -1.025304832720494 3.75
483 -1.025304832720494 -1.025304832720494 5
484 -1.025304832720494 -1.025304832720494 6.25
485 -1.025304832720494 -1.025304832720494 7.5
486 -1.025304832720494 -1.025304832720494 8.75
487 -1.025304832720494 -1.025304832720494 10
488 -1.025304832720494 -1.025304832720494 11.25
489 -0.8055768378784234 -1.20563093783869 1.25
490 -0.8055768378784234 -1.20563093783869 2.5
491 -0.8055768378784234 -1.20563093783869 3.75
492 -0.8055768378784234 -1.20563093783869 5
493 -0.8055768378784234 -1.20563093783869 6.25
494 -0.8055768378784234 -1.20563093783869 7.5
495 -0.8055768378784234 -1.20563093783869 8.75
496 -0.8055768378784234 -1.20563093783869 10
497 -0.8055768378784234 -1.20563093783869 11.25
498 -0.5548909769293804 -1.339625322141366 1.25
499 -0.5548909769293804 -1.339625322141366 2.5
500 -0.5548909769293804 -1.339625322141366 3.75
501 -0.5548909769293804 -1.339625322141366 5
502 -0.5548909769293804 -1.339625322141366 6.25
503 -0.5548909769293804 -1.339625322141366 7.5
504 -0.5548909769293804 -1.339625322141366 8.75
505 -0.5548909769293804 -1.339625322141366 10
506 -0.5548909769293804 -1.339625322141366 11.25
507 -0.2828809669233862 -1.422138656584684 1.25
508 -0.2828809669233862 -1.422138656584684 2.5
509 -0.2828809669233862 -1.422138656584684 3.75
510 -0.2828809669233862 -1.422138656584684 5
511 -0.2828809669233862 -1.422138656584684 6.25
512 -0.2828809669233862 -1.422138656584684 7.5
513 -0.2828809669233862 -1.422138656584684 8.75
514 -0.2828809669233862 -1.422138656584684 10
515 -0.2828809669233862 -1.422138656584684 11.25
516 -1.225981600504038 -0.2438629025201602 1.25
517 -1.225981600504038 -0.2438629025201602 2.5
518 -1.225981600504038 -0.2438629025201602 3.75
519 -1.225981600504038 -0.2438629025201602 5
520 -1.225981600504038 -0.2438629025201602 6.25
521 -1.225981600504038 -0.2438629025201602 7.5
522 -1.225981600504038 -0.2438629025201602 8.75
523 -1.225981600504038 -0.2438629025201602 10
524 -1.225981600504038 -0.2438629025201602 11.25
525 -1.154849415639108 -0.4783542904563621 1.25
526 -1.154849415639108 -0.4783542904563621 2.5
527 -1.154849415639108 -0.4783542904563621 3.75
528 -1.154849415639108 -0.4783542904563621 5
529 -1.154849415639108 -0.4783542904563621 6.25
530 -1.154849415639108 -0.4783542904563621 7.5
531 -1.154849415639108 -0.4783542904563621 8.75
532 -1.154849415639108 -0.4783542904563621 10
533 -1.154849415639108 -0.4783542904563621 11.25
534 -1.039337015378182 -0.6944627912745026 1.25
535 -1.039337015378182 -0.6944627912745026 2.5
536 -1.039337015378182 -0.6944627912745026 3.75
537 -1.039337015378182 -0.6944627912745026 5
538 -1.039337015378182 -0.6944627912745026 6.25
539 -1.039337015378182 -0.6944627912745026 7.5
540 -1.039337015378182 -0.6944627912745026 8.75
541 -1.039337015378182 -0.6944627912745026 10
542 -1.039337015378182 -0.6944627912745026 11.25
543 -0.8838834764831845 -0.8838834764831842 1.25
544 -0.8838834764831845 -0.8838834764831842 2.5
545 -0.8838834764831845 -0.8838834764831842 3.75
546 -0.8838834764831845 -0.8838834764831842 5
547 -0.8838834764831845 -0.8838834764831842 6.25
548 -0.8838834764831845 -0.8838834764831842 7.5
549 -0.8838834764831845 -0.8838834764831842 8.75
550 -0.8838834764831845 -0.8838834764831842 10
551 -0.8838834764831845 -0.8838834764831842 11.25
552 -0.6944627912745029 -1.039337015378182 1.25
553 -0.6944627912745029 -1.039337015378182 2.5
554 -0.6944627912745029 -1.039337015378182 3.75
555 -0.6944627912745029 -1.039337015378182 5
556 -0.6944627912745029 -1.039337015378182 6.25
557 -0.6944627912745029 -1.039337015378182 7.5
558 -0.6944627912745029 -1.039337015378182 8.75
559 -0.6944627912745029 -1.039337015378182 10
560 -0.6944627912745029 -1.039337015378182 11.25
561 -0.4783542904563625 -1.154849415639108 1.25
562 -0.4783542904563625 -1.154849415639108 2.5
563 -0.4783542904563625 -1.154849415639108 3.75
564 -0.4783542904563625 -1.154849415639108 5
565 -0.4783542904563625 -1.154849415639108 6.25
566 -0.4783542904563625 -1.154849415639108 7.5
567 -0.4783542904563625 -1.154849415639108 8.75
568 -0.4783542904563625 -1.154849415639108 10
569 -0.4783542904563625 -1.154849415639108 11.25
570 -0.2438629025201605 -1.225981600504038 1.25
571 -0.2438629025201605 -1.225981600504038 2.5
572 -0.2438629025201605 -1.225981600504038 3.75
573 -0.2438629025201605 -1.225981600504038 5
574 -0.2438629025201605 -1.225981600504038 6.25
575 -0.2438629025201605 -1.225981600504038 7.5
576 -0.2438629025201605 -1.225981600504038 8.75
577 -0.2438629025201605 -1.225981600504038 10
578 -0.2438629025201605 -1.225981600504038 11.25
579 0.2828809669233857 -1.422138656584684 1.25
580 0.2828809669233857 -1.422138656584684 2.5
581 0.2828809669233857 -1.422138656584684 3.75
582 0.2828809669233857 -1.422138656584684 5
583 0.2828809669233857 -1.422138656584684 6.25
584 0.2828809669233857 -1.422138656584684 7.5
585 0.2828809669233857 -1.422138656584684 8.75
586 0.2828809669233857 -1.422138656584684 10
587 0.2828809669233857 -1.422138656584684 11.25
588 0.5548909769293799 -1.339625322141366 1.25
589 0.5548909769293799 -1.339625322141366 2.5
590 0.5548909769293799 -1.339625322141366 3.75
591 0.5548909769293799 -1.339625322141366 5
592 0.5548909769293799 -1.339625322141366 6.25
593 0.5548909769293799 -1.339625322141366 7.5
594 0.5548909769293799 -1.339625322141366 8.75
595 0.5548909769293799 -1.339625322141366 10
596 0.5548909769293799 -1.339625322141366 11.25
597 0.8055768378784229 -1.205630937838691 1.25
598 0.8055768378784229 -1.205630937838691 2.5
599 0.8055768378784229 -1.205630937838691 3.75
600 0.8055768378784229 -1.205630937838691 5
601 0.8055768378784229 -1.205630937838691 6.25
602 0.8055768378784229 -1.205630937838691 7.5
603 0.8055768378784229 -1.205630937838691 8.75
604 0.8055768378784229 -1.205630937838691 10
605 0.8055768378784229 -1.205630937838691 11.25
606 1.025304832720494 -1.025304832720494 1.25
607 1.025304832720494 -1.025304832720494 2.5
608 1.025304832720494 -1.025304832720494 3.75
609 1.025304832720494 -1.025304832720494 5
610 1.025304832720494 -1.025304832720494 6.25
611 1.025304832720494 -1.025304832720494 7.5
612 1.025304832720494 -1.025304832720494 8.75
613 1.025304832720494 -1.025304832720494 10
614 1.025304832720494 -1.025304832720494 11.25
615 1.20563093783869 -0.8055768378784235 1.25
616 1.20563093783869 -0.8055768378784235 2.5
617 1.20563093783869 -0.8055768378784235 3.75
618 1.20563093783869 -0.8055768378784235 5
619 1.20563093783869 -0.8055768378784235 6.25
620 1.20563093783869 -0.8055768378784235 7.5
621 1.20563093783869 -0.8055768378784235 8.75
622 1.20563093783869 -0.8055768378784235 10
623 1.20563093783869 -0.8055768378784235 11.25
624 1.339625322141366 -0.5548909769293805 1.25
625 1.339625322141366 -0.5548909769293805 2.5
626 1.339625322141366 -0.5548909769293805 3.75
627 1.339625322141366 -0.5548909769293805 5
628 1.339625322141366 -0.5548909769293805 6.25
629 1.339625322141366 -0.5548909769293805 7.5
630 1.339625322141366 -0.5548909769293805 8.75
631 1.339625322141366 -0.5548909769293805 10
632 1.339625322141366 -0.5548909769293805 11.25
633 1.422138656584684 -0.2828809669233863 1.25
634 1.422138656584684 -0.2828809669233863 2.5
635 1.422138656584684 -0.2828809669233863 3.75
636 1.422138656584684 -0.2828809669233863 5
637 1.422138656584684 -0.2828809669233863 6.25
638 1.422138656584684 -0.2828809669233863 7.5
639 1.422138656584684 -0.2828809669233863 8.75
640 1.422138656584684 -0.2828809669233863 10
641 1.422138656584684 -0.2828809669233863 11.25
642 0.2438629025201601 -1.225981600504038 1.25
643 0.2438629025201601 -1.225981600504038 2.5
644 0.2438629025201601 -1.225981600504038 3.75
645 0.2438629025201601 -1.225981600504038 5
646 0.2438629025201601 -1.225981600504038 6.25
647 0.2438629025201601 -1.225981600504038 7.5
648 0.2438629025201601 -1.225981600504038 8.75
649 0.2438629025201601 -1.225981600504038 10
650 0.2438629025201601 -1.225981600504038 11.25
651 0.478354290456362 -1.154849415639108 1.25
652 0.478354290456362 -1.154849415639108 2.5
653 0.478354290456362 -1.154849415639108 3.75
654 0.478354290456362 -1.154849415639108 5
655 0.478354290456362 -1.154849415639108 6.25
656 0.478354290456362 -1.154849415639108 7.5
657 0.478354290456362 -1.154849415639108 8.75
658 0.478354290456362 -1.154849415639108 10
659 0.478354290456362 -1.154849415639108 11.25
660 0.6944627912745025 -1.039337015378182 1.25
661 0.6944627912745025 -1.039337015378182 2.5
662 0.6944627912745025 -1.039337015378182 3.75
663 0.6944627912745025 -1.039337015378182 5
664 0.6944627912745025 -1.039337015378182 6.25
665 0.6944627912745025 -1.039337015378182 7.5
666 0.6944627912745025 -1.039337015378182 8.75
667 0.6944627912745025 -1.039337015378182 10
668 0.6944627912745025 -1.039337015378182 11.25
669 0.8838834764831842 -0.8838834764831845 1.25
670 0.8838834764831842 -0.8838834764831845 2.5
671 0.8838834764831842 -0.8838834764831845 3.75
672 0.8838834764831842 -0.8838834764831845 5
673 0.8838834764831842 -0.8838834764831845 6.25
674 0.8838834764831842 -0.8838834764831845 7.5
675 0.8838834764831842 -0.8838834764831845 8.75
676 0.8838834764831842 -0.8838834764831845 10
677 0.8838834764831842 -0.8838834764831845 11.25
678 1.039337015378181 -0.6944627912745031 1.25
679 1.039337015378181 -0.6944627912745031 2.5
680 1.039337015378181 -0.6944627912745031 3.75
681 1.039337015378181 -0.6944627912745031 5
682 1.039337015378181 -0.6944627912745031 6.25
683 1.039337015378181 -0.6944627912745031 7.5
684 1.039337015378181 -0.6944627912745031 8.75
685 1.039337015378181 -0.6944627912745031 10
686 1.039337015378181 -0.6944627912745031 11.25
687 1.154849415639108 -0.4783542904563625 1.25
688 1.154849415639108 -0.4783542904563625 2.5
689 1.154849415639108 -0.4783542904563625 3.75
690 1.154849415639108 -0.4783542904563625 5
691 1.154849415639108 -0.4783542904563625 6.25
692 1.154849415639108 -0.4783542904563625 7.5
693 1.154849415639108 -0.4783542904563625 8.75
694 1.154849415639108 -0.4783542904563625 10
695 1.154849415639108 -0.4783542904563625 11.25
696 1.225981600504038 -0.2438629025201606 1.25
697 1.225981600504038 -0.2438629025201606 2.5
698 1.225981600504038 -0.2438629025201606 3.75
699 1.225981600504038 -0.2438629025201606 5
700 1.225981600504038 -0.2438629025201606 6.25
701 1.225981600504038 -0.2438629025201606 7.5
702 1.225981600504038 -0.2438629025201606 8.75
703 1.225981600504038 -0.2438629025201606 10
704 1.225981600504038 -0.2438629025201606 11.25
$EndNodes
$Elements
1024
1 3 2 200 5 1 2 24 17
2 3 2 200 5 17 24 25 18
3 3 2 200 5 18 25 26 19
4 3 2 200 5 19 26 27 20
5 3 2 200 5 20 27 28 21
6 3 2 200 5 21 28 29 22
7 3 2 200 5 22 29 30 23
8 3 2 200 5 23 30 4 3
9 3 2 200 9 3 4 38 31
10 3 2 200 9 31 38 39 32
11 3 2 200 9 32 39 40 33
12 3 2 200 9 33 40 41 34
13 3 2 200 9 34 41 42 35
14 3 2 200 9 35 42 43 36
15 3 2 200 9 36 43 44 37
16 3 2 200 9 37 44 6 5
17 3 2 200 13 5 6 52 45
18 3 2 200 13 45 52 53 46
19 3 2 200 13 46 53 54 47
20 3 2 200 13 47 54 55 48
21 3 2 200 13 48 55 56 49
22 3 2 200 13 49 56 57 50
23 3 2 200 13 50 57 58 51
24 3 2 200 13 51 58 8 7
25 3 2 200 17 7 8 66 59
26 3 2 200 17 59 66 67 60
27 3 2 200 17 60 67 68 61
28 3 2 200 17 61 68 69 62
29 3 2 200 17 62 69 70 63
30 3 2 200 17 63 70 71 64
31 3 2 200 17 64 71 72 65
32 3 2 200 17 65 72 2 1
33 3 2 203 30 2 24 201 96
34 3 2 203 30 96 201 202 97
35 3 2 203 30 97 202 203 98
36 3 2 203 30 98 203 204 99
37 3 2 203 30 99 204 205 100
38 3 2 203 30 100 205 206 101
39 3 2 203 30 101 206 207 102
40 3 2 203 30 102 207 208 103
41 3 2 203 30 103 208 209 104
42 3 2 203 30 104 209 73 10
43 3 2 203 30 24 25 210 201
44 3 2 203 30 201 210 211 202
45 3 2 203 30 202 211 212 203
46 3 2 203 30 203 212 213 204
47 3 2 203 30 204 213 214 205
48 3 2 203 30 205 214 215 206
49 3 2 203 30 206 215 216 207
50 3 2 203 30 207 216 217 208
51 3 2 203 30 208 217 218 209
52 3 2 203 30 209 218 74 73
53 3 2 203 30 25 26 219 210
54 3 2 203 30 210 219 220 211
55 3 2 203 30 211 220 221 212
56 3 2 203 30 212 221 222 213
57 3 2 203 30 213 222 223 214
58 3 2 203 30 214 223 224 215
59 3 2 203 30 215 224 225 216
60 3 2 203 30 216 225 226 217
61 3 2 203 30 217 226 227 218
62 3 2 203 30 218 227 75 74
63 3 2 203 30 26 27 228 219
64 3 2 203 30 219 228 229 220
65 3 2 203 30 220 229 230 221
66 3 2 203 30 221 230 231 222
67 3 2 203 30 222 231 232 223
68 3 2 203 30 223 232 233 224
69 3 2 203 30 224 233 234 225
70 3 2 203 30 225 234 235 226
71 3 2 203 30 226 235 236 227
72 3 2 203 30 227 236 76 75
73 3 2 203 30 27 28 237 228
74 3 2 203 30 228 237 238 229
75 3 2 203 30 229 238 239 230
76 3 2 203 30 230 239 240 231
77 3 2 203 30 231 240 241 232
78 3 2 203 30 232 241 242 233
79 3 2 203 30 233 242 243 234
80 3 2 203 30 234 243 244 235
81 3 2 203 30 235 244 245 236
82 3 2 203 30 236 245 77 76
83 3 2 203 30 28 29 246 237
84 3 2 203 30 237 246 247 238
85 3 2 203 30 238 247 248 239
86 3 2 203 30 239 248 249 240
87 3 2 203 30 240 249 250 241
88 3 2 203 30 241 250 251 242
89 3 2 203 30 242 251 252 243
90 3 2 203 30 243 252 253 244
91 3 2 203 30 244 253 254 245
92 3 2 203 30 245 254 78 77
93 3 2 203 30 29 30 255 246
94 3 2 203 30 246 255 256 247
95 3 2 203 30 247 256 257 248
96 3 2 203 30 248 257 258 249
97 3 2 203 30 249 258 259 250
98 3 2 203 30 250 259 260 251
99 3 2 203 30 251 260 261 252
100 3 2 203 30 252 261 262 253
101 3 2 203 30 253 262 263 254
102 3 2 203 30 254 263 79 78
103 3 2 203 30 30 4 105 255
104 3 2 203 30 255 105 106 256
105 3 2 203 30 256 106 107 257
106 3 2 203 30 257 107 108 258
107 3 2 203 30 258 108 109 259
108 3 2 203 30 259 109 110 260
109 3 2 203 30 260 110 111 261
110 3 2 203 30 261 111 112 262
111 3 2 203 30 262 112 113 263
112 3 2 203 30 263 113 11 79
113 3 2 202 38 1 87 264 17
114 3 2 202 38 87 88 265 264
115 3 2 202 38 88 89 266 265
116 3 2 202 38 89 90 267 266
117 3 2 202 38 90 91 268 267
118 3 2 202 38 91 92 269 268
119 3 2 202 38 92 93 270 269
120 3 2 202 38 93 94 271 270
121 3 2 202 38 94 95 272 271
122 3 2 202 38 95 9 86 272
123 3 2 202 38 17 264 273 18
124 3 2 202 38 264 265 274 273
125 3 2 202 38 265 266 275 274
126 3 2 202 38 266 267 276 275
127 3 2 202 38 267 268 277 276
128 3 2 202 38 268 269 278 277
129 3 2 202 38 269 270 279 278
130 3 2 202 38 270 271 280 279
131 3 2 202 38 271 272 281 280
132 3 2 202 38 272 86 85 281
133 3 2 202 38 18 273 282 19
134 3 2 202 38 273 274 283 282
135 3 2 202 38 274 275 284 283
136 3 2 202 38 275 276 285 284
137 3 2 202 38 276 277 286 285
138 3 2 202 38 277 278 287 286
139 3 2 202 38 278 279 288 287
140 3 2 202 38 279 280 289 288
141 3 2 202 38 280 281 290 289
142 3 2 202 38 281 85 84 290
143 3 2 202 38 19 282 291 20
144 3 2 202 38 282 283 292 291
145 3 2 202 38 283 284 293 292
146 3 2 202 38 284 285 294 293
147 3 2 202 38 285 286 295 294
148 3 2 202 38 286 287 296 295
149 3 2 202 38 287 288 297 296
150 3 2 202 38 288 289 298 297
151 3 2 202 38 289 290 299 298
152 3 2 202 38 290 84 83 299
153 3 2 202 38 20 291 300 21
154 3 2 202 38 291 292 301 300
155 3 2 202 38 292 293 302 301
156 3 2 202 38 293 294 303 302
157 3 2 202 38 294 295 304 303
158 3 2 202 38 295 296 305 304
159 3 2 202 38 296 297 306 305
160 3 2 202 38 297 298 307 306
161 3 2 202 38 298 299 308 307
162 3 2 202 38 299 83 82 308
163 3 2 202 38 21 300 309 22
164 3 2 202 38 300 301 310 309
165 3 2 202 38 301 302 311 310
166 3 2 202 38 302 303 312 311
167 3 2 202 38 303 304 313 312
168 3 2 202 38 304 305 314 313
169 3 2 202 38 305 306 315 314
170 3 2 202 38 306 307 316 315
171 3 2 202 38 307 308 317 316
172 3 2 202 38 308 82 81 317
173 3 2 202 38 22 309 318 23
174 3 2 202 38 309 310 319 318
175 3 2 202 38 310 311 320 319
176 3 2 202 38 311 312 321 320
177 3 2 202 38 312 313 322 321
178 3 2 202 38 313 314 323 322
179 3 2 202 38 314 315 324 323
180 3 2 202 38 315 316 325 324
181 3 2 202 38 316 317 326 325
182 3 2 202 38 317 81 80 326
183 3 2 202 38 23 318 114 3
184 3 2 202 38 318 319 115 114
185 3 2 202 38 319 320 116 115
186 3 2 202 38 320 321 117 116
187 3 2 202 38 321 322 118 117
188 3 2 202 38 322 323 119 118
189 3 2 202 38 323 324 120 119
190 3 2 202 38 324 325 121 120
191 3 2 202 38 325 326 122 121
192 3 2 202 38 326 80 12 122
193 3 2 201 39 9 10 73 86
194 3 2 201 39 86 73 74 85
195 3 2 201 39 85 74 75 84
196 3 2 201 39 84 75 76 83
197 3 2 201 39 83 76 77 82
198 3 2 201 39 82 77 78 81
199 3 2 201 39 81 78 79 80
200 3 2 201 39 80 79 11 12
201 3 2 203 52 4 38 327 105
202 3 2 203 52 105 327 328 106
203 3 2 203 52 106 328 329 107
204 3 2 203 52 107 329 330 108
205 3 2 203 52 108 330 331 109
206 3 2 203 52 109 331 332 110
207 3 2 203 52 110 332 333 111
208 3 2 203 52 111 333 334 112
209 3 2 203 52 112 334 335 113
210 3 2 203 52 113 335 123 11
211 3 2 203 52 38 39 336 327
212 3 2 203 52 327 336 337 328
213 3 2 203 52 328 337 338 329
214 3 2 203 52 329 338 339 330
215 3 2 203 52 330 339 340 331
216 3 2 203 52 331 340 341 332
217 3 2 203 52 332 341 342 333
218 3 2 203 52 333 342 343 334
219 3 2 203 52 334 343 344 335
220 3 2 203 52 335 344 124 123
221 3 2 203 52 39 40 345 336
222 3 2 203 52 336 345 346 337
223 3 2 203 52 337 346 347 338
224 3 2 203 52 338 347 348 339
225 3 2 203 52 339 348 349 340
226 3 2 203 52 340 349 350 341
227 3 2 203 52 341 350 351 342
228 3 2 203 52 342 351 352 343
229 3 2 203 52 343 352 353 344
230 3 2 203 52 344 353 125 124
231 3 2 203 52 40 41 354 345
232 3 2 203 52 345 354 355 346
233 3 2 203 52 346 355 356 347
234 3 2 203 52 347 356 357 348
235 3 2 203 52 348 357 358 349
236 3 2 203 52 349 358 359 350
237 3 2 203 52 350 359 360 351
238 3 2 203 52 351 360 361 352
239 3 2 203 52 352 361 362 353
240 3 2 203 52 353 362 126 125
241 3 2 203 52 41 42 363 354
242 3 2 203 52 354 363 364 355
243 3 2 203 52 355 364 365 356
244 3 2 203 52 356 365 366 357
245 3 2 203 52 357 366 367 358
246 3 2 203 52 358 367 368 359
247 3 2 203 52 359 368 369 360
248 3 2 203 52 360 369 370 361
249 3 2 203 52 361 370 371 362
250 3 2 203 52 362 371 127 126
251 3 2 203 52 42 43 372 363
252 3 2 203 52 363 372 373 364
253 3 2 203 52 364 373 374 365
254 3 2 203 52 365 374 375 366
255 3 2 203 52 366 375 376 367
256 3 2 203 52 367 376 377 368
257 3 2 203 52 368 377 378 369
258 3 2 203 52 369 378 379 370
259 3 2 203 52 370 379 380 371
260 3 2 203 52 371 380 128 127
261 3 2 203 52 43 44 381 372
262 3 2 203 52 372 381 382 373
263 3 2 203 52 373 382 383 374
264 3 2 203 52 374 383 384 375
265 3 2 203 52 375 384 385 376
266 3 2 203 52 376 385 386 377
267 3 2 203 52 377 386 387 378
268 3 2 203 52 378 387 388 379
269 3 2 203 52 379 388 389 380
270 3 2 203 52 380 389 129 128
271 3 2 203 52 44 6 137 381
272 3 2 203 52 381 137 138 382
273 3 2 203 52 382 138 139 383
274 3 2 203 52 383 139 140 384
275 3 2 203 52 384 140 141 385
276 3 2 203 52 385 141 142 386
277 3 2 203 52 386 142 143 387
278 3 2 203 52 387 143 144 388
279 3 2 203 52 388 144 145 389
280 3 2 203 52 389 145 13 129
281 3 2 202 60 3 114 390 31
282 3 2 202 60 114 115 391 390
283 3 2 202 60 115 116 392 391
284 3 2 202 60 116 117 393 392
285 3 2 202 60 117 118 394 393
286 3 2 202 60 118 119 395 394
287 3 2 202 60 119 120 396 395
288 3 2 202 60 120 121 397 396
289 3 2 202 60 121 122 398 397
290 3 2 202 60 122 12 136 398
291 3 2 202 60 31 390 399 32
292 3 2 202 60 390 391 400 399
293 3 2 202 60 391 392 401 400
294 3 2 202 60 392 393 402 401
295 3 2 202 60 393 394 403 402
296 3 2 202 60 394 395 404 403
297 3 2 202 60 395 396 405 404
298 3 2 202 60 396 397 406 405
299 3 2 202 60 397 398 407 406
300 3 2 202 60 398 136 135 407
301 3 2 202 60 32 399 408 33
302 3 2 202 60 399 400 409 408
303 3 2 202 60 400 401 410 409
304 3 2 202 60 401 402 411 410
305 3 2 202 60 402 403 412 411
306 3 2 202 60 403 404 413 412
307 3 2 202 60 404 405 414 413
308 3 2 202 60 405 406 415 414
309 3 2 202 60 406 407 416 415
310 3 2 202 60 407 135 134 416
311 3 2 202 60 33 408 417 34
312 3 2 202 60 408 409 418 417
313 3 2 202 60 409 410 419 418
314 3 2 202 60 410 411 420 419
315 3 2 202 60 411 412 421 420
316 3 2 202 60 412 413 422 421
317 3 2 202 60 413 414 423 422
318 3 2 202 60 414 415 424 423
319 3 2 202 60 415 416 425 424
320 3 2 202 60 416 134 133 425
321 3 2 202 60 34 417 426 35
322 3 2 202 60 417 418 427 426
323 3 2 202 60 418 419 428 427
324 3 2 202 60 419 420 429 428
325 3 2 202 60 420 421 430 429
326 3 2 202 60 421 422 431 430
327 3 2 202 60 422 423 432 431
328 3 2 202 60 423 424 433 432
329 3 2 202 60 424 425 434 433
330 3 2 202 60 425 133 132 434
331 3 2 202 60 35 426 435 36
332 3 2 202 60 426 427 436 435
333 3 2 202 60 427 428 437 436
334 3 2 202 60 428 429 438 437
335 3 2 202 60 429 430 439 438
336 3 2 202 60 430 431 440 439
337 3 2 202 60 431 432 441 440
338 3 2 202 60 432 433 442 441
339 3 2 202 60 433 434 443 442
340 3 2 202 60 434 132 131 443
341 3 2 202 60 36 435 444 37
342 3 2 202 60 435 436 445 444
343 3 2 202 60 436 437 446 445
344 3 2 202 60 437 438 447 446
345 3 2 202 60 438 439 448 447
346 3 2 202 60 439 440 449 448
347 3 2 202 60 440 441 450 449
348 3 2 202 60 441 442 451 450
349 3 2 202 60 442 443 452 451
350 3 2 202 60 443 131 130 452
351 3 2 202 60 37 444 146 5
352 3 2 202 60 444 445 147 146
353 3 2 202 60 445 446 148 147
354 3 2 202 60 446 447 149 148
355 3 2 202 60 447 448 150 149
356 3 2 202 60 448 449 151 150
357 3 2 202 60 449 450 152 151
358 3 2 202 60 450 451 153 152
359 3 2 202 60 451 452 154 153
360 3 2 202 60 452 130 14 154
361 3 2 201 61 12 11 123 136
362 3 2 201 61 136 123 124 135
363 3 2 201 61 135 124 125 134
364 3 2 201 61 134 125 126 133
365 3 2 201 61 133 126 127 132
366 3 2 201 61 132 127 128 131
367 3 2 201 61 131 128 129 130
368 3 2 201 61 130 129 13 14
369 3 2 203 74 6 52 453 137
370 3 2 203 74 137 453 454 138
371 3 2 203 74 138 454 455 139
372 3 2 203 74 139 455 456 140
373 3 2 203 74 140 456 457 141
374 3 2 203 74 141 457 458 142
375 3 2 203 74 142 458 459 143
376 3 2 203 74 143 459 460 144
377 3 2 203 74 144 460 461 145
378 3 2 203 74 145 461 155 13
379 3 2 203 74 52 53 462 453
380 3 2 203 74 453 462 463 454
381 3 2 203 74 454 463 464 455
382 3 2 203 74 455 464 465 456
383 3 2 203 74 456 465 466 457
384 3 2 203 74 457 466 467 458
385 3 2 203 74 458 467 468 459
386 3 2 203 74 459 468 469 460
387 3 2 203 74 460 469 470 461
388 3 2 203 74 461 470 156 155
389 3 2 203 74 53 54 471 462
390 3 2 203 74 462 471 472 463
391 3 2 203 74 463 472 473 464
392 3 2 203 74 464 473 474 465
393 3 2 203 74 465 474 475 466
394 3 2 203 74 466 475 476 467
395 3 2 203 74 467 476 477 468
396 3 2 203 74 468 477 478 469
397 3 2 203 74 469 478 479 470
398 3 2 203 74 470 479 157 156
399 3 2 203 74 54 55 480 471
400 3 2 203 74 471 480 481 472
401 3 2 203 74 472 481 482 473
402 3 2 203 74 473 482 483 474
403 3 2 203 74 474 483 484 475
404 3 2 203 74 475 484 485 476
405 3 2 203 74 476 485 486 477
406 3 2 203 74 477 486 487 478
407 3 2 203 74 478 487 488 479
408 3 2 203 74 479 488 158 157
409 3 2 203 74 55 56 489 480
410 3 2 203 74 480 489 490 481
411 3 2 203 74 481 490 491 482
412 3 2 203 74 482 491 492 483
413 3 2 203 74 483 492 493 484
414 3 2 203 74 484 493 494 485
415 3 2 203 74 485 494 495 486
416 3 2 203 74 486 495 496 487
417 3 2 203 74 487 496 497 488
418 3 2 203 74 488 497 159 158
419 3 2 203 74 56 57 498 489
420 3 2 203 74 489 498 499 490
421 3 2 203 74 490 499 500 491
422 3 2 203 74 491 500 501 492
423 3 2 203 74 492 501 502 493
424 3 2 203 74 493 502 503 494
425 3 2 203 74 494 503 504 495
426 3 2 203 74 495 504 505 496
427 3 2 203 74 496 505 506 497
428 3 2 203 74 497 506 160 159
429 3 2 203 74 57 58 507 498
430 3 2 203 74 498 507 508 499
431 3 2 203 74 499 508 509 500
432 3 2 203 74 500 509 510 501
433 3 2 203 74 501 510 511 502
434 3 2 203 74 502 511 512 503
435 3 2 203 74 503 512 513 504
436 3 2 203 74 504 513 514 505
437 3 2 203 74 505 514 515 506
438 3 2 203 74 506 515 161 160
439 3 2 203 74 58 8 169 507
440 3 2 203 74 507 169 170 508
441 3 2 203 74 508 170 171 509
442 3 2 203 74 509 171 172 510
443 3 2 203 74 510 172 173 511
444 3 2 203 74 511 173 174 512
445 3 2 203 74 512 174 175 513
446 3 2 203 74 513 175 176 514
447 3 2 203 74 514 176 177 515
448 3 2 203 74 515 177 15 161
449 3 2 202 82 5 146 516 45
450 3 2 202 82 146 147 517 516
451 3 2 202 82 147 148 518 517
452 3 2 202 82 148 149 519 518
453 3 2 202 82 149 150 520 519
454 3 2 202 82 150 151 521 520
455 3 2 202 82 151 152 522 521
456 3 2 202 82 152 153 523 522
457 3 2 202 82 153 154 524 523
458 3 2 202 82 154 14 168 524
459 3 2 202 82 45 516 525 46
460 3 2 202 82 516 517 526 525
461 3 2 202 82 517 518 527 526
462 3 2 202 82 518 519 528 527
463 3 2 202 82 519 520 529 528
464 3 2 202 82 520 521 530 529
465 3 2 202 82 521 522 531 530
466 3 2 202 82 522 523 532 531
467 3 2 202 82 523 524 533 532
468 3 2 202 82 524 168 167 533
469 3 2 202 82 46 525 534 47
470 3 2 202 82 525 526 535 534
471 3 2 202 82 526 527 536 535
472 3 2 202 82 527 528 537 536
473 3 2 202 82 528 529 538 537
474 3 2 202 82 529 530 539 538
475 3 2 202 82 530 531 540 539
476 3 2 202 82 531 532 541 540
477 3 2 202 82 532 533 542 541
478 3 2 202 82 533 167 166 542
479 3 2 202 82 47 534 543 48
480 3 2 202 82 534 535 544 543
481 3 2 202 82 535 536 545 544
482 3 2 202 82 536 537 546 545
483 3 2 202 82 537 538 547 546
484 3 2 202 82 538 539 548 547
485 3 2 202 82 539 540 549 548
486 3 2 202 82 540 541 550 549
487 3 2 202 82 541 542 551 550
488 3 2 202 82 542 166 165 551
489 3 2 202 82 48 543 552 49
490 3 2 202 82 543 544 553 552
491 3 2 202 82 544 545 554 553
492 3 2 202 82 545 546 555 554
493 3 2 202 82 546 547 556 555
494 3 2 202 82 547 548 557 556
495 3 2 202 82 548 549 558 557
496 3 2 202 82 549 550 559 558
497 3 2 202 82 550 551 560 559
498 3 2 202 82 551 165 164 560
499 3 2 202 82 49 552 561 50
500 3 2 202 82 552 553 562 561
501 3 2 202 82 553 554 563 562
502 3 2 202 82 554 555 564 563
503 3 2 202 82 555 556 565 564
504 3 2 202 82 556 557 566 565
505 3 2 202 82 557 558 567 566
506 3 2 202 82 558 559 568 567
507 3 2 202 82 559 560 569 568
508 3 2 202 82 560 164 163 569
509 3 2 202 82 50 561 570 51
510 3 2 202 82 561 562 571 570
511 3 2 202 82 562 563 572 571
512 3 2 202 82 563 564 573 572
513 3 2 202 82 564 565 574 573
514 3 2 202 82 565 566 575 574
515 3 2 202 82 566 567 576 575
516 3 2 202 82 567 568 577 576
517 3 2 202 82 568 569 578 577
518 3 2 202 82 569 163 162 578
519 3 2 202 82 51 570 178 7
520 3 2 202 82 570 571 179 178
521 3 2 202 82 571 572 180 179
522 3 2 202 82 572 573 181 180
523 3 2 202 82 573 574 182 181
524 3 2 202 82 574 575 183 182
525 3 2 202 82 575 576 184 183
526 3 2 202 82 576 577 185 184
527 3 2 202 82 577 578 186 185
528 3 2 202 82 578 162 16 186
529 3 2 201 83 14 13 155 168
530 3 2 201 83 168 155 156 167
531 3 2 201 83 167 156 157 166
532 3 2 201 83 166 157 158 165
533 3 2 201 83 165 158 159 164
534 3 2 201 83 164 159 160 163
535 3 2 201 83 163 160 161 162
536 3 2 201 83 162 161 15 16
537 3 2 203 96 8 66 579 169
538 3 2 203 96 169 579 580 170
539 3 2 203 96 170 580 581 171
540 3 2 203 96 171 581 582 172
541 3 2 203 96 172 582 583 173
542 3 2 203 96 173 583 584 174
543 3 2 203 96 174 584 585 175
544 3 2 203 96 175 585 586 176
545 3 2 203 96 176 586 587 177
546 3 2 203 96 177 587 187 15
547 3 2 203 96 66 67 588 579
548 3 2 203 96 579 588 589 580
549 3 2 203 96 580 589 590 581
550 3 2 203 96 581 590 591 582
551 3 2 203 96 582 591 592 583
552 3 2 203 96 583 592 593 584
553 3 2 203 96 584 593 594 585
554 3 2 203 96 585 594 595 586
555 3 2 203 96 586 595 596 587
556 3 2 203 96 587 596 188 187
557 3 2 203 96 67 68 597 588
558 3 2 203 96 588 597 598 589
559 3 2 203 96 589 598 599 590
560 3 2 203 96 590 599 600 591
561 3 2 203 96 591 600 601 592
562 3 2 203 96 592 601 602 593
563 3 2 203 96 593 602 603 594
564 3 2 203 96 594 603 604 595
565 3 2 203 96 595 604 605 596
566 3 2 203 96 596 605 189 188
567 3 2 203 96 68 69 606 597
568 3 2 203 96 597 606 607 598
569 3 2 203 96 598 607 608 599
570 3 2 203 96 599 608 609 600
571 3 2 203 96 600 609 610 601
572 3 2 203 96 601 610 611 602
573 3 2 203 96 602 611 612 603
574 3 2 203 96 603 612 613 604
575 3 2 203 96 604 613 614 605
576 3 2 203 96 605 614 190 189
577 3 2 203 96 69 70 615 606
578 3 2 203 96 606 615 616 607
579 3 2 203 96 607 616 617 608
580 3 2 203 96 608 617 618 609
581 3 2 203 96 609 618 619 610
582 3 2 203 96 610 619 620 611
583 3 2 203 96 611 620 621 612
584 3 2 203 96 612 621 622 613
585 3 2 203 96 613 622 623 614
586 3 2 203 96 614 623 191 190
587 3 2 203 96 70 71 624 615
588 3 2 203 96 615 624 625 616
589 3 2 203 96 616 625 626 617
590 3 2 203 96 617 626 627 618
591 3 2 203 96 618 627 628 619
592 3 2 203 96 619 628 629 620
593 3 2 203 96 620 629 630 621
594 3 2 203 96 621 630 631 622
595 3 2 203 96 622 631 632 623
596 3 2 203 96 623 632 192 191
597 3 2 203 96 71 72 633 624
598 3 2 203 96 624 633 634 625
599 3 2 203 96 625 634 635 626
600 3 2 203 96 626 635 636 627
601 3 2 203 96 627 636 637 628
602 3 2 203 96 628 637 638 629
603 3 2 203 96 629 638 639 630
604 3 2 203 96 630 639 640 631
605 3 2 203 96 631 640 641 632
606 3 2 203 96 632 641 193 192
607 3 2 203 96 72 2 96 633
608 3 2 203 96 633 96 97 634
609 3 2 203 96 634 97 98 635
610 3 2 203 96 635 98 99 636
611 3 2 203 96 636 99 100 637
612 3 2 203 96 637 100 101 638
613 3 2 203 96 638 101 102 639
614 3 2 203 96 639 102 103 640
615 3 2 203 96 640 103 104 641
616 3 2 203 96 641 104 10 193
617 3 2 202 104 7 178 642 59
618 3 2 202 104 178 179 643 642
619 3 2 202 104 179 180 644 643
620 3 2 202 104 180 181 645 644
621 3 2 202 104 181 182 646 645
622 3 2 202 104 182 183 647 646
623 3 2 202 104 183 184 648 647
624 3 2 202 104 184 185 649 648
625 3 2 202 104 185 186 650 649
626 3 2 202 104 186 16 200 650
627 3 2 202 104 59 642 651 60
628 3 2 202 104 642 643 652 651
629 3 2 202 104 643 644 653 652
630 3 2 202 104 644 645 654 653
631 3 2 202 104 645 646 655 654
632 3 2 202 104 646 647 656 655
633 3 2 202 104 647 648 657 656
634 3 2 202 104 648 649 658 657
635 3 2 202 104 649 650 659 658
636 3 2 202 104 650 200 199 659
637 3 2 202 104 60 651 660 61
638 3 2 202 104 651 652 661 660
639 3 2 202 104 652 653 662 661
640 3 2 202 104 653 654 663 662
641 3 2 202 104 654 655 664 663
642 3 2 202 104 655 656 665 664
643 3 2 202 104 656 657 666 665
644 3 2 202 104 657 658 667 666
645 3 2 202 104 658 659 668 667
646 3 2 202 104 659 199 198 668
647 3 2 202 104 61 660 669 62
648 3 2 202 104 660 661 670 669
649 3 2 202 104 661 662 671 670
650 3 2 202 104 662 663 672 671
651 3 2 202 104 663 664 673 672
652 3 2 202 104 664 665 674 673
653 3 2 202 104 665 666 675 674
654 3 2 202 104 666 667 676 675
655 3 2 202 104 667 668 677 676
656 3 2 202 104 668 198 197 677
657 3 2 202 104 62 669 678 63
658 3 2 202 104 669 670 679 678
659 3 2 202 104 670 671 680 679
660 3 2 202 104 671 672 681 680
661 3 2 202 104 672 673 682 681
662 3 2 202 104 673 674 683 682
663 3 2 202 104 674 675 684 683
664 3 2 202 104 675 676 685 684
665 3 2 202 104 676 677 686 685
666 3 2 202 104 677 197 196 686
667 3 2 202 104 63 678 687 64
668 3 2 202 104 678 679 688 687
669 3 2 202 104 679 680 689 688
670 3 2 202 104 680 681 690 689
671 3 2 202 104 681 682 691 690
672 3 2 202 104 682 683 692 691
673 3 2 202 104 683 684 693 692
674 3 2 202 104 684 685 694 693
675 3 2 202 104 685 686 695 694
676 3 2 202 104 686 196 195 695
677 3 2 202 104 64 687 696 65
678 3 2 202 104 687 688 697 696
679 3 2 202 104 688 689 698 697
680 3 2 202 104 689 690 699 698
681 3 2 202 104 690 691 700 699
682 3 2 202 104 691 692 701 700
683 3 2 202 104 692 693 702 701
684 3 2 202 104 693 694 703 702
685 3 2 202 104 694 695 704 703
686 3 2 202 104 695 195 194 704
687 3 2 202 104 65 696 87 1
688 3 2 202 104 696 697 88 87
689 3 2 202 104 697 698 89 88
690 3 2 202 104 698 699 90 89
691 3 2 202 104 699 700 91 90
692 3 2 202 104 700 701 92 91
693 3 2 202 104 701 702 93 92
694 3 2 202 104 702 703 94 93
695 3 2 202 104 703 704 95 94
696 3 2 202 104 704 194 9 95
697 3 2 201 105 16 15 187 200
698 3 2 201 105 200 187 188 199
699 3 2 201 105 199 188 189 198
700 3 2 201 105 198 189 190 197
701 3 2 201 105 197 190 191 196
702 3 2 201 105 196 191 192 195
703 3 2 201 105 195 192 193 194
704 3 2 201 105 194 193 10 9
705 5 2 301 1 1 2 24 17 87 96 201 264
706 5 2 301 1 87 96 201 264 88 97 202 265
707 5 2 301 1 88 97 202 265 89 98 203 266
708 5 2 301 1 89 98 203 266 90 99 204 267
709 5 2 301 1 90 99 204 267 91 100 205 268
710 5 2 301 1 91 100 205 268 92 101 206 269
711 5 2 301 1 92 101 206 269 93 102 207 270
712 5 2 301 1 93 102 207 270 94 103 208 271
713 5 2 301 1 94 103 208 271 95 104 209 272
714 5 2 301 1 95 104 209 272 9 10 73 86
715 5 2 301 1 17 24 25 18 264 201 210 273
716 5 2 301 1 264 201 210 273 265 202 211 274
717 5 2 301 1 265 202 211 274 266 203 212 275
718 5 2 301 1 266 203 212 275 267 204 213 276
719 5 2 301 1 267 204 213 276 268 205 214 277
720 5 2 301 1 268 205 214 277 269 206 215 278
721 5 2 301 1 269 206 215 278 270 207 216 279
722 5 2 301 1 270 207 216 279 271 208 217 280
723 5 2 301 1 271 208 217 280 272 209 218 281
724 5 2 301 1 272 209 218 281 86 73 74 85
725 5 2 301 1 18 25 26 19 273 210 219 282
726 5 2 301 1 273 210 219 282 274 211 220 283
727 5 2 301 1 274 211 220 283 275 212 221 284
728 5 2 301 1 275 212 221 284 276 213 222 285
729 5 2 301 1 276 213 222 285 277 214 223 286
730 5 2 301 1 277 214 223 286 278 215 224 287
731 5 2 301 1 278 215 224 287 279 216 225 288
732 5 2 301 1 279 216 225 288 280 217 226 289
733 5 2 301 1 280 217 226 289 281 218 227 290
734 5 2 301 1 281 218 227 290 85 74 75 84
735 5 2 301 1 19 26 27 20 282 219 228 291
736 5 2 301 1 282 219 228 291 283 220 229 292
737 5 2 301 1 283 220 229 292 284 221 230 293
738 5 2 301 1 284 221 230 293 285 222 231 294
739 5 2 301 1 285 222 231 294 286 223 232 295
740 5 2 301 1 286 223 232 295 287 224 233 296
741 5 2 301 1 287 224 233 296 288 225 234 297
742 5 2 301 1 288 225 234 297 289 226 235 298
743 5 2 301 1 289 226 235 298 290 227 236 299
744 5 2 301 1 290 227 236 299 84 75 76 83
745 5 2 301 1 20 27 28 21 291 228 237 300
746 5 2 301 1 291 228 237 300 292 229 238 301
747 5 2 301 1 292 229 238 301 293 230 239 302
748 5 2 301 1 293 230 239 302 294 231 240 303
749 5 2 301 1 294 231 240 303 295 232 241 304
750 5 2 301 1 295 232 241 304 296 233 242 305
751 5 2 301 1 296 233 242 305 297 234 243 306
752 5 2 301 1 297 234 243 306 298 235 244 307
753 5 2 301 1 298 235 244 307 299 236 245 308
754 5 2 301 1 299 236 245 308 83 76 77 82
755 5 2 301 1 21 28 29 22 300 237 246 309
756 5 2 301 1 300 237 246 309 301 238 247 310
757 5 2 301 1 301 238 247 310 302 239 248 311
758 5 2 301 1 302 239 248 311 303 240 249 312
759 5 2 301 1 303 240 249 312 304 241 250 313
760 5 2 301 1 304 241 250 313 305 242 251 314
761 5 2 301 1 305 242 251 314 306 243 252 315
762 5 2 301 1 306 243 252 315 307 244 253 316
763 5 2 301 1 307 244 253 316 308 245 254 317
764 5 2 301 1 308 245 254 317 82 77 78 81
765 5 2 301 1 22 29 30 23 309 246 255 318
766 5 2 301 1 309 246 255 318 310 247 256 319
767 5 2 301 1 310 247 256 319 311 248 257 320
768 5 2 301 1 311 248 257 320 312 249 258 321
769 5 2 301 1 312 249 258 321 313 250 259 322
770 5 2 301 1 313 250 259 322 314 251 260 323
771 5 2 301 1 314 251 260 323 315 252 261 324
772 5 2 301 1 315 252 261 324 316 253 262 325
773 5 2 301 1 316 253 262 325 317 254 263 326
774 5 2 301 1 317 254 263 326 81 78 79 80
775 5 2 301 1 23 30 4 3 318 255 105 114
776 5 2 301 1 318 255 105 114 319 256 106 115
777 5 2 301 1 319 256 106 115 320 257 107 116
778 5 2 301 1 320 257 107 116 321 258 108 117
779 5 2 301 1 321 258 108 117 322 259 109 118
780 5 2 301 1 322 259 109 118 323 260 110 119
781 5 2 301 1 323 260 110 119 324 261 111 120
782 5 2 301 1 324 261 111 120 325 262 112 121
783 5 2 301 1 325 262 112 121 326 263 113 122
784 5 2 301 1 326 263 113 122 80 79 11 12
785 5 2 301 2 3 4 38 31 114 105 327 390
786 5 2 301 2 114 105 327 390 115 106 328 391
787 5 2 301 2 115 106 328 391 116 107 329 392
788 5 2 301 2 116 107 329 392 117 108 330 393
789 5 2 301 2 117 108 330 393 118 109 331 394
790 5 2 301 2 118 109 331 394 119 110 332 395
791 5 2 301 2 119 110 332 395 120 111 333 396
792 5 2 301 2 120 111 333 396 121 112 334 397
793 5 2 301 2 121 112 334 397 122 113 335 398
794 5 2 301 2 122 113 335 398 12 11 123 136
795 5 2 301 2 31 38 39 32 390 327 336 399
796 5 2 301 2 390 327 336 399 391 328 337 400
797 5 2 301 2 391 328 337 400 392 329 338 401
798 5 2 301 2 392 329 338 401 393 330 339 402
799 5 2 301 2 393 330 339 402 394 331 340 403
800 5 2 301 2 394 331 340 403 395 332 341 404
801 5 2 301 2 395 332 341 404 396 333 342 405
802 5 2 301 2 396 333 342 405 397 334 343 406
803 5 2 301 2 397 334 343 406 398 335 344 407
804 5 2 301 2 398 335 344 407 136 123 124 135
805 5 2 301 2 32 39 40 33 399 336 345 408
806 5 2 301 2 399 336 345 408 400 337 346 409
807 5 2 301 2 400 337 346 409 401 338 347 410
808 5 2 301 2 401 338 347 410 402 339 348 411
809 5 2 301 2 402 339 348 411 403 340 349 412
810 5 2 301 2 403 340 349 412 404 341 350 413
811 5 2 301 2 404 341 350 413 405 342 351 414
812 5 2 301 2 405 342 351 414 406 343 352 415
813 5 2 301 2 406 343 352 415 407 344 353 416
814 5 2 301 2 407 344 353 416 135 124 125 134
815 5 2 301 2 33 40 41 34 408 345 354 417
816 5 2 301 2 408 345 354 417 409 346 355 418
817 5 2 301 2 409 346 355 418 410 347 356 419
818 5 2 301 2 410 347 356 419 411 348 357 420
819 5 2 301 2 411 348 357 420 412 349 358 421
820 5 2 301 2 412 349 358 421 413 350 359 422
821 5 2 301 2 413 350 359 422 414 351 360 423
822 5 2 301 2 414 351 360 423 415 352 361 424
823 5 2 301 2 415 352 361 424 416 353 362 425
824 5 2 301 2 416 353 362 425 134 125 126 133
825 5 2 301 2 34 41 42 35 417 354 363 426
826 5 2 301 2 417 354 363 426 418 355 364 427
827 5 2 301 2 418 355 364 427 419 356 365 428
828 5 2 301 2 419 356 365 428 420 357 366 429
829 5 2 301 2 420 357 366 429 421 358 367 430
830 5 2 301 2 421 358 367 430 422 359 368 431
831 5 2 301 2 422 359 368 431 423 360 369 432
832 5 2 301 2 423 360 369 432 424 361 370 433
833 5 2 301 2 424 361 370 433 425 362 371 434
834 5 2 301 2 425 362 371 434 133 126 127 132
835 5 2 301 2 35 42 43 36 426 363 372 435
836 5 2 301 2 426 363 372 435 427 364 373 436
837 5 2 301 2 427 364 373 436 428 365 374 437
838 5 2 301 2 428 365 374 437 429 366 375 438
839 5 2 301 2 429 366 375 438 430 367 376 439
840 5 2 301 2 430 367 376 439 431 368 377 440
841 5 2 301 2 431 368 377 440 432 369 378 441
842 5 2 301 2 432 369 378 441 433 370 379 442
843 5 2 301 2 433 370 379 442 434 371 380 443
844 5 2 301 2 434 371 380 443 132 127 128 131
845 5 2 301 2 36 43 44 37 435 372 381 444
846 5 2 301 2 435 372 381 444 436 373 382 445
847 5 2 301 2 436 373 382 445 437 374 383 446
848 5 2 301 2 437 374 383 446 438 375 384 447
849 5 2 301 2 438 375 384 447 439 376 385 448
850 5 2 301 2 439 376 385 448 440 377 386 449
851 5 2 301 2 440 377 386 449 441 378 387 450
852 5 2 301 2 441 378 387 450 442 379 388 451
853 5 2 301 2 442 379 388 451 443 380 389 452
854 5 2 301 2 443 380 389 452 131 128 129 130
855 5 2 301 2 37 44 6 5 444 381 137 146
856 5 2 301 2 444 381 137 146 445 382 138 147
857 5 2 301 2 445 382 138 147 446 383 139 148
858 5 2 301 2 446 383 139 148 447 384 140 149
859 5 2 301 2 447 384 140 149 448 385 141 150
860 5 2 301 2 448 385 141 150 449 386 142 151
861 5 2 301 2 449 386 142 151 450 387 143 152
862 5 2 301 2 450 387 143 152 451 388 144 153
863 5 2 301 2 451 388 144 153 452 389 145 154
864 5 2 301 2 452 389 145 154 130 129 13 14
865 5 2 301 3 5 6 52 45 146 137 453 516
866 5 2 301 3 146 137 453 516 147 138 454 517
867 5 2 301 3 147 138 454 517 148 139 455 518
868 5 2 301 3 148 139 455 518 149 140 456 519
869 5 2 301 3 149 140 456 519 150 141 457 520
870 5 2 301 3 150 141 457 520 151 142 458 521
871 5 2 301 3 151 142 458 521 152 143 459 522
872 5 2 301 3 152 143 459 522 153 144 460 523
873 5 2 301 3 153 144 460 523 154 145 461 524
874 5 2 301 3 154 145 461 524 14 13 155 168
875 5 2 301 3 45 52 53 46 516 453 462 525
876 5 2 301 3 516 453 462 525 517 454 463 526
877 5 2 301 3 517 454 463 526 518 455 464 527
878 5 2 301 3 518 455 464 527 519 456 465 528
879 5 2 301 3 519 456 465 528 520 457 466 529
880 5 2 301 3 520 457 466 529 521 458 467 530
881 5 2 301 3 521 458 467 530 522 459 468 531
882 5 2 301 3 522 459 468 531 523 460 469 532
883 5 2 301 3 523 460 469 532 524 461 470 533
884 5 2 301 3 524 461 470 533 168 155 156 167
885 5 2 301 3 46 53 54 47 525 462 471 534
886 5 2 301 3 525 462 471 534 526 463 472 535
887 5 2 301 3 526 463 472 535 527 464 473 536
888 5 2 301 3 527 464 473 536 528 465 474 537
889 5 2 301 3 528 465 474 537 529 466 475 538
890 5 2 301 3 529 466 475 538 530 467 476 539
891 5 2 301 3 530 467 476 539 531 468 477 540
892 5 2 301 3 531 468 477 540 532 469 478 541
893 5 2 301 3 532 469 478 541 533 470 479 542
894 5 2 301 3 533 470 479 542 167 156 157 166
895 5 2 301 3 47 54 55 48 534 471 480 543
896 5 2 301 3 534 471 480 543 535 472 481 544
897 5 2 301 3 535 472 481 544 536 473 482 545
898 5 2 301 3 536 473 482 545 537 474 483 546
899 5 2 301 3 537 474 483 546 538 475 484 547
900 5 2 301 3 538 475 484 547 539 476 485 548
901 5 2 301 3 539 476 485 548 540 477 486 549
902 5 2 301 3 540 477 486 549 541 478 487 550
903 5 2 301 3 541 478 487 550 542 479 488 551
904 5 2 301 3 542 479 488 551 166 157 158 165
905 5 2 301 3 48 55 56 49 543 480 489 552
906 5 2 301 3 543 480 489 552 544 481 490 553
907 5 2 301 3 544 481 490 553 545 482 491 554
908 5 2 301 3 545 482 491 554 546 483 492 555
909 5 2 301 3 546 483 492 555 547 484 493 556
910 5 2 301 3 547 484 493 556 548 485 494 557
911 5 2 301 3 548 485 494 557 549 486 495 558
912 5 2 301 3 549 486 495 558 550 487 496 559
913 5 2 301 3 550 487 496 559 551 488 497 560
914 5 2 301 3 551 488 497 560 165 158 159 164
915 5 2 301 3 49 56 57 50 552 489 498 561
916 5 2 301 3 552 489 498 561 553 490 499 562
917 5 2 301 3 553 490 499 562 554 491 500 563
918 5 2 301 3 554 491 500 563 555 492 501 564
919 5 2 301 3 555 492 501 564 556 493 502 565
920 5 2 301 3 556 493 502 565 557 494 503 566
921 5 2 301 3 557 494 503 566 558 495 504 567
922 5 2 301 3 558 495 504 567 559 496 505 568
923 5 2 301 3 559 496 505 568 560 497 506 569
924 5 2 301 3 560 497 506 569 164 159 160 163
925 5 2 301 3 50 57 58 51 561 498 507 570
926 5 2 301 3 561 498 507 570 562 499 508 571
927 5 2 301 3 562 499 508 571 563 500 509 572
928 5 2 301 3 563 500 509 572 564 501 510 573
929 5 2 301 3 564 501 510 573 565 502 511 574
930 5 2 301 3 565 502 511 574 566 503 512 575
931 5 2 301 3 566 503 512 575 567 504 513 576
932 5 2 301 3 567 504 513 576 568 505 514 577
933 5 2 301 3 568 505 514 577 569 506 515 578
934 5 2 301 3 569 506 515 578 163 160 161 162
935 5 2 301 3 51 58 8 7 570 507 169 178
936 5 2 301 3 570 507 169 178 571 508 170 179
937 5 2 301 3 571 508 170 179 572 509 171 180
938 5 2 301 3 572 509 171 180 573 510 172 181
939 5 2 301 3 573 510 172 181 574 511 173 182
940 5 2 301 3 574 511 173 182 575 512 174 183
941 5 2 301 3 575 512 174 183 576 513 175 184
942 5 2 301 3 576 513 175 184 577 514 176 185
943 5 2 301 3 577 514 176 185 578 515 177 186
944 5 2 301 3 578 515 177 186 162 161 15 16
945 5 2 301 4 7 8 66 59 178 169 579 642
946 5 2 301 4 178 169 579 642 179 170 580 643
947 5 2 301 4 179 170 580 643 180 171 581 644
948 5 2 301 4 180 171 581 644 181 172 582 645
949 5 2 301 4 181 172 582 645 182 173 583 646
950 5 2 301 4 182 173 583 646 183 174 584 647
951 5 2 301 4 183 174 584 647 184 175 585 648
952 5 2 301 4 184 175 585 648 185 176 586 649
953 5 2 301 4 185 176 586 649 186 177 587 650
954 5 2 301 4 186 177 587 650 16 15 187 200
955 5 2 301 4 59 66 67 60 642 579 588 651
956 5 2 301 4 642 579 588 651 643 580 589 652
957 5 2 301 4 643 580 589 652 644 581 590 653
958 5 2 301 4 644 581 590 653 645 582 591 654
959 5 2 301 4 645 582 591 654 646 583 592 655
960 5 2 301 4 646 583 592 655 647 584 593 656
961 5 2 301 4 647 584 593 656 648 585 594 657
962 5 2 301 4 648 585 594 657 649 586 595 658
963 5 2 301 4 649 586 595 658 650 587 596 659
964 5 2 301 4 650 587 596 659 200 187 188 199
965 5 2 301 4 60 67 68 61 651 588 597 660
966 5 2 301 4 651 588 597 660 652 589 598 661
967 5 2 301 4 652 589 598 661 653 590 599 662
968 5 2 301 4 653 590 599 662 654 591 600 663
969 5 2 301 4 654 591 600 663 655 592 601 664
970 5 2 301 4 655 592 601 664 656 593 602 665
971 5 2 301 4 656 593 602 665 657 594 603 666
972 5 2 301 4 657 594 603 666 658 595 604 667
973 5 2 301 4 658 595 604 667 659 596 605 668
974 5 2 301 4 659 596 605 668 199 188 189 198
975 5 2 301 4 61 68 69 62 660 597 606 669
976 5 2 301 4 660 597 606 669 661 598 607 670
977 5 2 301 4 661 598 607 670 662 599 608 671
978 5 2 301 4 662 599 608 671 663 600 609 672
979 5 2 301 4 663 600 609 672 664 601 610 673
980 5 2 301 4 664 601 610 673 665 602 611 674
981 5 2 301 4 665 602 611 674 666 603 612 675
982 5 2 301 4 666 603 612 675 667 604 613 676
983 5 2 301 4 667 604 613 676 668 605 614 677
984 5 2 301 4 668 605 614 677 198 189 190 197
985 5 2 301 4 62 69 70 63 669 606 615 678
986 5 2 301 4 669 606 615 678 670 607 616 679
987 5 2 301 4 670 607 616 679 671 608 617 680
988 5 2 301 4 671 608 617 680 672 609 618 681
989 5 2 301 4 672 609 618 681 673 610 619 682
990 5 2 301 4 673 610 619 682 674 611 620 683
991 5 2 301 4 674 611 620 683 675 612 621 684
992 5 2 301 4 675 612 621 684 676 613 622 685
993 5 2 301 4 676 613 622 685 677 614 623 686
994 5 2 301 4 677 614 623 686 197 190 191 196
995 5 2 301 4 63 70 71 64 678 615 624 687
996 5 2 301 4 678 615 624 687 679 616 625 688
997 5 2 301 4 679 616 625 688 680 617 626 689
998 5 2 301 4 680 617 626 689 681 618 627 690
999 5 2 301 4 681 618 627 690 682 619 628 691
1000 5 2 301 4 682 619 628 691 683 620 629 692
1001 5 2 301 4 683 620 629 692 684 621 630 693
1002 5 2 301 4 684 621 630 693 685 622 631 694
1003 5 2 301 4 685 622 631 694 686 623 632 695
1004 5 2 301 4 686 623 632 695 196 191 192 195
1005 5 2 301 4 64 71 72 65 687 624 633 696
1006 5 2 301 4 687 624 633 696 688 625 634 697
1007 5 2 301 4 688 625 634 697 689 626 635 698
1008 5 2 301 4 689 626 635 698 690 627 636 699
1009 5 2 301 4 690 627 636 699 691 628 637 700
1010 5 2 301 4 691 628 637 700 692 629 638 701
1011 5 2 301 4 692 629 638 701 693 630 639 702
1012 5 2 301 4 693 630 639 702 694 631 640 703
1013 5 2 301 4 694 631 640 703 695 632 641 704
1014 5 2 301 4 695 632 641 704 195 192 193 194
1015 5 2 301 4 65 72 2 1 696 633 96 87
1016 5 2 301 4 696 633 96 87 697 634 97 88
1017 5 2 301 4 697 634 97 88 698 635 98 89
1018 5 2 301 4 698 635 98 89 699 636 99 90
1019 5 2 301 4 699 636 99 90 700 637 100 91
1020 5 2 301 4 700 637 100 91 701 638 101 92
1021 5 2 301 4 701 638 101 92 702 639 102 93
1022 5 2 301 4 702 639 102 93 703 640 103 94
1023 5 2 301 4 703 640 103 94 704 641 104 95
1024 5 2 301 4 704 641 104 95 194 193 10 9
$EndElements
